! 10/3/2022 2:07:45 PM
! D:\USERS\JULIAN\DESKTOP\MATRIZ DE DISPERSION\OFF\S43.S2P
! CHANNEL.1
! TR.MEASUREMENT
! CORRECTED.DATA
# GHZ S RI R 50.0
! FREQ.GHZ         S11RE         S11IM         S21RE         S21IM         S12RE         S12IM         S22RE         S22IM         
!; PortSelection: Port_12
   0.512000000     0.2166346    0.0695007    -0.0010249    0.0175871    -0.0007579    0.0170165     0.6600524   -0.7216796 
   0.513531250     0.2172608    0.0692739    -0.0011371    0.0176752    -0.0007540    0.0170684     0.6585967   -0.7231294 
   0.515062500     0.2180650    0.0687923    -0.0011706    0.0178105    -0.0007633    0.0171382     0.6567577   -0.7246974 
   0.516593750     0.2188034    0.0684570    -0.0011803    0.0179139    -0.0007663    0.0171794     0.6547331   -0.7259995 
   0.518125000     0.2192974    0.0679492    -0.0012068    0.0180469    -0.0007732    0.0172528     0.6530220   -0.7278845 
   0.519656250     0.2198673    0.0677063    -0.0011861    0.0181817    -0.0007821    0.0173061     0.6513038   -0.7297120 
   0.521187500     0.2203877    0.0675664    -0.0011903    0.0182788    -0.0008168    0.0173716     0.6496850   -0.7316345 
   0.522718750     0.2209889    0.0673358    -0.0011956    0.0184315    -0.0008210    0.0174744     0.6479568   -0.7329502 
   0.524250000     0.2216493    0.0670065    -0.0011551    0.0185345    -0.0008310    0.0175225     0.6459844   -0.7347438 
   0.525781250     0.2221843    0.0667384    -0.0011290    0.0186488    -0.0007997    0.0175919     0.6442000   -0.7358080 
   0.527312500     0.2226930    0.0663776    -0.0010648    0.0188061    -0.0008112    0.0176669     0.6423981   -0.7379571 
   0.528843750     0.2231932    0.0657569    -0.0010558    0.0189037    -0.0008205    0.0177446     0.6407291   -0.7394395 
   0.530375000     0.2236794    0.0655337    -0.0010007    0.0190029    -0.0007850    0.0178294     0.6382975   -0.7412376 
   0.531906250     0.2244147    0.0651038    -0.0009563    0.0191531    -0.0008123    0.0179103     0.6369294   -0.7433107 
   0.533437500     0.2249537    0.0648900    -0.0008697    0.0192637    -0.0007969    0.0179771     0.6347834   -0.7451879 
   0.534968750     0.2253965    0.0648030    -0.0008489    0.0193325    -0.0008162    0.0180696     0.6329552   -0.7465757 
   0.536500000     0.2258184    0.0645465    -0.0007696    0.0194364    -0.0007988    0.0181232     0.6307654   -0.7483730 
   0.538031250     0.2262710    0.0643692    -0.0006699    0.0195166    -0.0008108    0.0181972     0.6293346   -0.7500913 
   0.539562500     0.2266660    0.0640900    -0.0006068    0.0196251    -0.0007719    0.0182946     0.6267942   -0.7520794 
   0.541093750     0.2271072    0.0634677    -0.0005278    0.0196519    -0.0007538    0.0183539     0.6249149   -0.7537719 
   0.542625000     0.2277509    0.0629388    -0.0004437    0.0197273    -0.0007654    0.0184167     0.6227447   -0.7553962 
   0.544156250     0.2280875    0.0626128    -0.0003747    0.0197815    -0.0007495    0.0184851     0.6206635   -0.7574162 
   0.545687500     0.2284205    0.0622746    -0.0003545    0.0198442    -0.0007469    0.0185913     0.6186222   -0.7592207 
   0.547218750     0.2287795    0.0620138    -0.0002500    0.0198802    -0.0007070    0.0186901     0.6167344   -0.7610806 
   0.548750000     0.2290804    0.0618278    -0.0001799    0.0199331    -0.0007291    0.0187133     0.6145046   -0.7618822 
   0.550281250     0.2294435    0.0614922    -0.0001382    0.0199241    -0.0006966    0.0187905     0.6128895   -0.7642489 
   0.551812500     0.2298022    0.0610566    -0.0001249    0.0199501    -0.0006569    0.0188236     0.6098107   -0.7655382 
   0.553343750     0.2300450    0.0607490    -0.0000406    0.0199750    -0.0006422    0.0188875     0.6076904   -0.7669719 
   0.554875000     0.2304982    0.0600044     0.0000230    0.0200096    -0.0006594    0.0189545     0.6056509   -0.7694370 
   0.556406250     0.2308506    0.0593694     0.0000228    0.0199898    -0.0006214    0.0190165     0.6035506   -0.7708391 
   0.557937500     0.2310739    0.0589313     0.0000396    0.0200040    -0.0006442    0.0191144     0.6017301   -0.7725072 
   0.559468750     0.2313373    0.0584886     0.0000836    0.0199918    -0.0006158    0.0191255     0.5990521   -0.7736564 
   0.561000000     0.2314871    0.0580926     0.0000954    0.0199871    -0.0005821    0.0191939     0.5966988   -0.7753601 
   0.562531250     0.2318212    0.0576115     0.0000665    0.0200158    -0.0006034    0.0192781     0.5945246   -0.7767127 
   0.564062500     0.2319153    0.0572364     0.0000757    0.0200182    -0.0005725    0.0193124     0.5922300   -0.7783124 
   0.565593750     0.2320875    0.0566354     0.0000749    0.0200488    -0.0005905    0.0193533     0.5895759   -0.7804685 
   0.567125000     0.2323375    0.0561187     0.0000258    0.0200885    -0.0005792    0.0194103     0.5877340   -0.7814477 
   0.568656250     0.2327804    0.0552660    -0.0000104    0.0200924    -0.0006065    0.0195106     0.5850901   -0.7832390 
   0.570187500     0.2329975    0.0544846    -0.0000160    0.0201009    -0.0005590    0.0195619     0.5832165   -0.7846013 
   0.571718750     0.2332383    0.0538343    -0.0000695    0.0201121    -0.0005820    0.0196032     0.5807655   -0.7863463 
   0.573250000     0.2334460    0.0532952    -0.0000886    0.0201516    -0.0005790    0.0196756     0.5785909   -0.7874240 
   0.574781250     0.2336301    0.0526975    -0.0001545    0.0202069    -0.0005330    0.0197040     0.5755507   -0.7888604 
   0.576312500     0.2337883    0.0520979    -0.0001827    0.0202346    -0.0005560    0.0197471     0.5728560   -0.7902629 
   0.577843750     0.2341791    0.0515359    -0.0002542    0.0202905    -0.0005487    0.0198199     0.5707179   -0.7923433 
   0.579375000     0.2343942    0.0509129    -0.0003144    0.0203707    -0.0005718    0.0198805     0.5681162   -0.7935743 
   0.580906250     0.2346423    0.0502421    -0.0003851    0.0204272    -0.0005962    0.0199602     0.5659068   -0.7950465 
   0.582437500     0.2351275    0.0492048    -0.0003940    0.0204751    -0.0005562    0.0200069     0.5633126   -0.7965001 
   0.583968750     0.2355373    0.0483557    -0.0004645    0.0205816    -0.0005707    0.0200764     0.5607367   -0.7977500 
   0.585500000     0.2358512    0.0476882    -0.0005507    0.0206634    -0.0005341    0.0201299     0.5586601   -0.7992790 
   0.587031250     0.2361303    0.0470792    -0.0005682    0.0207413    -0.0005376    0.0201877     0.5561772   -0.8007852 
   0.588562500     0.2365236    0.0464477    -0.0006375    0.0208684    -0.0005423    0.0202263     0.5532512   -0.8023820 
   0.590093750     0.2367885    0.0458042    -0.0006646    0.0209520    -0.0005855    0.0203150     0.5508772   -0.8040950 
   0.591625000     0.2371660    0.0448298    -0.0007275    0.0210584    -0.0006207    0.0203769     0.5486203   -0.8055514 
   0.593156250     0.2375265    0.0441303    -0.0007395    0.0211707    -0.0005561    0.0204395     0.5459859   -0.8069767 
   0.594687500     0.2379989    0.0434733    -0.0008013    0.0212904    -0.0005755    0.0204990     0.5434614   -0.8081630 
   0.596218750     0.2386560    0.0424839    -0.0008136    0.0214224    -0.0005817    0.0205844     0.5409146   -0.8099135 
   0.597750000     0.2390895    0.0417242    -0.0008197    0.0215629    -0.0005510    0.0206180     0.5382485   -0.8110996 
   0.599281250     0.2395037    0.0408410    -0.0008106    0.0216941    -0.0005682    0.0206765     0.5354507   -0.8127398 
   0.600812500     0.2399696    0.0401054    -0.0008507    0.0218261    -0.0005981    0.0207597     0.5332192   -0.8143236 
   0.602343750     0.2403646    0.0394894    -0.0008500    0.0219665    -0.0006162    0.0208351     0.5303137   -0.8159689 
   0.603875000     0.2409126    0.0387949    -0.0007903    0.0220846    -0.0006121    0.0209105     0.5279095   -0.8172864 
   0.605406250     0.2416065    0.0381393    -0.0007876    0.0222155    -0.0006032    0.0209630     0.5251920   -0.8192022 
   0.606937500     0.2419857    0.0372072    -0.0007864    0.0223435    -0.0006077    0.0210657     0.5223386   -0.8207366 
   0.608468750     0.2424514    0.0364923    -0.0006976    0.0225445    -0.0005936    0.0211636     0.5196820   -0.8222442 
   0.610000000     0.2429053    0.0357319    -0.0006363    0.0226516    -0.0005700    0.0212176     0.5165903   -0.8241897 
   0.611531250     0.2434241    0.0351575    -0.0005722    0.0227807    -0.0005837    0.0212900     0.5143636   -0.8254540 
   0.613062500     0.2441301    0.0344251    -0.0005218    0.0229204    -0.0005806    0.0213518     0.5113988   -0.8273400 
   0.614593750     0.2446346    0.0339216    -0.0004039    0.0230006    -0.0006300    0.0215015     0.5088122   -0.8282272 
   0.616125000     0.2450498    0.0332379    -0.0003131    0.0230742    -0.0005903    0.0215705     0.5060994   -0.8300728 
   0.617656250     0.2455114    0.0328110    -0.0002528    0.0232028    -0.0005841    0.0216378     0.5030828   -0.8318190 
   0.619187500     0.2460094    0.0322649    -0.0001285    0.0232959    -0.0005432    0.0217262     0.5001271   -0.8334687 
   0.620718750     0.2467026    0.0316138    -0.0000612    0.0233569    -0.0004976    0.0218371     0.4978041   -0.8350542 
   0.622250000     0.2471619    0.0310634     0.0000333    0.0234479    -0.0004821    0.0218949     0.4950637   -0.8367186 
   0.623781250     0.2477219    0.0305078     0.0001065    0.0234960    -0.0004916    0.0219871     0.4921774   -0.8385130 
   0.625312500     0.2482566    0.0300912     0.0002536    0.0235509    -0.0004540    0.0220775     0.4897776   -0.8403231 
   0.626843750     0.2486709    0.0297424     0.0003531    0.0235870    -0.0004307    0.0221420     0.4865263   -0.8415068 
   0.628375000     0.2490456    0.0290004     0.0004031    0.0236095    -0.0003770    0.0222491     0.4839622   -0.8430064 
   0.629906250     0.2495500    0.0284715     0.0005098    0.0236014    -0.0003303    0.0223222     0.4808943   -0.8444723 
   0.631437500     0.2499124    0.0280041     0.0006215    0.0236334    -0.0002477    0.0223785     0.4780795   -0.8452143 
   0.632968750     0.2504290    0.0277045     0.0006469    0.0236616    -0.0002580    0.0224235     0.4749244   -0.8472102 
   0.634500000     0.2507081    0.0273643     0.0006848    0.0236491    -0.0002136    0.0225104     0.4725713   -0.8485333 
   0.636031250     0.2510870    0.0269077     0.0007839    0.0236544    -0.0001907    0.0225619     0.4696106   -0.8502141 
   0.637562500     0.2514172    0.0263577     0.0008227    0.0236112    -0.0001869    0.0226662     0.4672201   -0.8514991 
   0.639093750     0.2516515    0.0259857     0.0008349    0.0236045    -0.0001131    0.0226932     0.4644619   -0.8526306 
   0.640625000     0.2519513    0.0255754     0.0008622    0.0236071    -0.0000860    0.0227565     0.4618411   -0.8541280 
   0.642156250     0.2522110    0.0248794     0.0009304    0.0235965     0.0000107    0.0228108     0.4584951   -0.8552382 
   0.643687500     0.2523286    0.0244746     0.0008805    0.0235876     0.0000628    0.0228297     0.4559637   -0.8573065 
   0.645218750     0.2525549    0.0240956     0.0008885    0.0235492     0.0000630    0.0229286     0.4536002   -0.8585891 
   0.646750000     0.2526582    0.0238121     0.0008805    0.0235602     0.0000437    0.0229320     0.4509426   -0.8594950 
   0.648281250     0.2527482    0.0232750     0.0008561    0.0235148     0.0000486    0.0230315     0.4479667   -0.8608283 
   0.649812500     0.2527841    0.0225484     0.0008173    0.0235230     0.0000907    0.0230799     0.4457791   -0.8617086 
   0.651343750     0.2528901    0.0220829     0.0007559    0.0234911     0.0001057    0.0231317     0.4431561   -0.8634102 
   0.652875000     0.2528350    0.0215085     0.0007444    0.0235039     0.0001986    0.0231478     0.4402634   -0.8643178 
   0.654406250     0.2529808    0.0209807     0.0006701    0.0235360     0.0002048    0.0232292     0.4376740   -0.8658252 
   0.655937500     0.2531323    0.0201766     0.0005655    0.0235619     0.0002071    0.0232459     0.4349120   -0.8670587 
   0.657468750     0.2530632    0.0193983     0.0005378    0.0235782     0.0001566    0.0232757     0.4324045   -0.8682498 
   0.659000000     0.2530094    0.0188008     0.0004424    0.0235947     0.0001810    0.0233296     0.4297493   -0.8693364 
   0.660531250     0.2528645    0.0181567     0.0003788    0.0236491     0.0001793    0.0233992     0.4272970   -0.8704687 
   0.662062500     0.2531630    0.0174528     0.0002530    0.0237239     0.0001977    0.0234193     0.4245027   -0.8714839 
   0.663593750     0.2529593    0.0167288     0.0001830    0.0238630     0.0001915    0.0234795     0.4223209   -0.8726905 
   0.665125000     0.2528770    0.0157455     0.0001011    0.0239380     0.0002266    0.0235383     0.4190750   -0.8735811 
   0.666656250     0.2525132    0.0147704     0.0000284    0.0240522     0.0002046    0.0235807     0.4165328   -0.8746628 
   0.668187500     0.2522585    0.0141179    -0.0000931    0.0241319     0.0001662    0.0236417     0.4137130   -0.8763789 
   0.669718750     0.2523036    0.0131010    -0.0001509    0.0241924     0.0001618    0.0237186     0.4112541   -0.8771289 
   0.671250000     0.2522460    0.0120923    -0.0001861    0.0243367     0.0001115    0.0238523     0.4089414   -0.8782959 
   0.672781250     0.2521268    0.0113022    -0.0002395    0.0244968     0.0001455    0.0238768     0.4060540   -0.8794393 
   0.674312500     0.2518034    0.0103633    -0.0002617    0.0246666     0.0001131    0.0239552     0.4031937   -0.8800526 
   0.675843750     0.2516463    0.0095722    -0.0003196    0.0248265     0.0000771    0.0239763     0.4009435   -0.8814507 
   0.677375000     0.2515418    0.0085339    -0.0003761    0.0250055     0.0000864    0.0240465     0.3981814   -0.8823951 
   0.678906250     0.2513851    0.0076273    -0.0004213    0.0252283     0.0000477    0.0241646     0.3956687   -0.8833902 
   0.680437500     0.2512560    0.0067672    -0.0004460    0.0254025     0.0000388    0.0242321     0.3924915   -0.8845896 
   0.681968750     0.2512009    0.0058128    -0.0003872    0.0255904    -0.0000148    0.0242986     0.3909025   -0.8855209 
   0.683500000     0.2513660    0.0048788    -0.0003329    0.0258130    -0.0000113    0.0243319     0.3877679   -0.8866669 
   0.685031250     0.2512450    0.0039874    -0.0003084    0.0260429    -0.0000025    0.0244308     0.3856814   -0.8875832 
   0.686562500     0.2512616    0.0031165    -0.0002557    0.0262490    -0.0000175    0.0245157     0.3824994   -0.8886889 
   0.688093750     0.2513222    0.0022487    -0.0002251    0.0264633    -0.0000237    0.0246261     0.3801260   -0.8896341 
   0.689625000     0.2513199    0.0013636    -0.0001665    0.0266563    -0.0000519    0.0247464     0.3775201   -0.8906035 
   0.691156250     0.2513901    0.0000740    -0.0000569    0.0268911    -0.0000339    0.0248233     0.3746205   -0.8917741 
   0.692687500     0.2515028   -0.0008363     0.0000935    0.0271161    -0.0000684    0.0249257     0.3722138   -0.8924975 
   0.694218750     0.2517967   -0.0020114     0.0002270    0.0272685    -0.0000657    0.0250000     0.3697956   -0.8934172 
   0.695750000     0.2519588   -0.0029280     0.0004016    0.0275055     0.0000088    0.0250651     0.3672561   -0.8950816 
   0.697281250     0.2520728   -0.0039637     0.0005541    0.0276626     0.0000124    0.0252112     0.3646265   -0.8958432 
   0.698812500     0.2521839   -0.0049441     0.0006688    0.0278131     0.0000475    0.0253190     0.3621199   -0.8967766 
   0.700343750     0.2523767   -0.0058601     0.0008709    0.0279234     0.0001129    0.0254691     0.3594048   -0.8977713 
   0.701875000     0.2526620   -0.0068906     0.0010527    0.0279958     0.0001035    0.0256222     0.3566597   -0.8986063 
   0.703406250     0.2529167   -0.0078694     0.0013117    0.0280911     0.0001070    0.0256975     0.3541386   -0.8995485 
   0.704937500     0.2529858   -0.0091044     0.0014658    0.0281535     0.0001418    0.0257354     0.3514534   -0.8997524 
   0.706468750     0.2532653   -0.0099836     0.0016862    0.0282097     0.0002206    0.0258763     0.3490790   -0.9007138 
   0.708000000     0.2534173   -0.0107823     0.0018951    0.0282614     0.0003221    0.0259568     0.3457652   -0.9019011 
   0.709531250     0.2537733   -0.0117771     0.0020716    0.0282683     0.0003708    0.0260650     0.3432933   -0.9028879 
   0.711062500     0.2540191   -0.0123405     0.0022441    0.0282358     0.0005067    0.0261270     0.3408691   -0.9032594 
   0.712593750     0.2541969   -0.0129717     0.0024527    0.0281978     0.0005807    0.0262540     0.3379335   -0.9046906 
   0.714125000     0.2545284   -0.0136493     0.0025908    0.0281025     0.0005906    0.0262899     0.3357774   -0.9052963 
   0.715656250     0.2545732   -0.0144195     0.0027607    0.0280706     0.0006669    0.0263536     0.3327179   -0.9060689 
   0.717187500     0.2548774   -0.0150597     0.0028941    0.0279709     0.0007804    0.0263937     0.3303144   -0.9066229 
   0.718718750     0.2552306   -0.0160935     0.0029773    0.0279110     0.0008426    0.0264271     0.3273726   -0.9076423 
   0.720250000     0.2555328   -0.0165053     0.0030859    0.0277573     0.0009167    0.0264833     0.3247496   -0.9080050 
   0.721781250     0.2557086   -0.0170992     0.0031005    0.0276218     0.0010329    0.0265200     0.3216214   -0.9087909 
   0.723312500     0.2558924   -0.0175031     0.0031869    0.0275309     0.0011060    0.0266292     0.3189706   -0.9098576 
   0.724843750     0.2561965   -0.0179794     0.0032565    0.0274043     0.0011588    0.0266948     0.3163200   -0.9109870 
   0.726375000     0.2562727   -0.0182823     0.0032573    0.0272823     0.0011853    0.0266689     0.3139963   -0.9112464 
   0.727906250     0.2564722   -0.0186766     0.0032913    0.0271838     0.0012616    0.0267104     0.3111802   -0.9117931 
   0.729437500     0.2565707   -0.0195733     0.0032604    0.0270429     0.0013660    0.0266990     0.3084137   -0.9125450 
   0.730968750     0.2567767   -0.0199081     0.0032127    0.0269252     0.0014213    0.0266842     0.3056519   -0.9125201 
   0.732500000     0.2568301   -0.0203706     0.0031475    0.0268002     0.0014645    0.0267280     0.3025817   -0.9137582 
   0.734031250     0.2570960   -0.0207981     0.0030764    0.0267322     0.0015411    0.0267272     0.2997355   -0.9141182 
   0.735562500     0.2573006   -0.0211556     0.0030281    0.0266043     0.0015666    0.0267601     0.2969961   -0.9152017 
   0.737093750     0.2573909   -0.0213470     0.0029058    0.0265236     0.0015678    0.0267884     0.2937756   -0.9158348 
   0.738625000     0.2573958   -0.0216381     0.0028541    0.0264475     0.0015965    0.0267465     0.2914843   -0.9163549 
   0.740156250     0.2574604   -0.0218304     0.0027093    0.0264393     0.0016074    0.0267826     0.2886201   -0.9166940 
   0.741687500     0.2573579   -0.0221347     0.0025442    0.0264140     0.0016605    0.0268145     0.2859898   -0.9172835 
   0.743218750     0.2572600   -0.0227510     0.0023990    0.0263637     0.0016587    0.0268118     0.2828787   -0.9181558 
   0.744750000     0.2572668   -0.0233447     0.0022707    0.0263738     0.0017203    0.0268276     0.2799323   -0.9189436 
   0.746281250     0.2571260   -0.0237834     0.0021358    0.0263989     0.0016698    0.0268321     0.2773439   -0.9195212 
   0.747812500     0.2570000   -0.0241847     0.0019671    0.0264397     0.0016746    0.0268338     0.2740158   -0.9204347 
   0.749343750     0.2568375   -0.0244973     0.0017772    0.0264986     0.0016465    0.0268604     0.2719792   -0.9211132 
   0.750875000     0.2564724   -0.0248493     0.0016399    0.0265788     0.0015931    0.0268937     0.2690546   -0.9213982 
   0.752406250     0.2561547   -0.0252417     0.0014610    0.0266656     0.0015841    0.0269299     0.2663549   -0.9220584 
   0.753937500     0.2558073   -0.0255146     0.0013024    0.0267571     0.0015414    0.0269704     0.2635231   -0.9223095 
   0.755468750     0.2555050   -0.0259884     0.0011436    0.0269359     0.0015394    0.0270125     0.2607435   -0.9228486 
   0.757000000     0.2553881   -0.0267452     0.0009955    0.0270524     0.0014982    0.0270312     0.2575362   -0.9237424 
   0.758531250     0.2549932   -0.0274964     0.0008776    0.0272230     0.0014567    0.0270410     0.2550351   -0.9244282 
   0.760062500     0.2546363   -0.0280162     0.0007124    0.0274270     0.0013936    0.0270924     0.2522657   -0.9250766 
   0.761593750     0.2542640   -0.0284627     0.0006246    0.0276481     0.0013149    0.0271730     0.2499508   -0.9255727 
   0.763125000     0.2538503   -0.0290261     0.0005210    0.0278987     0.0012521    0.0272653     0.2470782   -0.9259737 
   0.764656250     0.2534568   -0.0296456     0.0004631    0.0281514     0.0012354    0.0273043     0.2444636   -0.9268163 
   0.766187500     0.2531407   -0.0302021     0.0003943    0.0283782     0.0011970    0.0274308     0.2413534   -0.9271224 
   0.767718750     0.2527497   -0.0307546     0.0003422    0.0286601     0.0011643    0.0275071     0.2387953   -0.9277924 
   0.769250000     0.2522777   -0.0312768     0.0003135    0.0289494     0.0010986    0.0275541     0.2362405   -0.9284163 
   0.770781250     0.2519159   -0.0320883     0.0003543    0.0292390     0.0010582    0.0276245     0.2330144   -0.9290910 
   0.772312500     0.2517025   -0.0332640     0.0004029    0.0295319     0.0010187    0.0277380     0.2307587   -0.9295884 
   0.773843750     0.2513175   -0.0341985     0.0004806    0.0298253     0.0009478    0.0278992     0.2280325   -0.9303227 
   0.775375000     0.2508234   -0.0349933     0.0005681    0.0301144     0.0009049    0.0279925     0.2251823   -0.9309658 
   0.776906250     0.2504328   -0.0359213     0.0006571    0.0303908     0.0009058    0.0281121     0.2226304   -0.9314818 
   0.778437500     0.2499551   -0.0367183     0.0007926    0.0306744     0.0009444    0.0282233     0.2197294   -0.9326507 
   0.779968750     0.2495115   -0.0377127     0.0010162    0.0309150     0.0009487    0.0283347     0.2167656   -0.9329623 
   0.781500000     0.2490864   -0.0386465     0.0012129    0.0311259     0.0009389    0.0284242     0.2139996   -0.9338065 
   0.783031250     0.2487159   -0.0395330     0.0014306    0.0313903     0.0009238    0.0285495     0.2113477   -0.9344892 
   0.784562500     0.2484121   -0.0405846     0.0016404    0.0315729     0.0009180    0.0286859     0.2086232   -0.9351899 
   0.786093750     0.2481177   -0.0415494     0.0019053    0.0317536     0.0009613    0.0288308     0.2058834   -0.9355663 
   0.787625000     0.2475678   -0.0427197     0.0021284    0.0319127     0.0009686    0.0289601     0.2029844   -0.9361126 
   0.789156250     0.2471313   -0.0436493     0.0024589    0.0319744     0.0010378    0.0290771     0.1998645   -0.9364234 
   0.790687500     0.2467712   -0.0444118     0.0027179    0.0321033     0.0011344    0.0291767     0.1972263   -0.9373803 
   0.792218750     0.2464689   -0.0451033     0.0029564    0.0321511     0.0011479    0.0292678     0.1942306   -0.9379579 
   0.793750000     0.2463479   -0.0460698     0.0032297    0.0321648     0.0011749    0.0293480     0.1917954   -0.9384116 
   0.795281250     0.2460001   -0.0468664     0.0034882    0.0321625     0.0012530    0.0294246     0.1890571   -0.9392006 
   0.796812500     0.2458833   -0.0476202     0.0037289    0.0321440     0.0012792    0.0295650     0.1859255   -0.9398085 
   0.798343750     0.2457918   -0.0483726     0.0039608    0.0320809     0.0013647    0.0296986     0.1830990   -0.9401864 
   0.799875000     0.2457737   -0.0491573     0.0041912    0.0319843     0.0014290    0.0297824     0.1800973   -0.9410385 
   0.801406250     0.2459108   -0.0501896     0.0043540    0.0319157     0.0015251    0.0298802     0.1770251   -0.9414018 
   0.802937500     0.2458250   -0.0509992     0.0045433    0.0317781     0.0015833    0.0299411     0.1744888   -0.9421685 
   0.804468750     0.2458391   -0.0517433     0.0046963    0.0316757     0.0016287    0.0300130     0.1713775   -0.9425371 
   0.806000000     0.2460043   -0.0524222     0.0047928    0.0315557     0.0016978    0.0300845     0.1686733   -0.9429547 
