! 10/3/2022 2:15:23 PM
! D:\USERS\JULIAN\DESKTOP\MATRIZ DE DISPERSION\OFF\S55.S2P
! CHANNEL.1
! TR.MEASUREMENT
! CORRECTED.DATA
# GHZ S RI R 50.0
! FREQ.GHZ         S11RE         S11IM         S21RE         S21IM         S12RE         S12IM         S22RE         S22IM         
!; PortSelection: Port_12
   0.512000000     0.7102845   -0.6712818     0.0000141   -0.0000056     0.0000289    0.0000019     0.9261969    0.3845185 
   0.513531250     0.7090386   -0.6730282     0.0000165    0.0000164    -0.0000023    0.0000199     0.9258761    0.3858989 
   0.515062500     0.7077509   -0.6746686     0.0000118    0.0000083     0.0000256    0.0000113     0.9255401    0.3869259 
   0.516593750     0.7062346   -0.6764597     0.0000137    0.0000145     0.0000078    0.0000155     0.9251171    0.3879479 
   0.518125000     0.7047626   -0.6780762     0.0000214    0.0000252     0.0000080    0.0000275     0.9246182    0.3885858 
   0.519656250     0.7027550   -0.6798309     0.0000004    0.0000155     0.0000144    0.0000285     0.9244382    0.3901882 
   0.521187500     0.7011882   -0.6811739     0.0000016    0.0000359     0.0000038    0.0000155     0.9239720    0.3912748 
   0.522718750     0.6995974   -0.6827169     0.0000075    0.0000339     0.0000337    0.0000029     0.9231234    0.3925785 
   0.524250000     0.6977413   -0.6841061    -0.0000112    0.0000219    -0.0000049    0.0000359     0.9229953    0.3935807 
   0.525781250     0.6960331   -0.6860403    -0.0000047    0.0000171    -0.0000065    0.0000145     0.9226941    0.3947791 
   0.527312500     0.6939955   -0.6878679    -0.0000301    0.0000290     0.0000033    0.0000212     0.9222879    0.3965274 
   0.528843750     0.6921269   -0.6897244     0.0000086    0.0000481     0.0000190    0.0000236     0.9220338    0.3976508 
   0.530375000     0.6901551   -0.6911557    -0.0000082    0.0000313     0.0000102    0.0000252     0.9220906    0.3988265 
   0.531906250     0.6884081   -0.6931594    -0.0000016    0.0000055     0.0000011    0.0000248     0.9214739    0.3999897 
   0.533437500     0.6864137   -0.6949689     0.0000049    0.0000324     0.0000145    0.0000217     0.9212465    0.4013362 
   0.534968750     0.6845703   -0.6962486    -0.0000145    0.0000370    -0.0000011    0.0000171     0.9205207    0.4027030 
   0.536500000     0.6826123   -0.6985986     0.0000178    0.0000236     0.0000047    0.0000324     0.9204512    0.4042663 
   0.538031250     0.6812348   -0.7004061    -0.0000054    0.0000376    -0.0000010    0.0000288     0.9197998    0.4056738 
   0.539562500     0.6789479   -0.7023152     0.0000104    0.0000190     0.0000135    0.0000273     0.9196651    0.4068920 
   0.541093750     0.6769971   -0.7038600    -0.0000060    0.0000334     0.0000122    0.0000541     0.9191973    0.4086047 
   0.542625000     0.6753466   -0.7057887    -0.0000032    0.0000366     0.0000124    0.0000363     0.9190999    0.4098795 
   0.544156250     0.6730456   -0.7076003     0.0000117    0.0000566     0.0000167    0.0000146     0.9182873    0.4112657 
   0.545687500     0.6706166   -0.7094076    -0.0000187    0.0000134     0.0000318    0.0000531     0.9181572    0.4124175 
   0.547218750     0.6681905   -0.7112486    -0.0000119    0.0000230    -0.0000025    0.0000371     0.9172642    0.4144445 
   0.548750000     0.6663820   -0.7131400     0.0000042    0.0000193    -0.0000049    0.0000451     0.9170086    0.4157895 
   0.550281250     0.6644892   -0.7151197    -0.0000200    0.0000212    -0.0000187    0.0000006     0.9159576    0.4175077 
   0.551812500     0.6618256   -0.7170183     0.0000075    0.0000194     0.0000183    0.0000680     0.9154916    0.4183694 
   0.553343750     0.6593190   -0.7185678     0.0000123    0.0000479    -0.0000094    0.0000498     0.9148952    0.4200541 
   0.554875000     0.6573418   -0.7203083    -0.0000035    0.0000347     0.0000023    0.0000598     0.9146696    0.4214218 
   0.556406250     0.6552864   -0.7222048     0.0000002    0.0000342     0.0000079    0.0000339     0.9137069    0.4231048 
   0.557937500     0.6530909   -0.7234351    -0.0000032    0.0000432     0.0000174    0.0000530     0.9129906    0.4247185 
   0.559468750     0.6509369   -0.7254977     0.0000036    0.0000629    -0.0000040    0.0000531     0.9120405    0.4260086 
   0.561000000     0.6486859   -0.7271133     0.0000089    0.0000310     0.0000066    0.0000631     0.9115999    0.4272510 
   0.562531250     0.6465771   -0.7292296     0.0000051    0.0000182    -0.0000030    0.0000653     0.9113634    0.4289193 
   0.564062500     0.6442695   -0.7308484    -0.0000113    0.0000663     0.0000101    0.0000485     0.9107285    0.4303062 
   0.565593750     0.6423552   -0.7326471     0.0000153    0.0000460     0.0000053    0.0000502     0.9099123    0.4312967 
   0.567125000     0.6400320   -0.7341978    -0.0000152    0.0000860    -0.0000326    0.0000427     0.9090083    0.4328885 
   0.568656250     0.6377746   -0.7358175     0.0000394    0.0000427     0.0000180    0.0000574     0.9079674    0.4340638 
   0.570187500     0.6357515   -0.7375300    -0.0000154    0.0000598     0.0000033    0.0000294     0.9073355    0.4353413 
   0.571718750     0.6337244   -0.7394344     0.0000059    0.0000476     0.0000000    0.0000525     0.9058440    0.4362465 
   0.573250000     0.6315150   -0.7409399     0.0000297    0.0000472     0.0000004    0.0000528     0.9051713    0.4377316 
   0.574781250     0.6295021   -0.7427471     0.0000228    0.0000310    -0.0000056    0.0000517     0.9046667    0.4387864 
   0.576312500     0.6273236   -0.7443038     0.0000145    0.0000545    -0.0000040    0.0000343     0.9037864    0.4396134 
   0.577843750     0.6253149   -0.7456112    -0.0000072    0.0000581     0.0000102    0.0000639     0.9031568    0.4411410 
   0.579375000     0.6232363   -0.7470290     0.0000335    0.0000492     0.0000203    0.0000321     0.9025220    0.4418374 
   0.580906250     0.6215956   -0.7487171    -0.0000001    0.0000625     0.0000055    0.0000438     0.9010795    0.4427815 
   0.582437500     0.6196932   -0.7503058     0.0000225    0.0000315    -0.0000036    0.0000418     0.9009529    0.4437324 
   0.583968750     0.6180190   -0.7518703     0.0000435    0.0000538     0.0000002    0.0000457     0.9002292    0.4442038 
   0.585500000     0.6161213   -0.7533056     0.0000124    0.0000590    -0.0000021    0.0000358     0.8992996    0.4454335 
   0.587031250     0.6143467   -0.7547111     0.0000017    0.0000667     0.0000184    0.0000534     0.8988699    0.4463387 
   0.588562500     0.6127968   -0.7556793     0.0000105    0.0000578     0.0000333    0.0000466     0.8985087    0.4472241 
   0.590093750     0.6107299   -0.7572892     0.0000078    0.0000284    -0.0000062    0.0000569     0.8979585    0.4483690 
   0.591625000     0.6091778   -0.7585607     0.0000147    0.0000705     0.0000065    0.0000406     0.8975376    0.4495937 
   0.593156250     0.6074330   -0.7602090     0.0000321    0.0000446    -0.0000066    0.0000622     0.8971590    0.4502593 
   0.594687500     0.6059371   -0.7615497     0.0000132    0.0000481     0.0000182    0.0000557     0.8961389    0.4510201 
   0.596218750     0.6040701   -0.7632267    -0.0000054    0.0000549     0.0000041    0.0000565     0.8961781    0.4516960 
   0.597750000     0.6026047   -0.7644016     0.0000178    0.0000754     0.0000148    0.0000487     0.8955482    0.4527727 
   0.599281250     0.6011492   -0.7653241    -0.0000058    0.0000515     0.0000073    0.0000768     0.8954639    0.4529709 
   0.600812500     0.5993871   -0.7665424     0.0000133    0.0000798     0.0000163    0.0000568     0.8957182    0.4540762 
   0.602343750     0.5980920   -0.7682148     0.0000100    0.0000782     0.0000119    0.0000572     0.8954827    0.4547089 
   0.603875000     0.5960475   -0.7694750    -0.0000060    0.0000614     0.0000145    0.0000585     0.8952601    0.4549537 
   0.605406250     0.5947452   -0.7707282     0.0000012    0.0000726     0.0000208    0.0000689     0.8951030    0.4558832 
   0.606937500     0.5928870   -0.7721749     0.0000455    0.0000605     0.0000053    0.0000720     0.8952073    0.4568708 
   0.608468750     0.5913627   -0.7733799     0.0000150    0.0000817     0.0000461    0.0000762     0.8952030    0.4576632 
   0.610000000     0.5897219   -0.7742884     0.0000287    0.0000354     0.0000245    0.0000825     0.8952091    0.4578277 
   0.611531250     0.5887152   -0.7752208     0.0000113    0.0000744     0.0000149    0.0000688     0.8949484    0.4587054 
   0.613062500     0.5871590   -0.7766636    -0.0000086    0.0000661     0.0000372    0.0000727     0.8951964    0.4595554 
   0.614593750     0.5856534   -0.7776012     0.0000373    0.0000802     0.0000335    0.0000797     0.8947474    0.4601117 
   0.616125000     0.5844010   -0.7789426     0.0000113    0.0000742     0.0000175    0.0000655     0.8945864    0.4611428 
   0.617656250     0.5825480   -0.7801684     0.0000431    0.0000521     0.0000547    0.0000554     0.8950192    0.4619205 
   0.619187500     0.5809379   -0.7811593    -0.0000213    0.0000904     0.0000347    0.0000566     0.8952666    0.4623349 
   0.620718750     0.5793970   -0.7827274     0.0000030    0.0000478     0.0000291    0.0000758     0.8954244    0.4635543 
   0.622250000     0.5782537   -0.7838042     0.0000197    0.0000782     0.0000504    0.0000664     0.8952968    0.4645529 
   0.623781250     0.5770663   -0.7848426     0.0000158    0.0001016     0.0000178    0.0000535     0.8952156    0.4652144 
   0.625312500     0.5748990   -0.7864287     0.0000364    0.0000731     0.0000103    0.0000649     0.8952208    0.4665521 
   0.626843750     0.5735098   -0.7877208     0.0000319    0.0000655     0.0000498    0.0000592     0.8955428    0.4673442 
   0.628375000     0.5711964   -0.7889450     0.0000206    0.0000572     0.0000284    0.0000771     0.8952506    0.4681539 
   0.629906250     0.5696430   -0.7901236     0.0000190    0.0000619     0.0000418    0.0000542     0.8950537    0.4689018 
   0.631437500     0.5672155   -0.7910410     0.0000322    0.0000701     0.0000502    0.0000630     0.8951043    0.4697378 
   0.632968750     0.5649482   -0.7927384     0.0000345    0.0000645     0.0000369    0.0000526     0.8954937    0.4705697 
   0.634500000     0.5636681   -0.7935660     0.0000351    0.0000759     0.0000615    0.0000442     0.8955270    0.4716721 
   0.636031250     0.5615026   -0.7950476     0.0000422    0.0000468     0.0000119    0.0000670     0.8950717    0.4730332 
   0.637562500     0.5589857   -0.7962977     0.0000190    0.0000833     0.0000319    0.0000422     0.8951076    0.4743339 
   0.639093750     0.5570167   -0.7977268     0.0000153    0.0000509     0.0000389    0.0000626     0.8946934    0.4755980 
   0.640625000     0.5549729   -0.7991079     0.0000415    0.0000487     0.0000276    0.0000362     0.8940284    0.4764593 
   0.642156250     0.5524685   -0.8000326     0.0000040    0.0000562     0.0000205    0.0000512     0.8941808    0.4775376 
   0.643687500     0.5500420   -0.8015274     0.0000390    0.0000722     0.0000362    0.0000703     0.8942062    0.4787281 
   0.645218750     0.5480383   -0.8028265     0.0000330    0.0000607     0.0000102    0.0000797     0.8938492    0.4799013 
   0.646750000     0.5457983   -0.8038607     0.0000066    0.0000718     0.0000406    0.0000917     0.8934402    0.4806019 
   0.648281250     0.5432614   -0.8052318     0.0000155    0.0000405     0.0000295    0.0000495     0.8921814    0.4822202 
   0.649812500     0.5404971   -0.8067201     0.0000241    0.0000561     0.0000553    0.0000494     0.8921009    0.4833154 
   0.651343750     0.5382199   -0.8084102     0.0000303    0.0000416     0.0000185    0.0000650     0.8916045    0.4843510 
   0.652875000     0.5353923   -0.8096903     0.0000399    0.0000784     0.0000425    0.0000682     0.8907540    0.4854451 
   0.654406250     0.5330030   -0.8111501     0.0000447    0.0000519     0.0000048    0.0000484     0.8905986    0.4863406 
   0.655937500     0.5303769   -0.8124427     0.0000488    0.0000734     0.0000090    0.0000542     0.8900965    0.4868353 
   0.657468750     0.5273712   -0.8135278    -0.0000035    0.0000736     0.0000712    0.0000482     0.8891955    0.4884497 
   0.659000000     0.5244327   -0.8149700     0.0000173    0.0000630     0.0000320    0.0000744     0.8885689    0.4890353 
   0.660531250     0.5218120   -0.8166903    -0.0000019    0.0000731     0.0000148    0.0000586     0.8876438    0.4899560 
   0.662062500     0.5190110   -0.8189081     0.0000315    0.0000699     0.0000054    0.0000474     0.8870130    0.4908930 
   0.663593750     0.5164256   -0.8199281     0.0000329    0.0000693     0.0000340    0.0000641     0.8854957    0.4917313 
   0.665125000     0.5135652   -0.8215307     0.0000302    0.0000524     0.0000342    0.0000746     0.8854046    0.4925375 
   0.666656250     0.5108784   -0.8227022     0.0000336    0.0000840     0.0000553    0.0000880     0.8844044    0.4931089 
   0.668187500     0.5080890   -0.8241256     0.0000367    0.0000671     0.0000268    0.0000849     0.8834113    0.4941497 
   0.669718750     0.5053689   -0.8253661     0.0000449    0.0000695     0.0000401    0.0000984     0.8829171    0.4946840 
   0.671250000     0.5025940   -0.8270705     0.0000510    0.0000910     0.0000277    0.0000867     0.8824932    0.4953132 
   0.672781250     0.4999866   -0.8281855     0.0000717    0.0001077     0.0000383    0.0000890     0.8820525    0.4962115 
   0.674312500     0.4974438   -0.8295879     0.0000266    0.0000978     0.0000485    0.0001035     0.8807511    0.4968868 
   0.675843750     0.4947142   -0.8309630     0.0000595    0.0000999     0.0000727    0.0001120     0.8801843    0.4976906 
   0.677375000     0.4925777   -0.8322866     0.0000412    0.0000935     0.0000554    0.0000752     0.8795702    0.4983072 
   0.678906250     0.4897204   -0.8336224     0.0000715    0.0001098     0.0000799    0.0000889     0.8788288    0.4992353 
   0.680437500     0.4873429   -0.8346826     0.0000513    0.0001087     0.0000829    0.0000999     0.8785853    0.5001484 
   0.681968750     0.4849004   -0.8359581     0.0000624    0.0000917     0.0000587    0.0000937     0.8777427    0.5007396 
   0.683500000     0.4825294   -0.8373628     0.0000947    0.0000997     0.0000525    0.0000990     0.8766892    0.5013889 
   0.685031250     0.4802205   -0.8385167     0.0000870    0.0001036     0.0000698    0.0001272     0.8759358    0.5020958 
   0.686562500     0.4782376   -0.8401740     0.0000887    0.0000961     0.0000879    0.0000886     0.8755087    0.5028371 
   0.688093750     0.4760011   -0.8408147     0.0000898    0.0000931     0.0001001    0.0000930     0.8748025    0.5034501 
   0.689625000     0.4736997   -0.8422431     0.0000984    0.0000917     0.0001237    0.0000965     0.8738785    0.5041676 
   0.691156250     0.4714014   -0.8435454     0.0000936    0.0000917     0.0000990    0.0000864     0.8734311    0.5048544 
   0.692687500     0.4695450   -0.8446649     0.0001182    0.0000527     0.0001132    0.0000617     0.8730137    0.5057788 
   0.694218750     0.4672360   -0.8461044     0.0000956    0.0000813     0.0000948    0.0000733     0.8724763    0.5068379 
   0.695750000     0.4653160   -0.8470567     0.0001092    0.0000705     0.0001213    0.0000731     0.8719400    0.5074983 
   0.697281250     0.4634493   -0.8482249     0.0000844    0.0000631     0.0001277    0.0000617     0.8712255    0.5086766 
   0.698812500     0.4609012   -0.8494328     0.0001103    0.0000838     0.0001273    0.0000518     0.8708965    0.5094723 
   0.700343750     0.4592599   -0.8504029     0.0000939    0.0000701     0.0001066    0.0000437     0.8706346    0.5099201 
   0.701875000     0.4573558   -0.8516816     0.0001307    0.0000383     0.0001241    0.0000426     0.8709410    0.5111209 
   0.703406250     0.4554257   -0.8526002     0.0000958    0.0000478     0.0001232    0.0000528     0.8706146    0.5123027 
   0.704937500     0.4535273   -0.8538188     0.0000890    0.0000507     0.0001105    0.0000532     0.8699263    0.5127505 
   0.706468750     0.4517688   -0.8548242     0.0000991    0.0000813     0.0001293    0.0000603     0.8697550    0.5140297 
   0.708000000     0.4502480   -0.8555776     0.0001027    0.0000538     0.0001124    0.0000334     0.8694021    0.5150132 
   0.709531250     0.4481705   -0.8565349     0.0001400    0.0000354     0.0001243    0.0000341     0.8686869    0.5163900 
   0.711062500     0.4470752   -0.8574114     0.0001252    0.0000295     0.0001133    0.0000399     0.8685415    0.5169815 
   0.712593750     0.4455320   -0.8586139     0.0001066    0.0000536     0.0001281    0.0000281     0.8681813    0.5184646 
   0.714125000     0.4438016   -0.8594781     0.0001197    0.0000320     0.0000707    0.0000177     0.8678534    0.5194160 
   0.715656250     0.4422636   -0.8600361     0.0001280    0.0000508     0.0000998    0.0000332     0.8678836    0.5210644 
   0.717187500     0.4406078   -0.8609786     0.0001273    0.0000326     0.0001174    0.0000121     0.8672151    0.5221434 
   0.718718750     0.4392080   -0.8620242     0.0001025    0.0000383     0.0001358    0.0000081     0.8668115    0.5241932 
   0.720250000     0.4375601   -0.8627383     0.0001098    0.0000220     0.0001449    0.0000291     0.8661269    0.5252725 
   0.721781250     0.4357112   -0.8634927     0.0000914    0.0000128     0.0001082    0.0000107     0.8667054    0.5269417 
   0.723312500     0.4342797   -0.8638949     0.0001149    0.0000095     0.0001127   -0.0000113     0.8659314    0.5283481 
   0.724843750     0.4326090   -0.8650709     0.0001051    0.0000242     0.0001372   -0.0000060     0.8654283    0.5294785 
   0.726375000     0.4305826   -0.8657107     0.0001197    0.0000026     0.0001081    0.0000095     0.8648345    0.5309643 
   0.727906250     0.4288300   -0.8665150     0.0001268   -0.0000229     0.0001112   -0.0000177     0.8642843    0.5323691 
   0.729437500     0.4269884   -0.8674340     0.0001344   -0.0000093     0.0000958    0.0000209     0.8640069    0.5342891 
   0.730968750     0.4253688   -0.8682421     0.0001425    0.0000319     0.0000947    0.0000172     0.8630880    0.5350965 
   0.732500000     0.4233763   -0.8688792     0.0001202   -0.0000187     0.0001218   -0.0000090     0.8626919    0.5368807 
   0.734031250     0.4215410   -0.8694021     0.0001084    0.0000032     0.0001047    0.0000183     0.8620096    0.5383308 
   0.735562500     0.4195367   -0.8699862     0.0001314    0.0000134     0.0001261    0.0000189     0.8614559    0.5397418 
   0.737093750     0.4178401   -0.8709021     0.0000867   -0.0000320     0.0001246   -0.0000076     0.8608902    0.5410190 
   0.738625000     0.4153812   -0.8717676     0.0000933    0.0000170     0.0001178   -0.0000160     0.8592854    0.5425653 
   0.740156250     0.4136017   -0.8726316     0.0001259   -0.0000191     0.0001016   -0.0000032     0.8590105    0.5438683 
   0.741687500     0.4111621   -0.8730315     0.0001018    0.0000102     0.0000813   -0.0000117     0.8579444    0.5453941 
   0.743218750     0.4091919   -0.8735403     0.0001238   -0.0000104     0.0001171   -0.0000070     0.8571618    0.5465580 
   0.744750000     0.4069598   -0.8743051     0.0000885    0.0000022     0.0000798   -0.0000102     0.8558702    0.5478088 
   0.746281250     0.4046668   -0.8751309     0.0001339   -0.0000234     0.0001040   -0.0000038     0.8553438    0.5491275 
   0.747812500     0.4024826   -0.8757241     0.0000979   -0.0000104     0.0000954   -0.0000002     0.8548254    0.5499358 
   0.749343750     0.4001181   -0.8766117     0.0001012   -0.0000518     0.0000814    0.0000082     0.8531092    0.5516794 
   0.750875000     0.3977872   -0.8768172     0.0001172   -0.0000098     0.0000906   -0.0000150     0.8526849    0.5526607 
   0.752406250     0.3952457   -0.8779135     0.0001195   -0.0000139     0.0001042   -0.0000189     0.8512520    0.5542057 
   0.753937500     0.3927830   -0.8789676     0.0001162   -0.0000004     0.0001041   -0.0000010     0.8501088    0.5548640 
   0.755468750     0.3903441   -0.8798177     0.0001208   -0.0000095     0.0000905   -0.0000186     0.8488963    0.5563120 
   0.757000000     0.3876954   -0.8806385     0.0000928   -0.0000314     0.0000995   -0.0000017     0.8485609    0.5571490 
   0.758531250     0.3853353   -0.8809784     0.0000925   -0.0000488     0.0000951   -0.0000060     0.8473464    0.5583380 
   0.760062500     0.3828379   -0.8820913     0.0000830   -0.0000076     0.0000801    0.0000239     0.8463860    0.5596301 
   0.761593750     0.3803783   -0.8829657     0.0000845   -0.0000379     0.0001041   -0.0000314     0.8453937    0.5607197 
   0.763125000     0.3774762   -0.8839017     0.0000879   -0.0000438     0.0000961   -0.0000372     0.8436789    0.5614862 
   0.764656250     0.3749218   -0.8849671     0.0000677   -0.0000132     0.0000723   -0.0000412     0.8427281    0.5628564 
   0.766187500     0.3723387   -0.8855922     0.0000952   -0.0000063     0.0000900   -0.0000107     0.8415869    0.5637187 
   0.767718750     0.3694518   -0.8866424     0.0000898   -0.0000262     0.0000964   -0.0000038     0.8407464    0.5644532 
   0.769250000     0.3666961   -0.8871095     0.0000858   -0.0000314     0.0000848   -0.0000244     0.8393995    0.5654945 
   0.770781250     0.3642271   -0.8884657     0.0000553   -0.0000343     0.0000642    0.0000005     0.8387415    0.5662494 
   0.772312500     0.3614397   -0.8899766     0.0000721   -0.0000279     0.0000735   -0.0000320     0.8381538    0.5674533 
   0.773843750     0.3584945   -0.8908467     0.0000742   -0.0000157     0.0000953   -0.0000147     0.8370788    0.5681782 
   0.775375000     0.3555358   -0.8919029     0.0000812   -0.0000517     0.0000904   -0.0000400     0.8358037    0.5695044 
   0.776906250     0.3523686   -0.8929800     0.0000836   -0.0000373     0.0000818   -0.0000360     0.8351452    0.5700985 
   0.778437500     0.3496784   -0.8939541     0.0000835   -0.0000174     0.0000553   -0.0000314     0.8340197    0.5711639 
   0.779968750     0.3470718   -0.8949839     0.0000679   -0.0000257     0.0000692   -0.0000250     0.8335291    0.5717762 
   0.781500000     0.3441387   -0.8958932     0.0000391   -0.0000256     0.0000690   -0.0000493     0.8332928    0.5728231 
   0.783031250     0.3415026   -0.8969951     0.0000400   -0.0000309     0.0000599   -0.0000124     0.8324214    0.5736481 
   0.784562500     0.3384678   -0.8983548     0.0000704   -0.0000085     0.0000821   -0.0000231     0.8317730    0.5751253 
   0.786093750     0.3357161   -0.8993586     0.0000581   -0.0000113     0.0000569   -0.0000005     0.8313981    0.5758083 
   0.787625000     0.3331426   -0.9004066     0.0000364   -0.0000203     0.0000727   -0.0000106     0.8310255    0.5767008 
   0.789156250     0.3306025   -0.9015509     0.0000572   -0.0000060     0.0000376   -0.0000515     0.8296982    0.5778278 
   0.790687500     0.3278161   -0.9024449     0.0000430   -0.0000394     0.0000472   -0.0000231     0.8292785    0.5788924 
   0.792218750     0.3253901   -0.9036377     0.0000761   -0.0000020     0.0000466   -0.0000215     0.8286968    0.5798037 
   0.793750000     0.3230990   -0.9047616     0.0000474   -0.0000225     0.0000627   -0.0000163     0.8287401    0.5809675 
   0.795281250     0.3206578   -0.9058961     0.0000465   -0.0000168     0.0000567   -0.0000410     0.8279879    0.5822659 
   0.796812500     0.3179425   -0.9070503     0.0000346   -0.0000311     0.0000696   -0.0000421     0.8278238    0.5832582 
   0.798343750     0.3154411   -0.9081584     0.0000520   -0.0000276     0.0000587   -0.0000336     0.8268975    0.5847418 
   0.799875000     0.3136878   -0.9090639     0.0000752   -0.0000138     0.0000511   -0.0000052     0.8265523    0.5856144 
   0.801406250     0.3111275   -0.9100528     0.0000629   -0.0000162     0.0000433   -0.0000219     0.8256923    0.5868416 
   0.802937500     0.3089632   -0.9109644     0.0000159    0.0000041     0.0000686   -0.0000012     0.8256474    0.5878712 
   0.804468750     0.3067059   -0.9115596     0.0000308    0.0000078     0.0000502   -0.0000324     0.8254984    0.5889296 
   0.806000000     0.3044938   -0.9125081     0.0000338    0.0000182     0.0000455   -0.0000173     0.8248037    0.5905148 
