! 9/7/2022 11:52:39 AM
! C:\USERS\JUAN IGNACIO\ONEDRIVE - FACULTAD DE INGENIERÍA - UNLP\LNA_SPZ5189Z_MEASURMENTS\LNA_7-9-22.S2P
! CHANNEL.1
! TR.MEASUREMENT
! CORRECTED.DATA
# GHZ S RI R 50.0
! FREQ.GHZ         S11RE         S11IM         S21RE         S21IM         S12RE         S12IM         S22RE         S22IM         
!; PortSelection: Port_12
   0.500000000    -0.0757355   -0.2409722    -7.6058790   10.4243300     0.0236148    0.0353694     0.1142226   -0.0661215 
   0.505000000    -0.0795502   -0.2376614    -7.5560560   10.4058700     0.0233977    0.0357447     0.1119789   -0.0664547 
   0.510000000    -0.0822990   -0.2360650    -7.4730310   10.3604800     0.0232876    0.0359851     0.1115621   -0.0688100 
   0.515000000    -0.0841675   -0.2341654    -7.3846780   10.3423800     0.0232238    0.0365026     0.1108515   -0.0710771 
   0.520000000    -0.0861410   -0.2324709    -7.3064630   10.3116200     0.0231181    0.0369218     0.1102140   -0.0733449 
   0.525000000    -0.0876626   -0.2305098    -7.2137680   10.2983200     0.0230816    0.0374269     0.1093383   -0.0756000 
   0.530000000    -0.0893757   -0.2286919    -7.1152440   10.2894100     0.0231201    0.0378937     0.1081826   -0.0776220 
   0.535000000    -0.0907534   -0.2267715    -7.0140500   10.2768700     0.0231633    0.0382325     0.1070479   -0.0799358 
   0.540000000    -0.0925030   -0.2245302    -6.8992470   10.2624200     0.0232915    0.0387079     0.1055922   -0.0820789 
   0.545000000    -0.0938301   -0.2225509    -6.7857330   10.2349400     0.0234339    0.0389656     0.1036342   -0.0843900 
   0.550000000    -0.0950332   -0.2206063    -6.6569580   10.2069200     0.0235867    0.0393617     0.1014899   -0.0869846 
   0.555000000    -0.0968632   -0.2187139    -6.5356620   10.1573800     0.0237276    0.0395337     0.0987256   -0.0895085 
   0.560000000    -0.0980237   -0.2169315    -6.4077740   10.1047900     0.0238312    0.0396739     0.0946975   -0.0920593 
   0.565000000    -0.0992507   -0.2160507    -6.2765060   10.0153300     0.0238423    0.0398171     0.0894284   -0.0941775 
   0.570000000    -0.1010731   -0.2163897    -6.1585970    9.9144340     0.0237873    0.0397486     0.0817465   -0.0948979 
   0.575000000    -0.1039791   -0.2180961    -6.0709690    9.7685650     0.0235002    0.0398317     0.0728413   -0.0909832 
   0.580000000    -0.1107116   -0.2192679    -6.0793810    9.6221300     0.0229409    0.0399550     0.0683567   -0.0810063 
   0.585000000    -0.1181548   -0.2166988    -6.1285310    9.5541880     0.0224725    0.0406564     0.0727687   -0.0716809 
   0.590000000    -0.1234107   -0.2113843    -6.1625910    9.5598320     0.0223172    0.0413410     0.0807535   -0.0695742 
   0.595000000    -0.1264120   -0.2066581    -6.1429840    9.5904240     0.0223552    0.0419175     0.0864127   -0.0720611 
   0.600000000    -0.1278849   -0.2024515    -6.0983410    9.6092270     0.0223894    0.0424977     0.0894920   -0.0759714 
   0.605000000    -0.1292022   -0.1991689    -6.0281160    9.6304050     0.0224543    0.0428818     0.0908390   -0.0798635 
   0.610000000    -0.1300417   -0.1965277    -5.9653420    9.6376260     0.0224692    0.0434104     0.0914778   -0.0839214 
   0.615000000    -0.1310739   -0.1939068    -5.8812660    9.6362960     0.0224981    0.0437364     0.0914831   -0.0875097 
   0.620000000    -0.1319008   -0.1919881    -5.7919260    9.6360830     0.0225964    0.0442546     0.0913439   -0.0905502 
   0.625000000    -0.1325235   -0.1902935    -5.7015440    9.6230080     0.0226781    0.0445968     0.0908602   -0.0936621 
   0.630000000    -0.1332331   -0.1882239    -5.6058860    9.6042250     0.0227832    0.0449465     0.0902916   -0.0961486 
   0.635000000    -0.1340580   -0.1864765    -5.5155820    9.5616440     0.0228687    0.0453083     0.0894842   -0.0990548 
   0.640000000    -0.1347407   -0.1846340    -5.4241800    9.5266700     0.0230011    0.0455034     0.0888212   -0.1012052 
   0.645000000    -0.1357881   -0.1824145    -5.3458710    9.4723650     0.0230264    0.0459135     0.0880848   -0.1031564 
   0.650000000    -0.1365716   -0.1804516    -5.2697300    9.4193160     0.0229814    0.0460774     0.0870034   -0.1051344 
   0.655000000    -0.1378201   -0.1784135    -5.1979390    9.3403330     0.0230251    0.0464266     0.0861750   -0.1070574 
   0.660000000    -0.1391836   -0.1762347    -5.1635620    9.2994080     0.0229578    0.0466925     0.0854318   -0.1085655 
   0.665000000    -0.1404266   -0.1740183    -5.1076050    9.2343580     0.0228654    0.0470050     0.0842450   -0.1099974 
   0.670000000    -0.1418459   -0.1716396    -5.0732230    9.1901970     0.0227882    0.0473202     0.0830139   -0.1113715 
   0.675000000    -0.1438265   -0.1691004    -5.0371800    9.1451340     0.0227695    0.0477751     0.0813112   -0.1126970 
   0.680000000    -0.1449793   -0.1665245    -4.9943020    9.1296970     0.0226113    0.0481819     0.0799750   -0.1138492 
   0.685000000    -0.1463641   -0.1637163    -4.9587740    9.1085980     0.0225853    0.0486438     0.0784802   -0.1149670 
   0.690000000    -0.1477468   -0.1613771    -4.9007230    9.1114630     0.0225101    0.0490346     0.0767740   -0.1159535 
   0.695000000    -0.1488941   -0.1589030    -4.8611250    9.1423240     0.0225287    0.0494641     0.0751850   -0.1172344 
   0.700000000    -0.1504583   -0.1566505    -4.7759590    9.1250930     0.0225987    0.0499793     0.0734513   -0.1189739 
   0.705000000    -0.1513895   -0.1544405    -4.7102810    9.1272750     0.0227024    0.0503687     0.0722192   -0.1203036 
   0.710000000    -0.1526566   -0.1526071    -4.6160760    9.1116910     0.0228596    0.0508455     0.0704117   -0.1220027 
   0.715000000    -0.1538242   -0.1504596    -4.5313600    9.0806830     0.0230543    0.0510912     0.0687494   -0.1234132 
   0.720000000    -0.1546489   -0.1486435    -4.4401870    9.0364760     0.0232182    0.0514195     0.0669998   -0.1253681 
   0.725000000    -0.1555736   -0.1467579    -4.3573000    8.9732440     0.0233525    0.0515882     0.0655116   -0.1272162 
   0.730000000    -0.1561899   -0.1454372    -4.2846470    8.9078160     0.0234399    0.0518137     0.0642129   -0.1290188 
   0.735000000    -0.1564810   -0.1437242    -4.2329230    8.8299820     0.0234704    0.0519090     0.0628611   -0.1306444 
   0.740000000    -0.1571129   -0.1425127    -4.1905660    8.7692250     0.0234409    0.0520143     0.0615227   -0.1326240 
   0.745000000    -0.1571264   -0.1412183    -4.1613090    8.6880750     0.0233374    0.0519907     0.0605314   -0.1342029 
   0.750000000    -0.1573676   -0.1401860    -4.1434100    8.6408120     0.0231935    0.0522931     0.0595988   -0.1358848 
   0.755000000    -0.1584189   -0.1387296    -4.1344950    8.5915690     0.0229019    0.0524069     0.0585185   -0.1376481 
   0.760000000    -0.1591795   -0.1371718    -4.1358750    8.5510010     0.0227154    0.0527663     0.0575713   -0.1394998 
   0.765000000    -0.1598745   -0.1355647    -4.1212950    8.5384240     0.0224228    0.0531206     0.0563547   -0.1410899 
   0.770000000    -0.1609407   -0.1334340    -4.1121490    8.5259510     0.0222373    0.0535251     0.0548882   -0.1420912 
   0.775000000    -0.1612230   -0.1313226    -4.0830830    8.5318350     0.0219796    0.0541461     0.0535787   -0.1428799 
   0.780000000    -0.1616011   -0.1291300    -4.0475040    8.5420550     0.0218149    0.0546337     0.0521511   -0.1432099 
   0.785000000    -0.1622861   -0.1270749    -3.9870240    8.5508380     0.0218183    0.0553994     0.0509553   -0.1442472 
   0.790000000    -0.1626078   -0.1248583    -3.9205360    8.5521240     0.0217403    0.0559566     0.0494964   -0.1443946 
   0.795000000    -0.1631629   -0.1226693    -3.8392450    8.5411740     0.0219963    0.0566493     0.0483423   -0.1450194 
   0.800000000    -0.1639590   -0.1206532    -3.7547750    8.5205630     0.0222318    0.0571929     0.0468797   -0.1454536 
   0.805000000    -0.1647492   -0.1183210    -3.6735770    8.4770750     0.0225754    0.0575131     0.0448008   -0.1460688 
   0.810000000    -0.1657358   -0.1162471    -3.5867770    8.4268060     0.0228685    0.0579897     0.0428451   -0.1464987 
   0.815000000    -0.1666678   -0.1140570    -3.5220000    8.3597600     0.0231814    0.0581009     0.0407479   -0.1472747 
   0.820000000    -0.1674541   -0.1113805    -3.4658240    8.2891410     0.0235093    0.0583431     0.0383795   -0.1480841 
   0.825000000    -0.1675688   -0.1096400    -3.4320580    8.2152790     0.0235970    0.0582538     0.0363226   -0.1489235 
   0.830000000    -0.1683952   -0.1078979    -3.4043440    8.1461360     0.0238347    0.0583144     0.0347606   -0.1499922 
   0.835000000    -0.1685916   -0.1066180    -3.3929170    8.0750970     0.0237804    0.0583084     0.0332280   -0.1511191 
   0.840000000    -0.1688067   -0.1056626    -3.3926310    8.0267140     0.0236813    0.0581963     0.0317244   -0.1525250 
   0.845000000    -0.1694617   -0.1044985    -3.3952300    7.9897900     0.0233851    0.0583188     0.0302410   -0.1543083 
   0.850000000    -0.1699924   -0.1034789    -3.4033990    7.9654100     0.0230273    0.0583426     0.0289834   -0.1561927 
   0.855000000    -0.1706224   -0.1022633    -3.3984280    7.9584050     0.0227286    0.0586456     0.0274241   -0.1579864 
   0.860000000    -0.1712855   -0.1006262    -3.3931800    7.9548780     0.0222411    0.0588707     0.0262668   -0.1598169 
   0.865000000    -0.1716140   -0.0991766    -3.3677170    7.9633600     0.0219319    0.0593328     0.0247500   -0.1608867 
   0.870000000    -0.1714225   -0.0980156    -3.3329030    7.9737770     0.0215623    0.0599466     0.0231936   -0.1617280 
   0.875000000    -0.1714620   -0.0963586    -3.2829990    7.9805260     0.0213130    0.0604774     0.0218973   -0.1623857 
   0.880000000    -0.1711634   -0.0951413    -3.2169520    7.9770120     0.0211507    0.0613331     0.0210705   -0.1628454 
   0.885000000    -0.1712420   -0.0937587    -3.1519360    7.9634860     0.0210665    0.0619680     0.0202290   -0.1627666 
   0.890000000    -0.1711307   -0.0921474    -3.0771080    7.9377540     0.0212561    0.0628040     0.0193460   -0.1632173 
   0.895000000    -0.1714154   -0.0906121    -3.0134780    7.8934300     0.0214503    0.0633291     0.0178136   -0.1631068 
   0.900000000    -0.1716883   -0.0887391    -2.9456890    7.8387060     0.0218896    0.0639168     0.0162421   -0.1630571 
   0.905000000    -0.1721355   -0.0865812    -2.8994080    7.7721350     0.0222625    0.0644366     0.0144235   -0.1627799 
   0.910000000    -0.1722571   -0.0841897    -2.8612530    7.7081690     0.0226888    0.0646161     0.0119804   -0.1624006 
   0.915000000    -0.1726598   -0.0817657    -2.8394530    7.6403370     0.0230674    0.0649013     0.0101042   -0.1621342 
   0.920000000    -0.1729191   -0.0794124    -2.8218430    7.5797840     0.0233241    0.0648482     0.0082295   -0.1617575 
   0.925000000    -0.1733079   -0.0770735    -2.8224510    7.5273880     0.0235463    0.0649030     0.0059730   -0.1615845 
   0.930000000    -0.1732913   -0.0753959    -2.8279260    7.4868310     0.0235185    0.0647566     0.0041289   -0.1619066 
   0.935000000    -0.1735207   -0.0736191    -2.8284750    7.4633160     0.0236114    0.0646231     0.0020356   -0.1625883 
   0.940000000    -0.1741828   -0.0720501    -2.8322850    7.4466600     0.0233556    0.0647130    -0.0000807   -0.1635894 
   0.945000000    -0.1747634   -0.0705691    -2.8197700    7.4424770     0.0230519    0.0646543    -0.0019160   -0.1648115 
   0.950000000    -0.1754049   -0.0687813    -2.8101070    7.4390560     0.0227109    0.0648988    -0.0042780   -0.1664218 
   0.955000000    -0.1758465   -0.0676449    -2.7794130    7.4430330     0.0222180    0.0650391    -0.0058680   -0.1676430 
   0.960000000    -0.1759775   -0.0665376    -2.7415870    7.4395010     0.0218695    0.0655069    -0.0079555   -0.1689394 
   0.965000000    -0.1760351   -0.0653389    -2.6909380    7.4337610     0.0214564    0.0659520    -0.0100185   -0.1699479 
   0.970000000    -0.1761455   -0.0647293    -2.6343230    7.4223650     0.0212624    0.0664271    -0.0111401   -0.1706763 
   0.975000000    -0.1761981   -0.0641644    -2.5814810    7.3931590     0.0209617    0.0672411    -0.0124031   -0.1713387 
   0.980000000    -0.1760579   -0.0636787    -2.5254990    7.3604260     0.0208718    0.0677871    -0.0135377   -0.1720932 
   0.985000000    -0.1760502   -0.0630266    -2.4819340    7.3106680     0.0209608    0.0685432    -0.0144741   -0.1725632 
   0.990000000    -0.1759070   -0.0621953    -2.4387690    7.2605300     0.0210360    0.0690342    -0.0162186   -0.1726766 
   0.995000000    -0.1757799   -0.0610741    -2.4152890    7.2017750     0.0213618    0.0697361    -0.0176540   -0.1726056 
   1.000000000    -0.1755137   -0.0598123    -2.3962300    7.1507190     0.0215401    0.0700769    -0.0195988   -0.1722375 
   1.005000000    -0.1753139   -0.0582314    -2.3920490    7.0961850     0.0219504    0.0704166    -0.0211081   -0.1716808 
   1.010000000    -0.1748863   -0.0567898    -2.3955490    7.0533640     0.0221719    0.0708356    -0.0227550   -0.1710473 
   1.015000000    -0.1747923   -0.0548007    -2.3948870    7.0247900     0.0223444    0.0708994    -0.0247420   -0.1705338 
   1.020000000    -0.1741999   -0.0530900    -2.4058720    7.0019910     0.0225587    0.0710821    -0.0262739   -0.1699715 
   1.025000000    -0.1739818   -0.0511591    -2.4014370    6.9915920     0.0225825    0.0710647    -0.0282499   -0.1694802 
   1.030000000    -0.1736349   -0.0490008    -2.4013310    6.9841870     0.0226108    0.0711546    -0.0302112   -0.1693614 
   1.035000000    -0.1738327   -0.0467508    -2.3824510    6.9890530     0.0224267    0.0712390    -0.0325630   -0.1696352 
   1.040000000    -0.1737606   -0.0448689    -2.3587480    6.9871230     0.0222540    0.0713530    -0.0347520   -0.1698471 
   1.045000000    -0.1740078   -0.0425443    -2.3163340    6.9843060     0.0220703    0.0716690    -0.0371678   -0.1703413 
   1.050000000    -0.1740310   -0.0408955    -2.2732440    6.9699120     0.0217845    0.0718365    -0.0390227   -0.1708935 
   1.055000000    -0.1741523   -0.0392383    -2.2280490    6.9474010     0.0215885    0.0723412    -0.0412257   -0.1714857 
   1.060000000    -0.1742961   -0.0382901    -2.1765120    6.9213550     0.0212947    0.0726472    -0.0431140   -0.1723848 
   1.065000000    -0.1747940   -0.0374793    -2.1365130    6.8801190     0.0212333    0.0732008    -0.0449473   -0.1730234 
   1.070000000    -0.1752393   -0.0366926    -2.0966900    6.8344040     0.0211424    0.0736735    -0.0464566   -0.1738489 
   1.075000000    -0.1755724   -0.0361443    -2.0729610    6.7777380     0.0212286    0.0740508    -0.0477265   -0.1747946 
   1.080000000    -0.1760825   -0.0356011    -2.0567900    6.7247230     0.0212718    0.0746958    -0.0496740   -0.1751902 
   1.085000000    -0.1763052   -0.0351355    -2.0532030    6.6721840     0.0213309    0.0749958    -0.0511377   -0.1756828 
   1.090000000    -0.1765059   -0.0349062    -2.0531570    6.6310420     0.0215380    0.0755011    -0.0525011   -0.1760302 
   1.095000000    -0.1766382   -0.0342942    -2.0627880    6.5992830     0.0216079    0.0756858    -0.0539115   -0.1758934 
   1.100000000    -0.1766211   -0.0338321    -2.0712200    6.5745280     0.0217979    0.0760322    -0.0550319   -0.1758006 
   1.105000000    -0.1761220   -0.0332388    -2.0803460    6.5677950     0.0218506    0.0762601    -0.0560799   -0.1754685 
   1.110000000    -0.1758322   -0.0318291    -2.0861910    6.5592650     0.0218889    0.0763274    -0.0577438   -0.1750958 
   1.115000000    -0.1752351   -0.0306553    -2.0800330    6.5677070     0.0218278    0.0766465    -0.0590329   -0.1745521 
   1.120000000    -0.1745299   -0.0293642    -2.0703750    6.5711930     0.0216860    0.0766681    -0.0605176   -0.1736683 
   1.125000000    -0.1737149   -0.0274505    -2.0427940    6.5768410     0.0215493    0.0770013    -0.0621921   -0.1730237 
   1.130000000    -0.1730115   -0.0254483    -2.0107130    6.5820190     0.0213241    0.0771681    -0.0640773   -0.1721937 
   1.135000000    -0.1719815   -0.0235492    -1.9631920    6.5720030     0.0212203    0.0775595    -0.0660899   -0.1713212 
   1.140000000    -0.1710089   -0.0212840    -1.9146390    6.5593460     0.0209749    0.0779905    -0.0682201   -0.1703841 
   1.145000000    -0.1703738   -0.0192775    -1.8611840    6.5300200     0.0208334    0.0784495    -0.0698796   -0.1696903 
   1.150000000    -0.1700011   -0.0174882    -1.8172220    6.4937050     0.0207624    0.0789604    -0.0717665   -0.1690954 
   1.155000000    -0.1694721   -0.0158847    -1.7805690    6.4385760     0.0207111    0.0794167    -0.0738659   -0.1688071 
   1.160000000    -0.1695340   -0.0143438    -1.7494020    6.3845310     0.0207687    0.0800497    -0.0753615   -0.1687215 
   1.165000000    -0.1695075   -0.0126891    -1.7403280    6.3267040     0.0208875    0.0803594    -0.0773757   -0.1683989 
   1.170000000    -0.1695448   -0.0112233    -1.7349180    6.2716650     0.0210249    0.0808957    -0.0792961   -0.1685179 
   1.175000000    -0.1699266   -0.0102705    -1.7456070    6.2219740     0.0212649    0.0811307    -0.0811933   -0.1686687 
   1.180000000    -0.1702473   -0.0096842    -1.7620300    6.1838090     0.0214863    0.0813604    -0.0831960   -0.1687855 
   1.185000000    -0.1704527   -0.0091335    -1.7787750    6.1546080     0.0216037    0.0816093    -0.0849671   -0.1691802 
   1.190000000    -0.1710593   -0.0088011    -1.8013050    6.1380330     0.0217960    0.0816425    -0.0864439   -0.1692439 
   1.195000000    -0.1715729   -0.0087075    -1.8144620    6.1370370     0.0218430    0.0818132    -0.0878229   -0.1702202 
   1.200000000    -0.1718560   -0.0083111    -1.8269720    6.1423140     0.0218517    0.0818466    -0.0896138   -0.1707394 
   1.205000000    -0.1719792   -0.0083014    -1.8221840    6.1556850     0.0217298    0.0819005    -0.0905953   -0.1713222 
   1.210000000    -0.1721762   -0.0078049    -1.8117060    6.1715080     0.0215088    0.0819248    -0.0921504   -0.1713521 
   1.215000000    -0.1718523   -0.0073482    -1.7816770    6.1861950     0.0212289    0.0820514    -0.0936110   -0.1713102 
   1.220000000    -0.1712334   -0.0062808    -1.7521700    6.1911690     0.0208712    0.0823739    -0.0952727   -0.1711936 
   1.225000000    -0.1703085   -0.0054592    -1.7053220    6.1916570     0.0205177    0.0826248    -0.0963654   -0.1702030 
   1.230000000    -0.1692229   -0.0046060    -1.6548860    6.1783400     0.0201305    0.0832330    -0.0977153   -0.1689466 
   1.235000000    -0.1679453   -0.0033848    -1.6036680    6.1502360     0.0198373    0.0835996    -0.0986752   -0.1678801 
   1.240000000    -0.1669932   -0.0022352    -1.5564600    6.1199760     0.0195986    0.0843688    -0.0998634   -0.1664501 
   1.245000000    -0.1658851   -0.0013571    -1.5211440    6.0669390     0.0194130    0.0849751    -0.1008671   -0.1651912 
   1.250000000    -0.1647636    0.0004852    -1.4918500    6.0122310     0.0194339    0.0856911    -0.1019024   -0.1637369 
   1.255000000    -0.1640571    0.0023541    -1.4806570    5.9526180     0.0195003    0.0864162    -0.1037890   -0.1619373 
   1.260000000    -0.1633926    0.0039865    -1.4786570    5.8990930     0.0198042    0.0868959    -0.1056320   -0.1608672 
   1.265000000    -0.1629073    0.0059394    -1.4855660    5.8535130     0.0200651    0.0875887    -0.1072314   -0.1592658 
   1.270000000    -0.1624328    0.0077404    -1.5031750    5.8106350     0.0203727    0.0879880    -0.1097817   -0.1582868 
   1.275000000    -0.1620533    0.0091478    -1.5259400    5.7827500     0.0207246    0.0882534    -0.1115097   -0.1568980 
   1.280000000    -0.1618422    0.0103734    -1.5501330    5.7618160     0.0210825    0.0884454    -0.1127533   -0.1563079 
   1.285000000    -0.1617482    0.0110129    -1.5687770    5.7581380     0.0213575    0.0885156    -0.1146089   -0.1557832 
   1.290000000    -0.1622724    0.0113705    -1.5859750    5.7590620     0.0215235    0.0884964    -0.1157440   -0.1560944 
   1.295000000    -0.1629742    0.0121731    -1.5924250    5.7695260     0.0215684    0.0884720    -0.1166972   -0.1569121 
   1.300000000    -0.1637899    0.0124722    -1.5892860    5.7808560     0.0216273    0.0883934    -0.1183683   -0.1575863 
   1.305000000    -0.1644821    0.0126542    -1.5719540    5.7973450     0.0214328    0.0883621    -0.1198703   -0.1585338 
   1.310000000    -0.1648047    0.0133767    -1.5472190    5.8079020     0.0211571    0.0883378    -0.1216659   -0.1589497 
   1.315000000    -0.1650437    0.0139555    -1.5147350    5.8129970     0.0208449    0.0883667    -0.1227688   -0.1588968 
   1.320000000    -0.1648195    0.0145356    -1.4717070    5.8139720     0.0203963    0.0885271    -0.1242865   -0.1587299 
   1.325000000    -0.1647095    0.0152276    -1.4284600    5.7955420     0.0199630    0.0888705    -0.1251551   -0.1582157 
   1.330000000    -0.1641403    0.0156241    -1.3840930    5.7685020     0.0194802    0.0892178    -0.1261730   -0.1571343 
   1.335000000    -0.1636242    0.0156576    -1.3482440    5.7326350     0.0191846    0.0897559    -0.1272105   -0.1569371 
   1.340000000    -0.1629319    0.0159319    -1.3152230    5.6893850     0.0187598    0.0903642    -0.1278780   -0.1557558 
   1.345000000    -0.1624419    0.0162846    -1.2968590    5.6414630     0.0185211    0.0910628    -0.1286151   -0.1544814 
   1.350000000    -0.1618619    0.0171181    -1.2884430    5.5924210     0.0184145    0.0917197    -0.1297619   -0.1532189 
   1.355000000    -0.1608989    0.0178299    -1.2955820    5.5460410     0.0184576    0.0925329    -0.1309858   -0.1513367 
   1.360000000    -0.1598867    0.0192453    -1.3080220    5.5076270     0.0186256    0.0931583    -0.1332282   -0.1492080 
   1.365000000    -0.1586440    0.0205120    -1.3166670    5.4755500     0.0188970    0.0938656    -0.1350322   -0.1471851 
   1.370000000    -0.1572808    0.0219055    -1.3410150    5.4574420     0.0192967    0.0942663    -0.1367300   -0.1444326 
   1.375000000    -0.1561209    0.0234226    -1.3590610    5.4449880     0.0195895    0.0947040    -0.1388565   -0.1423021 
   1.380000000    -0.1547475    0.0249155    -1.3787120    5.4418230     0.0199786    0.0950435    -0.1409612   -0.1406000 
   1.385000000    -0.1538232    0.0263545    -1.3854730    5.4481990     0.0203719    0.0951794    -0.1426424   -0.1396694 
   1.390000000    -0.1531588    0.0275203    -1.3927680    5.4576610     0.0206781    0.0953278    -0.1451127   -0.1389077 
   1.395000000    -0.1530039    0.0287823    -1.3886930    5.4696280     0.0209142    0.0952772    -0.1469551   -0.1387748 
   1.400000000    -0.1531480    0.0298540    -1.3721880    5.4811980     0.0209029    0.0952035    -0.1489212   -0.1390611 
   1.405000000    -0.1534894    0.0308622    -1.3493430    5.4907080     0.0209395    0.0951048    -0.1508580   -0.1392543 
   1.410000000    -0.1540348    0.0317876    -1.3150910    5.4896780     0.0207248    0.0950306    -0.1523192   -0.1393262 
   1.415000000    -0.1540886    0.0322382    -1.2835890    5.4889380     0.0204732    0.0951168    -0.1539192   -0.1395691 
   1.420000000    -0.1544572    0.0333539    -1.2411400    5.4704780     0.0201154    0.0951172    -0.1553015   -0.1395307 
   1.425000000    -0.1545998    0.0335177    -1.2083970    5.4467890     0.0196936    0.0952831    -0.1562386   -0.1394023 
   1.430000000    -0.1549191    0.0339417    -1.1754040    5.4152340     0.0192782    0.0955988    -0.1575269   -0.1389735 
   1.435000000    -0.1551790    0.0339919    -1.1542160    5.3741020     0.0188565    0.0959743    -0.1579157   -0.1385992 
   1.440000000    -0.1552216    0.0346113    -1.1329310    5.3383240     0.0185069    0.0964483    -0.1589525   -0.1382240 
   1.445000000    -0.1551327    0.0347041    -1.1265880    5.2976990     0.0181807    0.0970455    -0.1594973   -0.1375353 
   1.450000000    -0.1552025    0.0349766    -1.1285060    5.2590140     0.0179534    0.0977173    -0.1602022   -0.1362296 
   1.455000000    -0.1548693    0.0352361    -1.1292320    5.2263920     0.0178648    0.0983854    -0.1607201   -0.1347684 
   1.460000000    -0.1542664    0.0359844    -1.1433840    5.1969880     0.0178462    0.0991320    -0.1619328   -0.1331189 
   1.465000000    -0.1536080    0.0361898    -1.1538710    5.1768140     0.0180457    0.0997712    -0.1629161   -0.1306683 
   1.470000000    -0.1524804    0.0369945    -1.1708470    5.1623030     0.0182181    0.1003879    -0.1645028   -0.1285524 
   1.475000000    -0.1505843    0.0374360    -1.1782000    5.1571540     0.0185338    0.1009103    -0.1660063   -0.1260318 
   1.480000000    -0.1487810    0.0385130    -1.1927750    5.1590990     0.0188609    0.1013203    -0.1672874   -0.1236581 
   1.485000000    -0.1470007    0.0392887    -1.1983310    5.1620140     0.0192368    0.1015390    -0.1683594   -0.1223322 
   1.490000000    -0.1457122    0.0401624    -1.1913010    5.1647230     0.0195044    0.1017319    -0.1701217   -0.1204225 
   1.495000000    -0.1445472    0.0412741    -1.1867180    5.1726970     0.0197278    0.1018125    -0.1718628   -0.1193900 
   1.500000000    -0.1438874    0.0423330    -1.1694880    5.1751680     0.0199269    0.1020423    -0.1732831   -0.1186816 
