! 10/4/2022 3:01:06 PM
! D:\USERS\JULIAN\DESKTOP\MATRIZ DE DISPERSION\WILKINSON\S21.S2P
! CHANNEL.1
! TR.MEASUREMENT
! CORRECTED.DATA
# GHZ S RI R 50.0
! FREQ.GHZ         S11RE         S11IM         S21RE         S21IM         S12RE         S12IM         S22RE         S22IM         
!; PortSelection: Port_12
   0.500000000    -0.2355852    0.2134352     0.6168039   -0.2632668     0.6113609   -0.2572010     0.0633501    0.1137185 
   0.507812500    -0.2291212    0.2133462     0.6135495   -0.2625725     0.6068435   -0.2636677     0.0637768    0.1089408 
   0.515625000    -0.2255983    0.2145218     0.6112777   -0.2655531     0.6039327   -0.2680404     0.0643768    0.1036773 
   0.523437500    -0.2216759    0.2160275     0.6099702   -0.2678770     0.6007067   -0.2709403     0.0653240    0.0993145 
   0.531250000    -0.2180020    0.2175845     0.6097152   -0.2698215     0.5970387   -0.2731166     0.0662664    0.0951908 
   0.539062500    -0.2141325    0.2197851     0.6092183   -0.2740459     0.5975925   -0.2750571     0.0672245    0.0914937 
   0.546875000    -0.2104633    0.2222831     0.6083503   -0.2791003     0.5977277   -0.2775986     0.0680715    0.0882747 
   0.554687500    -0.2069143    0.2247007     0.6067690   -0.2837671     0.5969448   -0.2812683     0.0684170    0.0851516 
   0.562500000    -0.2038160    0.2268359     0.6048125   -0.2885965     0.5980235   -0.2853691     0.0680511    0.0819935 
   0.570312500    -0.2013727    0.2285386     0.6020451   -0.2940140     0.5967976   -0.2913248     0.0670024    0.0782593 
   0.578125000    -0.1990952    0.2298637     0.5992692   -0.2976159     0.5929956   -0.2973643     0.0656356    0.0748014 
   0.585937500    -0.1969960    0.2311874     0.5968838   -0.2994745     0.5892330   -0.3019309     0.0639931    0.0707588 
   0.593750000    -0.1942180    0.2319323     0.5952254   -0.3025021     0.5842592   -0.3055817     0.0623944    0.0666009 
   0.601562500    -0.1910840    0.2329979     0.5935625   -0.3056944     0.5791891   -0.3074437     0.0611893    0.0625142 
   0.609375000    -0.1876534    0.2334283     0.5924111   -0.3086960     0.5765586   -0.3081471     0.0601821    0.0590431 
   0.617187500    -0.1843234    0.2344569     0.5917339   -0.3125860     0.5764987   -0.3078229     0.0597714    0.0559400 
   0.625000000    -0.1807336    0.2356098     0.5903602   -0.3180927     0.5779314   -0.3088607     0.0592713    0.0531107 
   0.632812500    -0.1770144    0.2368492     0.5886269   -0.3230001     0.5789166   -0.3118389     0.0586505    0.0507180 
   0.640625000    -0.1734939    0.2381588     0.5873114   -0.3267090     0.5820268   -0.3175041     0.0578458    0.0487620 
   0.648437500    -0.1704999    0.2391860     0.5844372   -0.3314564     0.5821588   -0.3250161     0.0563693    0.0470828 
   0.656250000    -0.1681508    0.2404468     0.5812309   -0.3357372     0.5794539   -0.3335589     0.0543098    0.0454887 
   0.664062500    -0.1659437    0.2418439     0.5778023   -0.3390250     0.5757822   -0.3407444     0.0514053    0.0438036 
   0.671875000    -0.1638286    0.2428080     0.5733733   -0.3400879     0.5705938   -0.3468700     0.0484357    0.0413028 
   0.679687500    -0.1614717    0.2427547     0.5708472   -0.3434244     0.5636014   -0.3495853     0.0453896    0.0383240 
   0.687500000    -0.1592974    0.2430082     0.5696560   -0.3474491     0.5579364   -0.3486553     0.0424893    0.0353980 
   0.695312500    -0.1568275    0.2428575     0.5697695   -0.3505947     0.5525702   -0.3470503     0.0401651    0.0324446 
   0.703125000    -0.1535892    0.2436262     0.5692253   -0.3549534     0.5532465   -0.3464363     0.0386349    0.0295494 
   0.710937500    -0.1502663    0.2440034     0.5682857   -0.3593684     0.5537014   -0.3454607     0.0372255    0.0270497 
   0.718750000    -0.1464147    0.2448896     0.5663261   -0.3633231     0.5578988   -0.3474227     0.0360951    0.0248359 
   0.726562500    -0.1425167    0.2452470     0.5644655   -0.3671741     0.5627077   -0.3534162     0.0350281    0.0232018 
   0.734375000    -0.1387742    0.2458151     0.5613644   -0.3720089     0.5637228   -0.3628345     0.0334741    0.0220214 
   0.742187500    -0.1357919    0.2462693     0.5575925   -0.3760750     0.5625836   -0.3726906     0.0322946    0.0215108 
   0.750000000    -0.1332418    0.2469627     0.5544865   -0.3793513     0.5570967   -0.3826332     0.0299633    0.0211668 
   0.757812500    -0.1310633    0.2475123     0.5512239   -0.3830175     0.5487442   -0.3893949     0.0274434    0.0206005 
   0.765625000    -0.1285331    0.2476136     0.5484082   -0.3861675     0.5415401   -0.3924095     0.0241844    0.0200873 
   0.773437500    -0.1260473    0.2471492     0.5458142   -0.3893079     0.5325184   -0.3919775     0.0211424    0.0188149 
   0.781250000    -0.1237884    0.2465393     0.5442048   -0.3922897     0.5266160   -0.3890649     0.0180920    0.0176883 
   0.789062500    -0.1211823    0.2461944     0.5423849   -0.3965300     0.5262890   -0.3858905     0.0149676    0.0167119 
   0.796875000    -0.1182176    0.2464372     0.5406541   -0.4000103     0.5274132   -0.3837820     0.0126721    0.0150770 
   0.804687500    -0.1142882    0.2466493     0.5386915   -0.4034557     0.5303438   -0.3840070     0.0106081    0.0136555 
   0.812500000    -0.1105526    0.2462705     0.5367280   -0.4071057     0.5360546   -0.3889481     0.0089608    0.0126830 
   0.820312500    -0.1071679    0.2460401     0.5343732   -0.4106300     0.5390332   -0.3969363     0.0070089    0.0118319 
   0.828125000    -0.1042313    0.2459183     0.5312789   -0.4139019     0.5372900   -0.4074667     0.0047732    0.0117120 
   0.835937500    -0.1020772    0.2460654     0.5286786   -0.4173797     0.5336450   -0.4190109     0.0026784    0.0116915 
   0.843750000    -0.0996511    0.2465185     0.5254408   -0.4209819     0.5257978   -0.4274678     0.0004469    0.0118743 
   0.851562500    -0.0968544    0.2463773     0.5224361   -0.4246269     0.5150546   -0.4319862    -0.0020529    0.0120776 
   0.859375000    -0.0950200    0.2454073     0.5195660   -0.4275775     0.5070442   -0.4327485    -0.0043245    0.0119911 
   0.867187500    -0.0928931    0.2443299     0.5165253   -0.4313818     0.5020452   -0.4302038    -0.0064878    0.0119321 
   0.875000000    -0.0907309    0.2428655     0.5136787   -0.4349864     0.4977327   -0.4267344    -0.0088464    0.0119330 
   0.882812500    -0.0879188    0.2421720     0.5107932   -0.4382629     0.4981400   -0.4243457    -0.0107357    0.0116859 
   0.890625000    -0.0841945    0.2418600     0.5083833   -0.4413690     0.5022555   -0.4247720    -0.0119380    0.0116387 
   0.898437500    -0.0803750    0.2410379     0.5055888   -0.4450368     0.5048699   -0.4276555    -0.0133424    0.0118831 
   0.906250000    -0.0766208    0.2406673     0.5031946   -0.4483791     0.5080054   -0.4339367    -0.0145071    0.0125799 
   0.914062500    -0.0734787    0.2403109     0.5009555   -0.4511443     0.5094749   -0.4439648    -0.0163214    0.0138060 
   0.921875000    -0.0711434    0.2400877     0.4983150   -0.4552856     0.5052832   -0.4532864    -0.0182505    0.0151805 
   0.929687500    -0.0690521    0.2403653     0.4955499   -0.4589064     0.4982238   -0.4607033    -0.0205531    0.0166870 
   0.937500000    -0.0669230    0.2403458     0.4924242   -0.4629108     0.4909446   -0.4664649    -0.0232253    0.0180370 
   0.945312500    -0.0651642    0.2398628     0.4888030   -0.4665850     0.4824047   -0.4672930    -0.0259919    0.0190788 
   0.953125000    -0.0631350    0.2385052     0.4851159   -0.4703330     0.4750829   -0.4662817    -0.0287283    0.0196038 
   0.960937500    -0.0612457    0.2369295     0.4816131   -0.4730925     0.4720191   -0.4659382    -0.0314280    0.0199285 
   0.968750000    -0.0586804    0.2356753     0.4781764   -0.4755115     0.4718765   -0.4643495    -0.0338161    0.0199655 
   0.976562500    -0.0561351    0.2338954     0.4753062   -0.4779168     0.4720232   -0.4648049    -0.0354202    0.0194024 
   0.984375000    -0.0526663    0.2321411     0.4728215   -0.4801643     0.4748909   -0.4685958    -0.0362687    0.0195937 
   0.992187500    -0.0492794    0.2302940     0.4705823   -0.4828694     0.4773627   -0.4749339    -0.0367019    0.0197241 
   1.000000000    -0.0461835    0.2290749     0.4682387   -0.4861929     0.4745955   -0.4823415    -0.0368973    0.0208057 
   1.007812500    -0.0432159    0.2284330     0.4659858   -0.4901190     0.4710090   -0.4906134    -0.0374962    0.0221950 
   1.015625000    -0.0403993    0.2281358     0.4630921   -0.4940125     0.4650377   -0.4977076    -0.0383744    0.0240018 
   1.023437500    -0.0379672    0.2279857     0.4590154   -0.4986075     0.4555019   -0.5010143    -0.0396738    0.0261183 
   1.031250000    -0.0356939    0.2272724     0.4554013   -0.5023281     0.4485858   -0.5019211    -0.0415136    0.0281322 
   1.039062500    -0.0344472    0.2259298     0.4513025   -0.5055028     0.4436676   -0.5019361    -0.0435888    0.0296621 
   1.046875000    -0.0327321    0.2244478     0.4468773   -0.5080516     0.4403246   -0.4999212    -0.0458760    0.0306580 
   1.054687500    -0.0312800    0.2226109     0.4429552   -0.5103652     0.4395706   -0.4993783    -0.0482516    0.0315941 
   1.062500000    -0.0289973    0.2206732     0.4398952   -0.5124833     0.4414577   -0.5019560    -0.0500784    0.0319796 
   1.070312500    -0.0267504    0.2178334     0.4373900   -0.5142546     0.4431762   -0.5055524    -0.0509087    0.0317724 
   1.078125000    -0.0244178    0.2154709     0.4351018   -0.5170542     0.4423407   -0.5116470    -0.0512258    0.0321477 
   1.085937500    -0.0215959    0.2134254     0.4331991   -0.5203021     0.4406669   -0.5204929    -0.0509397    0.0327904 
   1.093750000    -0.0188268    0.2117257     0.4305016   -0.5242010     0.4350865   -0.5276201    -0.0506305    0.0338948 
   1.101562500    -0.0158101    0.2106000     0.4272361   -0.5282336     0.4265072   -0.5330364    -0.0502891    0.0354088 
   1.109375000    -0.0132815    0.2099658     0.4230943   -0.5325483     0.4184453   -0.5373087    -0.0501832    0.0373249 
   1.117187500    -0.0107523    0.2087230     0.4185418   -0.5359648     0.4108031   -0.5376509    -0.0505285    0.0396182 
   1.125000000    -0.0090389    0.2075694     0.4139356   -0.5389633     0.4039549   -0.5352280    -0.0514728    0.0416568 
   1.132812500    -0.0075240    0.2060508     0.4088389   -0.5412767     0.4019187   -0.5345181    -0.0531308    0.0436182 
   1.140625000    -0.0064602    0.2040725     0.4050914   -0.5425559     0.4011182   -0.5338724    -0.0553200    0.0450568 
   1.148437500    -0.0047930    0.2020885     0.4022730   -0.5438501     0.4020279   -0.5341934    -0.0569084    0.0461794 
   1.156250000    -0.0034279    0.1989574     0.3998030   -0.5455784     0.4037601   -0.5382912    -0.0585682    0.0460263 
   1.164062500    -0.0016075    0.1958775     0.3976443   -0.5481455     0.4041346   -0.5458894    -0.0592258    0.0457994 
   1.171875000     0.0002117    0.1932265     0.3954337   -0.5513629     0.4016044   -0.5530370    -0.0590718    0.0457764 
   1.179687500     0.0024105    0.1903688     0.3929828   -0.5555972     0.3960413   -0.5610267    -0.0584428    0.0458239 
   1.187500000     0.0044583    0.1883416     0.3884161   -0.5607510     0.3889431   -0.5674039    -0.0577475    0.0459502 
   1.195312500     0.0067931    0.1862237     0.3839081   -0.5646770     0.3803567   -0.5706343    -0.0567785    0.0465400 
   1.203125000     0.0087862    0.1846380     0.3791881   -0.5679690     0.3715401   -0.5704350    -0.0554931    0.0474484 
   1.210937500     0.0100738    0.1825829     0.3734173   -0.5708886     0.3653113   -0.5694168    -0.0548865    0.0487744 
   1.218750000     0.0107476    0.1803616     0.3674769   -0.5732399     0.3609832   -0.5673829    -0.0546771    0.0498935 
   1.226562500     0.0116960    0.1783892     0.3634343   -0.5736876     0.3579556   -0.5653111    -0.0553064    0.0516200 
   1.234375000     0.0127767    0.1760778     0.3597925   -0.5749286     0.3580492   -0.5666002    -0.0558827    0.0530895 
   1.242187500     0.0139845    0.1734530     0.3562633   -0.5761849     0.3580290   -0.5693613    -0.0562013    0.0537919 
   1.250000000     0.0153537    0.1704362     0.3545220   -0.5772781     0.3579943   -0.5736557    -0.0560904    0.0546173 
   1.257812500     0.0167319    0.1676466     0.3532479   -0.5801826     0.3563786   -0.5811468    -0.0556885    0.0554669 
   1.265625000     0.0180284    0.1651077     0.3505865   -0.5842665     0.3527273   -0.5896819    -0.0556690    0.0553386 
   1.273437500     0.0194694    0.1624513     0.3474675   -0.5884067     0.3464912   -0.5956379    -0.0546522    0.0562898 
   1.281250000     0.0209369    0.1598298     0.3435212   -0.5923725     0.3387768   -0.6001282    -0.0539786    0.0573298 
   1.289062500     0.0224550    0.1569809     0.3378530   -0.5964100     0.3304920   -0.6020326    -0.0534551    0.0580677 
   1.296875000     0.0237158    0.1545193     0.3305912   -0.5998785     0.3229041   -0.6016468    -0.0526404    0.0591445 
   1.304687500     0.0236540    0.1519117     0.3249268   -0.6012827     0.3178305   -0.6001616    -0.0524019    0.0600992 
   1.312500000     0.0234348    0.1493167     0.3194177   -0.6024466     0.3138303   -0.5986487    -0.0527227    0.0608847 
   1.320312500     0.0230391    0.1465523     0.3142980   -0.6031591     0.3120868   -0.5975702    -0.0529796    0.0624168 
   1.328125000     0.0227264    0.1436049     0.3104458   -0.6036597     0.3119944   -0.5981139    -0.0538190    0.0630809 
   1.335937500     0.0227746    0.1400954     0.3081701   -0.6039812     0.3110372   -0.6011634    -0.0544034    0.0637381 
   1.343750000     0.0236841    0.1360725     0.3061983   -0.6059435     0.3087566   -0.6054160    -0.0541738    0.0632080 
   1.351562500     0.0249685    0.1325022     0.3032594   -0.6093228     0.3064387   -0.6108032    -0.0538441    0.0632743 
   1.359375000     0.0263218    0.1291369     0.3002414   -0.6125222     0.3011511   -0.6162423    -0.0534374    0.0625054 
   1.367187500     0.0274301    0.1263836     0.2975821   -0.6165581     0.2939974   -0.6211781    -0.0524756    0.0629643 
   1.375000000     0.0285164    0.1236621     0.2919395   -0.6209977     0.2872171   -0.6241696    -0.0517246    0.0631200 
   1.382812500     0.0292666    0.1209501     0.2861341   -0.6244619     0.2794173   -0.6257858    -0.0513639    0.0634234 
   1.390625000     0.0293618    0.1182070     0.2801366   -0.6265051     0.2721026   -0.6263758    -0.0512217    0.0637964 
   1.398437500     0.0293757    0.1152976     0.2741182   -0.6284418     0.2668629   -0.6250799    -0.0510226    0.0639029 
   1.406250000     0.0286195    0.1130249     0.2682661   -0.6294003     0.2620093   -0.6249973    -0.0514878    0.0643543 
   1.414062500     0.0277106    0.1099395     0.2630914   -0.6292139     0.2580394   -0.6253165    -0.0520543    0.0650701 
   1.421875000     0.0266162    0.1066859     0.2594458   -0.6295257     0.2556558   -0.6261731    -0.0530720    0.0645311 
   1.429687500     0.0258036    0.1029165     0.2561412   -0.6302493     0.2546575   -0.6276383    -0.0527599    0.0638064 
   1.437500000     0.0249485    0.0987276     0.2526368   -0.6316571     0.2520882   -0.6310203    -0.0526103    0.0625972 
   1.445312500     0.0248759    0.0940743     0.2506395   -0.6334537     0.2480380   -0.6345005    -0.0520641    0.0609511 
   1.453125000     0.0253528    0.0897079     0.2471237   -0.6365151     0.2437360   -0.6376381    -0.0503179    0.0600823 
   1.460937500     0.0257410    0.0865170     0.2421619   -0.6403064     0.2375150   -0.6413516    -0.0491828    0.0599806 
   1.468750000     0.0258098    0.0830779     0.2375053   -0.6430247     0.2308931   -0.6436934    -0.0479061    0.0601620 
   1.476562500     0.0256616    0.0799768     0.2319008   -0.6457815     0.2253165   -0.6442441    -0.0473588    0.0609980 
   1.484375000     0.0250435    0.0774564     0.2251664   -0.6485366     0.2192488   -0.6449184    -0.0470533    0.0621749 
   1.492187500     0.0236935    0.0750356     0.2183643   -0.6501632     0.2139858   -0.6453341    -0.0471725    0.0636333 
   1.500000000     0.0218433    0.0725362     0.2131084   -0.6504197     0.2091959   -0.6451167    -0.0484422    0.0648220 
   1.507812500     0.0199659    0.0696819     0.2076092   -0.6506217     0.2058860   -0.6456962    -0.0500121    0.0652032 
   1.515625000     0.0177294    0.0662700     0.2021015   -0.6512571     0.2016409   -0.6470405    -0.0518029    0.0652378 
   1.523437500     0.0158671    0.0620727     0.1980252   -0.6518233     0.1976586   -0.6485139    -0.0534094    0.0643546 
   1.531250000     0.0144358    0.0574443     0.1950385   -0.6522185     0.1942650   -0.6501790    -0.0547734    0.0623895 
   1.539062500     0.0130670    0.0529669     0.1917866   -0.6535981     0.1897023   -0.6526625    -0.0552975    0.0600956 
   1.546875000     0.0118690    0.0485205     0.1877257   -0.6553878     0.1844997   -0.6538699    -0.0555730    0.0575732 
   1.554687500     0.0106787    0.0446109     0.1841357   -0.6572309     0.1793779   -0.6553721    -0.0554031    0.0556677 
   1.562500000     0.0094577    0.0412087     0.1795277   -0.6598098     0.1736762   -0.6567683    -0.0547822    0.0547481 
   1.570312500     0.0081432    0.0384396     0.1740401   -0.6622424     0.1681812   -0.6576285    -0.0544289    0.0543806 
   1.578125000     0.0063235    0.0359757     0.1683321   -0.6637212     0.1637532   -0.6581364    -0.0544819    0.0548180 
   1.585937500     0.0040286    0.0338741     0.1633652   -0.6650850     0.1580566   -0.6594696    -0.0545282    0.0555303 
   1.593750000     0.0016269    0.0315738     0.1568149   -0.6664080     0.1529739   -0.6604221    -0.0552436    0.0563072 
   1.601562500    -0.0011514    0.0289167     0.1509860   -0.6668264     0.1484284   -0.6609633    -0.0563495    0.0565449 
   1.609375000    -0.0041317    0.0258806     0.1458749   -0.6666455     0.1433142   -0.6620530    -0.0577389    0.0562540 
   1.617187500    -0.0074224    0.0223641     0.1411281   -0.6670739     0.1384892   -0.6633605    -0.0594347    0.0556027 
   1.625000000    -0.0105254    0.0185272     0.1360271   -0.6676888     0.1330250   -0.6635668    -0.0612137    0.0544776 
   1.632812500    -0.0137463    0.0145889     0.1311721   -0.6679018     0.1294698   -0.6644500    -0.0626824    0.0527048 
   1.640625000    -0.0168053    0.0106850     0.1270704   -0.6684155     0.1242249   -0.6654404    -0.0639402    0.0510258 
   1.648437500    -0.0195743    0.0071561     0.1214777   -0.6697768     0.1193845   -0.6657778    -0.0645136    0.0498926 
   1.656250000    -0.0221057    0.0041621     0.1166158   -0.6711561     0.1157302   -0.6658325    -0.0654535    0.0494697 
   1.664062500    -0.0249211    0.0017851     0.1117992   -0.6719052     0.1107569   -0.6667672    -0.0663456    0.0495068 
   1.671875000    -0.0278857   -0.0003569     0.1060699   -0.6730730     0.1060721   -0.6673023    -0.0672893    0.0499961 
   1.679687500    -0.0311203   -0.0023034     0.1004453   -0.6740205     0.1014161   -0.6676087    -0.0683333    0.0508302 
   1.687500000    -0.0346701   -0.0043621     0.0948216   -0.6744761     0.0961337   -0.6683239    -0.0698805    0.0515164 
   1.695312500    -0.0384721   -0.0067832     0.0900476   -0.6745462     0.0915768   -0.6684192    -0.0718335    0.0520711 
   1.703125000    -0.0423697   -0.0093407     0.0843665   -0.6754680     0.0861307   -0.6684120    -0.0741255    0.0520817 
   1.710937500    -0.0466568   -0.0120581     0.0793163   -0.6756262     0.0808723   -0.6685228    -0.0770278    0.0520707 
   1.718750000    -0.0513405   -0.0150204     0.0741460   -0.6757113     0.0757464   -0.6688385    -0.0799165    0.0511579 
   1.726562500    -0.0555592   -0.0177144     0.0691516   -0.6758432     0.0704948   -0.6693789    -0.0828198    0.0501385 
   1.734375000    -0.0598883   -0.0202522     0.0636233   -0.6761807     0.0659265   -0.6694097    -0.0848051    0.0493808 
   1.742187500    -0.0638284   -0.0225311     0.0589664   -0.6756474     0.0609387   -0.6706712    -0.0865611    0.0490340 
   1.750000000    -0.0680735   -0.0235811     0.0541314   -0.6756137     0.0548728   -0.6714993    -0.0882741    0.0487432 
   1.757812500    -0.0721897   -0.0250273     0.0493020   -0.6755505     0.0495477   -0.6719417    -0.0899016    0.0491629 
   1.765625000    -0.0762026   -0.0262281     0.0443733   -0.6749969     0.0426625   -0.6723634    -0.0915640    0.0497609 
   1.773437500    -0.0808077   -0.0271879     0.0394117   -0.6744548     0.0366618   -0.6715950    -0.0932303    0.0504238 
   1.781250000    -0.0855965   -0.0285931     0.0353412   -0.6738462     0.0309414   -0.6700611    -0.0954798    0.0511606 
   1.789062500    -0.0903932   -0.0299604     0.0314834   -0.6739559     0.0263713   -0.6685728    -0.0979172    0.0517742 
   1.796875000    -0.0960654   -0.0316625     0.0267839   -0.6740140     0.0225155   -0.6673571    -0.1007485    0.0523871 
   1.804687500    -0.1010279   -0.0332366     0.0220610   -0.6740779     0.0192583   -0.6661462    -0.1034685    0.0523220 
   1.812500000    -0.1060569   -0.0346643     0.0162519   -0.6749550     0.0161431   -0.6662072    -0.1060123    0.0526867 
   1.820312500    -0.1107665   -0.0356418     0.0101636   -0.6753172     0.0126205   -0.6669205    -0.1081043    0.0532592 
   1.828125000    -0.1156617   -0.0362471     0.0035707   -0.6754906     0.0080574   -0.6684677    -0.1100379    0.0536049 
   1.835937500    -0.1209041   -0.0368509    -0.0031736   -0.6747071     0.0029129   -0.6704236    -0.1115059    0.0549634 
   1.843750000    -0.1258495   -0.0366557    -0.0100159   -0.6735322    -0.0041999   -0.6717017    -0.1135816    0.0564813 
   1.851562500    -0.1313961   -0.0362064    -0.0157918   -0.6717603    -0.0118305   -0.6716816    -0.1154742    0.0579337 
   1.859375000    -0.1369222   -0.0361271    -0.0213005   -0.6691440    -0.0198465   -0.6705781    -0.1171200    0.0598513 
   1.867187500    -0.1427818   -0.0359241    -0.0257791   -0.6667397    -0.0262838   -0.6679274    -0.1185753    0.0624589 
   1.875000000    -0.1482880   -0.0358764    -0.0290517   -0.6649983    -0.0321599   -0.6640637    -0.1209888    0.0646085 
   1.882812500    -0.1539555   -0.0353308    -0.0321704   -0.6638057    -0.0360858   -0.6602208    -0.1238436    0.0662032 
   1.890625000    -0.1599986   -0.0357422    -0.0356801   -0.6637050    -0.0384700   -0.6569702    -0.1269387    0.0679300 
   1.898437500    -0.1655107   -0.0359878    -0.0398148   -0.6636704    -0.0402267   -0.6559998    -0.1294720    0.0696135 
   1.906250000    -0.1703938   -0.0359438    -0.0443484   -0.6647580    -0.0426651   -0.6559141    -0.1317817    0.0714659 
   1.914062500    -0.1750939   -0.0347780    -0.0506817   -0.6653025    -0.0452157   -0.6570844    -0.1341121    0.0739582 
   1.921875000    -0.1798143   -0.0341715    -0.0568906   -0.6654090    -0.0499338   -0.6590258    -0.1363575    0.0753932 
   1.929687500    -0.1848051   -0.0327407    -0.0640660   -0.6643662    -0.0562800   -0.6607949    -0.1379077    0.0778102 
   1.937500000    -0.1901484   -0.0315303    -0.0710340   -0.6622797    -0.0633836   -0.6619353    -0.1398471    0.0806113 
   1.945312500    -0.1957419   -0.0290696    -0.0774421   -0.6589895    -0.0718414   -0.6610769    -0.1421845    0.0832877 
   1.953125000    -0.2016216   -0.0268868    -0.0820989   -0.6553028    -0.0794730   -0.6586431    -0.1442072    0.0855738 
   1.960937500    -0.2074992   -0.0240879    -0.0855906   -0.6516895    -0.0865578   -0.6545231    -0.1462034    0.0887786 
   1.968750000    -0.2133467   -0.0218274    -0.0892822   -0.6486329    -0.0906565   -0.6495972    -0.1487028    0.0907834 
   1.976562500    -0.2198858   -0.0199918    -0.0903005   -0.6469330    -0.0934109   -0.6454517    -0.1510449    0.0932193 
   1.984375000    -0.2258516   -0.0186592    -0.0929811   -0.6460125    -0.0953875   -0.6421486    -0.1536791    0.0956897 
   1.992187500    -0.2316566   -0.0170878    -0.0965075   -0.6462082    -0.0964270   -0.6405551    -0.1555048    0.0980297 
   2.000000000    -0.2362327   -0.0150920    -0.1007385   -0.6464701    -0.0991397   -0.6406299    -0.1559239    0.1002804 
