! 10/3/2022 2:28:58 PM
! D:\USERS\JULIAN\DESKTOP\MATRIZ DE DISPERSION\ON\S11.S2P
! CHANNEL.1
! TR.MEASUREMENT
! CORRECTED.DATA
# GHZ S RI R 50.0
! FREQ.GHZ         S11RE         S11IM         S21RE         S21IM         S12RE         S12IM         S22RE         S22IM         
!; PortSelection: Port_12
   0.512000000     0.2176389    0.0632238     0.0000041    0.0000157    -0.0000083    0.0000273     0.9278165    0.3805991 
   0.513531250     0.2181790    0.0629979     0.0000106    0.0000118     0.0000100    0.0000179     0.9275642    0.3821339 
   0.515062500     0.2188863    0.0627296    -0.0000016    0.0000079    -0.0000214    0.0000263     0.9269955    0.3833505 
   0.516593750     0.2194647    0.0622360     0.0000055    0.0000054     0.0000241    0.0000102     0.9265092    0.3845255 
   0.518125000     0.2198420    0.0616241     0.0000005   -0.0000001     0.0000284    0.0000110     0.9258928    0.3853675 
   0.519656250     0.2202921    0.0612570    -0.0000212    0.0000189    -0.0000138    0.0000089     0.9257253    0.3872982 
   0.521187500     0.2207489    0.0610615    -0.0000010    0.0000282     0.0000059    0.0000142     0.9251801    0.3884470 
   0.522718750     0.2213503    0.0607797     0.0000090    0.0000072     0.0000101    0.0000045     0.9242421    0.3897808 
   0.524250000     0.2217551    0.0605526    -0.0000066    0.0000020     0.0000059    0.0000220     0.9239439    0.3911589 
   0.525781250     0.2222159    0.0602202    -0.0000112    0.0000328     0.0000009   -0.0000064     0.9235722    0.3927222 
   0.527312500     0.2225816    0.0596977    -0.0000077    0.0000070    -0.0000026    0.0000077     0.9232332    0.3941909 
   0.528843750     0.2229456    0.0592844    -0.0000040   -0.0000022    -0.0000053    0.0000160     0.9228659    0.3955977 
   0.530375000     0.2233089    0.0589097    -0.0000034    0.0000247     0.0000097    0.0000078     0.9227117    0.3969062 
   0.531906250     0.2239528    0.0583703    -0.0000077   -0.0000173     0.0000063    0.0000148     0.9220374    0.3982075 
   0.533437500     0.2244032    0.0579960     0.0000221    0.0000062    -0.0000046    0.0000123     0.9217870    0.3996618 
   0.534968750     0.2247262    0.0577879    -0.0000003    0.0000157     0.0000100    0.0000064     0.9209213    0.4009444 
   0.536500000     0.2250446    0.0574789    -0.0000364    0.0000298    -0.0000128    0.0000080     0.9208567    0.4027302 
   0.538031250     0.2254236    0.0573176    -0.0000034   -0.0000220     0.0000042    0.0000188     0.9201810    0.4042652 
   0.539562500     0.2257291    0.0569647     0.0000089    0.0000051     0.0000048    0.0000035     0.9200103    0.4055205 
   0.541093750     0.2260150    0.0563403     0.0000199    0.0000206    -0.0000089    0.0000116     0.9194658    0.4072153 
   0.542625000     0.2265279    0.0557031     0.0000044   -0.0000028    -0.0000061    0.0000209     0.9194269    0.4084177 
   0.544156250     0.2267896    0.0551423     0.0000110    0.0000141    -0.0000119    0.0000128     0.9185989    0.4098797 
   0.545687500     0.2270517    0.0546190     0.0000081   -0.0000088     0.0000081    0.0000087     0.9184160    0.4109886 
   0.547218750     0.2273559    0.0542134     0.0000078    0.0000233    -0.0000066   -0.0000008     0.9175481    0.4129592 
   0.548750000     0.2276333    0.0538494     0.0000079   -0.0000002     0.0000198    0.0000176     0.9173104    0.4142769 
   0.550281250     0.2279225    0.0533906    -0.0000008    0.0000010     0.0000346    0.0000180     0.9161217    0.4158767 
   0.551812500     0.2282386    0.0528895     0.0000204   -0.0000033     0.0000069   -0.0000047     0.9158108    0.4166639 
   0.553343750     0.2284527    0.0524078     0.0000087   -0.0000126    -0.0000191   -0.0000101     0.9152343    0.4182504 
   0.554875000     0.2288793    0.0514751    -0.0000002   -0.0000021    -0.0000067   -0.0000094     0.9149214    0.4196182 
   0.556406250     0.2291817    0.0509708     0.0000097   -0.0000259     0.0000046   -0.0000050     0.9140772    0.4211204 
   0.557937500     0.2293698    0.0502854    -0.0000132   -0.0000021     0.0000040    0.0000276     0.9135140    0.4225814 
   0.559468750     0.2296249    0.0496901     0.0000015    0.0000080     0.0000051    0.0000064     0.9128236    0.4237871 
   0.561000000     0.2298431    0.0490714    -0.0000132    0.0000021    -0.0000244    0.0000027     0.9121497    0.4247628 
   0.562531250     0.2302299    0.0485307    -0.0000033    0.0000150     0.0000106   -0.0000097     0.9120183    0.4262251 
   0.564062500     0.2303769    0.0480241     0.0000117   -0.0000071     0.0000060    0.0000124     0.9114582    0.4275696 
   0.565593750     0.2306297    0.0473945     0.0000186    0.0000085     0.0000006   -0.0000061     0.9106858    0.4283077 
   0.567125000     0.2308782    0.0467406     0.0000167    0.0000331     0.0000160    0.0000000     0.9099149    0.4297774 
   0.568656250     0.2313737    0.0456433     0.0000155    0.0000164     0.0000162    0.0000118     0.9091029    0.4305311 
   0.570187500     0.2316550    0.0449043    -0.0000249   -0.0000030    -0.0000046   -0.0000064     0.9083911    0.4317856 
   0.571718750     0.2319530    0.0440199     0.0000049   -0.0000067    -0.0000290   -0.0000085     0.9069632    0.4324951 
   0.573250000     0.2321662    0.0431926     0.0000080   -0.0000034     0.0000138   -0.0000190     0.9064707    0.4337135 
   0.574781250     0.2325194    0.0424755    -0.0000103   -0.0000051     0.0000217    0.0000007     0.9059122    0.4344688 
   0.576312500     0.2327723    0.0417477    -0.0000107    0.0000074    -0.0000114    0.0000025     0.9051482    0.4350691 
   0.577843750     0.2332242    0.0411385     0.0000165   -0.0000161    -0.0000158   -0.0000035     0.9047228    0.4365112 
   0.579375000     0.2335030    0.0404271    -0.0000101    0.0000140     0.0000017    0.0000123     0.9042493    0.4369936 
   0.580906250     0.2338760    0.0394459     0.0000045   -0.0000045    -0.0000001    0.0000067     0.9033080    0.4374646 
   0.582437500     0.2344582    0.0385686     0.0000012   -0.0000184     0.0000177    0.0000170     0.9027736    0.4384922 
   0.583968750     0.2348439    0.0376924     0.0000033   -0.0000148     0.0000181   -0.0000128     0.9021851    0.4387914 
   0.585500000     0.2351927    0.0369088     0.0000151   -0.0000017    -0.0000055    0.0000159     0.9013663    0.4398340 
   0.587031250     0.2355686    0.0360788     0.0000087   -0.0000019    -0.0000052    0.0000089     0.9010175    0.4406084 
   0.588562500     0.2359807    0.0354300    -0.0000016    0.0000137     0.0000137    0.0000134     0.9007925    0.4412554 
   0.590093750     0.2363352    0.0346788     0.0000187   -0.0000065    -0.0000160   -0.0000290     0.9003396    0.4422879 
   0.591625000     0.2368041    0.0338259    -0.0000086   -0.0000262     0.0000208   -0.0000020     0.8999972    0.4433393 
   0.593156250     0.2372196    0.0331151     0.0000142    0.0000088     0.0000090   -0.0000007     0.8996670    0.4438779 
   0.594687500     0.2378165    0.0324376     0.0000113    0.0000181    -0.0000009    0.0000125     0.8986740    0.4444983 
   0.596218750     0.2383759    0.0316006     0.0000100   -0.0000063    -0.0000161   -0.0000037     0.8988730    0.4450850 
   0.597750000     0.2388393    0.0307277     0.0000085   -0.0000145    -0.0000043    0.0000046     0.8985113    0.4459419 
   0.599281250     0.2392757    0.0297023     0.0000197    0.0000023     0.0000070    0.0000169     0.8982108    0.4462443 
   0.600812500     0.2397648    0.0289481    -0.0000159    0.0000092     0.0000046   -0.0000245     0.8985960    0.4473243 
   0.602343750     0.2402138    0.0283267     0.0000114    0.0000067     0.0000170   -0.0000075     0.8983129    0.4478326 
   0.603875000     0.2409371    0.0276283    -0.0000178   -0.0000141    -0.0000057    0.0000092     0.8981330    0.4480603 
   0.605406250     0.2414258    0.0270479    -0.0000025   -0.0000050    -0.0000047   -0.0000093     0.8980242    0.4489426 
   0.606937500     0.2418132    0.0261586     0.0000028   -0.0000210     0.0000049    0.0000143     0.8981597    0.4498493 
   0.608468750     0.2422599    0.0254665     0.0000210    0.0000129    -0.0000022   -0.0000110     0.8981070    0.4506695 
   0.610000000     0.2426405    0.0249005     0.0000230    0.0000043     0.0000242    0.0000025     0.8981194    0.4510326 
   0.611531250     0.2431999    0.0242713    -0.0000078   -0.0000036     0.0000303   -0.0000098     0.8980118    0.4518069 
   0.613062500     0.2437361    0.0236461     0.0000161   -0.0000213     0.0000035   -0.0000082     0.8980777    0.4528665 
   0.614593750     0.2441212    0.0230724    -0.0000034   -0.0000357     0.0000029   -0.0000002     0.8975571    0.4534885 
   0.616125000     0.2445534    0.0225659     0.0000081    0.0000134    -0.0000189    0.0000013     0.8974607    0.4545243 
   0.617656250     0.2449462    0.0222561    -0.0000122   -0.0000131    -0.0000017   -0.0000089     0.8978004    0.4555247 
   0.619187500     0.2453963    0.0218329    -0.0000026   -0.0000223     0.0000055   -0.0000225     0.8980157    0.4560519 
   0.620718750     0.2460605    0.0213032    -0.0000135   -0.0000134     0.0000023    0.0000065     0.8980693    0.4574343 
   0.622250000     0.2465184    0.0209379    -0.0000083   -0.0000072    -0.0000136   -0.0000096     0.8978833    0.4585539 
   0.623781250     0.2469876    0.0205757    -0.0000095   -0.0000048    -0.0000038   -0.0000054     0.8977525    0.4594541 
   0.625312500     0.2473840    0.0199913    -0.0000034    0.0000105    -0.0000069   -0.0000123     0.8977659    0.4609450 
   0.626843750     0.2476969    0.0194819     0.0000075    0.0000164     0.0000098   -0.0000063     0.8979778    0.4619402 
   0.628375000     0.2480168    0.0187705     0.0000032    0.0000187    -0.0000146    0.0000019     0.8974715    0.4629688 
   0.629906250     0.2484354    0.0182645     0.0000005   -0.0000327    -0.0000167    0.0000128     0.8972327    0.4639709 
   0.631437500     0.2486782    0.0178375     0.0000193    0.0000199    -0.0000244    0.0000109     0.8973234    0.4649787 
   0.632968750     0.2489761    0.0175184    -0.0000064   -0.0000058     0.0000037    0.0000107     0.8975300    0.4661002 
   0.634500000     0.2492482    0.0171573    -0.0000240   -0.0000103    -0.0000003   -0.0000218     0.8974480    0.4673296 
   0.636031250     0.2494704    0.0166888     0.0000190    0.0000275    -0.0000093   -0.0000006     0.8968801    0.4689408 
   0.637562500     0.2496291    0.0162626     0.0000041    0.0000058     0.0000324    0.0000145     0.8969501    0.4704164 
   0.639093750     0.2496950    0.0157075     0.0000163    0.0000055     0.0000296    0.0000083     0.8962544    0.4718758 
   0.640625000     0.2498209    0.0151792    -0.0000032    0.0000273     0.0000060    0.0000112     0.8956842    0.4728554 
   0.642156250     0.2498711    0.0142502     0.0000152    0.0000119     0.0000117    0.0000184     0.8955510    0.4744845 
   0.643687500     0.2498494    0.0138668     0.0000070    0.0000261    -0.0000008   -0.0000105     0.8955071    0.4757245 
   0.645218750     0.2499148    0.0133939    -0.0000046    0.0000161    -0.0000106    0.0000069     0.8950086    0.4772258 
   0.646750000     0.2498657    0.0129931     0.0000347    0.0000177     0.0000059    0.0000219     0.8944280    0.4781685 
   0.648281250     0.2497174    0.0123454    -0.0000012   -0.0000063     0.0000041   -0.0000063     0.8931842    0.4799788 
   0.649812500     0.2495357    0.0116789    -0.0000002   -0.0000015    -0.0000266   -0.0000075     0.8930145    0.4811969 
   0.651343750     0.2494093    0.0111402     0.0000134    0.0000259    -0.0000130   -0.0000076     0.8922675    0.4826609 
   0.652875000     0.2491103    0.0103380     0.0000016   -0.0000144     0.0000272    0.0000011     0.8913293    0.4837924 
   0.654406250     0.2489217    0.0094876    -0.0000280   -0.0000216     0.0000005   -0.0000401     0.8911074    0.4848698 
   0.655937500     0.2488852    0.0086415    -0.0000223   -0.0000200     0.0000278   -0.0000042     0.8905082    0.4855320 
   0.657468750     0.2486330    0.0077474     0.0000271    0.0000158     0.0000050    0.0000046     0.8895470    0.4872609 
   0.659000000     0.2483437    0.0070765     0.0000082   -0.0000144    -0.0000081   -0.0000162     0.8888210    0.4880326 
   0.660531250     0.2480353    0.0062607    -0.0000079    0.0000191     0.0000221   -0.0000133     0.8879158    0.4890469 
   0.662062500     0.2482400    0.0054841    -0.0000129   -0.0000001     0.0000170   -0.0000050     0.8870614    0.4901159 
   0.663593750     0.2477284    0.0046124    -0.0000202    0.0000044     0.0000146   -0.0000129     0.8854408    0.4910372 
   0.665125000     0.2473716    0.0035533     0.0000173   -0.0000273    -0.0000026   -0.0000010     0.8853820    0.4919611 
   0.666656250     0.2470510    0.0025491     0.0000052   -0.0000332    -0.0000317    0.0000038     0.8840646    0.4926723 
   0.668187500     0.2467916    0.0016203     0.0000028    0.0000094    -0.0000183   -0.0000205     0.8832905    0.4936914 
   0.669718750     0.2466304    0.0005385    -0.0000047   -0.0000299     0.0000040   -0.0000055     0.8828024    0.4945373 
   0.671250000     0.2464319   -0.0006561    -0.0000094    0.0000018    -0.0000007   -0.0000160     0.8822398    0.4949210 
   0.672781250     0.2461515   -0.0015232    -0.0000014   -0.0000092    -0.0000077   -0.0000146     0.8817319    0.4957944 
   0.674312500     0.2459487   -0.0024749    -0.0000040   -0.0000228    -0.0000194   -0.0000059     0.8803477    0.4966204 
   0.675843750     0.2457813   -0.0034085    -0.0000133   -0.0000190    -0.0000169   -0.0000256     0.8797565    0.4973329 
   0.677375000     0.2456069   -0.0045133    -0.0000224   -0.0000010    -0.0000053   -0.0000162     0.8792622    0.4978797 
   0.678906250     0.2454125   -0.0056180     0.0000055   -0.0000244    -0.0000069   -0.0000155     0.8787860    0.4986799 
   0.680437500     0.2451394   -0.0067611    -0.0000176   -0.0000334    -0.0000238   -0.0000083     0.8784496    0.4995457 
   0.681968750     0.2451244   -0.0081032    -0.0000118    0.0000016     0.0000066   -0.0000142     0.8774720    0.5001429 
   0.683500000     0.2450971   -0.0091809    -0.0000334   -0.0000214    -0.0000364   -0.0000394     0.8764353    0.5007724 
   0.685031250     0.2450071   -0.0101664    -0.0000209   -0.0000074    -0.0000252   -0.0000110     0.8756877    0.5014691 
   0.686562500     0.2449932   -0.0111522    -0.0000163   -0.0000496    -0.0000211   -0.0000083     0.8749674    0.5021434 
   0.688093750     0.2449481   -0.0121797    -0.0000135   -0.0000233    -0.0000215   -0.0000068     0.8745822    0.5026858 
   0.689625000     0.2448274   -0.0134080    -0.0000105   -0.0000054    -0.0000335   -0.0000282     0.8737544    0.5032567 
   0.691156250     0.2448889   -0.0144024    -0.0000307   -0.0000107    -0.0000157   -0.0000245     0.8733181    0.5037902 
   0.692687500     0.2449338   -0.0153915    -0.0000526   -0.0000191    -0.0000309   -0.0000003     0.8729079    0.5046486 
   0.694218750     0.2452219   -0.0166035    -0.0000243   -0.0000249    -0.0000309    0.0000047     0.8724503    0.5055931 
   0.695750000     0.2452136   -0.0178320    -0.0000378    0.0000008    -0.0000309    0.0000076     0.8719319    0.5061584 
   0.697281250     0.2453713   -0.0187983    -0.0000414    0.0000116    -0.0000295   -0.0000162     0.8712282    0.5072523 
   0.698812500     0.2455729   -0.0196709    -0.0000563   -0.0000172    -0.0000377    0.0000199     0.8709671    0.5079434 
   0.700343750     0.2457892   -0.0205717    -0.0000382    0.0000094    -0.0000320   -0.0000001     0.8707333    0.5083408 
   0.701875000     0.2460989   -0.0216060    -0.0000347    0.0000067    -0.0000236   -0.0000276     0.8712820    0.5092483 
   0.703406250     0.2463203   -0.0225272    -0.0000243   -0.0000104    -0.0000372    0.0000026     0.8710468    0.5101221 
   0.704937500     0.2464721   -0.0235003    -0.0000434    0.0000119    -0.0000206    0.0000064     0.8701767    0.5108112 
   0.706468750     0.2467152   -0.0244233    -0.0000447    0.0000130    -0.0000361    0.0000109     0.8700619    0.5121136 
   0.708000000     0.2469389   -0.0253490    -0.0000150   -0.0000007    -0.0000626    0.0000043     0.8698735    0.5128717 
   0.709531250     0.2472639   -0.0261645    -0.0000460   -0.0000001    -0.0000502   -0.0000038     0.8691170    0.5142743 
   0.711062500     0.2476626   -0.0267307    -0.0000722    0.0000087    -0.0000260    0.0000081     0.8691068    0.5148063 
   0.712593750     0.2479315   -0.0272098    -0.0000699    0.0000394    -0.0000254    0.0000264     0.8687229    0.5161764 
   0.714125000     0.2481211   -0.0280077    -0.0000630    0.0000198    -0.0000235    0.0000029     0.8683506    0.5171373 
   0.715656250     0.2484738   -0.0285347    -0.0000767    0.0000343    -0.0000499    0.0000181     0.8685215    0.5187057 
   0.717187500     0.2488894   -0.0293113    -0.0000425    0.0000022    -0.0000340    0.0000136     0.8678935    0.5198022 
   0.718718750     0.2492969   -0.0298841    -0.0000645    0.0000097    -0.0000557    0.0000476     0.8673715    0.5217257 
   0.720250000     0.2496045   -0.0302907    -0.0000254    0.0000186    -0.0000531    0.0000464     0.8669721    0.5228519 
   0.721781250     0.2498320   -0.0308222    -0.0000314    0.0000139    -0.0000248   -0.0000122     0.8673096    0.5245987 
   0.723312500     0.2500927   -0.0311953    -0.0000478    0.0000401    -0.0000390    0.0000158     0.8666044    0.5257490 
   0.724843750     0.2504580   -0.0315583    -0.0000208    0.0000513    -0.0000169    0.0000332     0.8659649    0.5272717 
   0.726375000     0.2506418   -0.0317749    -0.0000078    0.0000267    -0.0000327    0.0000439     0.8655527    0.5286195 
   0.727906250     0.2508831   -0.0321997    -0.0000198    0.0000947    -0.0000461    0.0000189     0.8649881    0.5300793 
   0.729437500     0.2511147   -0.0328858    -0.0000131    0.0000261    -0.0000638    0.0000267     0.8647306    0.5320144 
   0.730968750     0.2513283   -0.0331044    -0.0000469    0.0000289    -0.0000155    0.0000528     0.8637947    0.5328718 
   0.732500000     0.2514433   -0.0334276    -0.0000340    0.0000369    -0.0000286    0.0000521     0.8636075    0.5346428 
   0.734031250     0.2516236   -0.0339148    -0.0000305    0.0000556    -0.0000466    0.0000418     0.8627347    0.5362257 
   0.735562500     0.2518119   -0.0343969    -0.0000612    0.0000192    -0.0000257    0.0000518     0.8621997    0.5377395 
   0.737093750     0.2517503   -0.0345993    -0.0000103    0.0000232    -0.0000338    0.0000241     0.8616963    0.5391561 
   0.738625000     0.2516285   -0.0348099    -0.0000243    0.0000598    -0.0000064    0.0000553     0.8600178    0.5407408 
   0.740156250     0.2516140   -0.0350637    -0.0000511    0.0000362    -0.0000102    0.0000707     0.8594598    0.5421897 
   0.741687500     0.2515823   -0.0355110    -0.0000091    0.0000423    -0.0000245    0.0000581     0.8585019    0.5436473 
   0.743218750     0.2514183   -0.0359348    -0.0000275    0.0000448    -0.0000225    0.0000443     0.8574360    0.5450717 
   0.744750000     0.2514398   -0.0363978    -0.0000198    0.0000790    -0.0000175    0.0000753     0.8562542    0.5464733 
   0.746281250     0.2512368   -0.0366994    -0.0000096    0.0000719    -0.0000177    0.0000488     0.8557518    0.5478407 
   0.747812500     0.2510192   -0.0371001     0.0000009    0.0000560    -0.0000132    0.0000720     0.8551898    0.5487258 
   0.749343750     0.2507374   -0.0375228    -0.0000210    0.0000471    -0.0000483    0.0000622     0.8535053    0.5504680 
   0.750875000     0.2501246   -0.0379569    -0.0000024    0.0000719    -0.0000357    0.0000716     0.8527815    0.5515279 
   0.752406250     0.2498198   -0.0383277     0.0000051    0.0000752    -0.0000184    0.0000436     0.8514209    0.5532789 
   0.753937500     0.2494856   -0.0386776    -0.0000089    0.0000277    -0.0000071    0.0000507     0.8503097    0.5539982 
   0.755468750     0.2491632   -0.0391508     0.0000108    0.0000553    -0.0000114    0.0000585     0.8490575    0.5555062 
   0.757000000     0.2489014   -0.0398484     0.0000055    0.0000489    -0.0000124    0.0000579     0.8486827    0.5563584 
   0.758531250     0.2484290   -0.0405756     0.0000281    0.0000706    -0.0000099    0.0000444     0.8475469    0.5576547 
   0.760062500     0.2479135   -0.0411263     0.0000121    0.0000377     0.0000176    0.0000639     0.8464125    0.5590985 
   0.761593750     0.2473790   -0.0417613    -0.0000206    0.0000426    -0.0000270    0.0000533     0.8453744    0.5602515 
   0.763125000     0.2468472   -0.0425085     0.0000056    0.0000570     0.0000182    0.0000271     0.8435023    0.5610345 
   0.764656250     0.2464570   -0.0432167     0.0000273    0.0000250     0.0000051    0.0000532     0.8426155    0.5623966 
   0.766187500     0.2460848   -0.0438185    -0.0000080    0.0000512     0.0000006    0.0000588     0.8413829    0.5633438 
   0.767718750     0.2455892   -0.0445625     0.0000036    0.0000574    -0.0000507    0.0000611     0.8405714    0.5641120 
   0.769250000     0.2449944   -0.0454676     0.0000101    0.0000424    -0.0000347    0.0000505     0.8393283    0.5649805 
   0.770781250     0.2445391   -0.0463375     0.0000189    0.0000308     0.0000105    0.0000384     0.8385808    0.5659323 
   0.772312500     0.2442037   -0.0474112     0.0000062    0.0000446    -0.0000076    0.0000575     0.8380616    0.5670981 
   0.773843750     0.2437573   -0.0483494    -0.0000088    0.0000456    -0.0000003    0.0000631     0.8367913    0.5677636 
   0.775375000     0.2432272   -0.0493724     0.0000174    0.0000403    -0.0000033    0.0000484     0.8356097    0.5690724 
   0.776906250     0.2426502   -0.0504477     0.0000322    0.0000211     0.0000024    0.0000371     0.8348988    0.5695882 
   0.778437500     0.2422312   -0.0514029     0.0000017    0.0000681     0.0000115    0.0000702     0.8337803    0.5706500 
   0.779968750     0.2418433   -0.0526405    -0.0000072    0.0000405    -0.0000046    0.0000501     0.8333483    0.5710884 
   0.781500000     0.2413765   -0.0535919    -0.0000043    0.0000734     0.0000056    0.0000608     0.8330500    0.5721789 
   0.783031250     0.2410060   -0.0545944     0.0000044    0.0000558     0.0000211    0.0000871     0.8322673    0.5728671 
   0.784562500     0.2409373   -0.0557806     0.0000148    0.0000591     0.0000115    0.0000520     0.8316738    0.5742026 
   0.786093750     0.2405620   -0.0571145     0.0000285    0.0000421     0.0000139    0.0000550     0.8313324    0.5747711 
   0.787625000     0.2401314   -0.0584115     0.0000025    0.0000412     0.0000104    0.0000329     0.8310291    0.5754653 
   0.789156250     0.2398112   -0.0595501     0.0000172    0.0000389     0.0000261    0.0000390     0.8297870    0.5765118 
   0.790687500     0.2395163   -0.0606202     0.0000247    0.0000768     0.0000172    0.0000345     0.8293881    0.5774115 
   0.792218750     0.2394204   -0.0617116    -0.0000119    0.0000618    -0.0000157    0.0000264     0.8289385    0.5782007 
   0.793750000     0.2391726   -0.0631648    -0.0000208    0.0000535     0.0000160    0.0000581     0.8290725    0.5791569 
   0.795281250     0.2390685   -0.0641183     0.0000370    0.0000550     0.0000123    0.0000474     0.8284242    0.5803276 
   0.796812500     0.2389760   -0.0652967     0.0000241    0.0000344    -0.0000018    0.0000400     0.8283486    0.5811033 
   0.798343750     0.2388545   -0.0663981     0.0000105    0.0000611     0.0000346    0.0000557     0.8276711    0.5823385 
   0.799875000     0.2389672   -0.0676942    -0.0000066    0.0000642     0.0000023    0.0000365     0.8273033    0.5831073 
   0.801406250     0.2387287   -0.0688744     0.0000198    0.0000529    -0.0000056    0.0000333     0.8265350    0.5841698 
   0.802937500     0.2384943   -0.0699986     0.0000174    0.0000474     0.0000388    0.0000271     0.8266935    0.5849558 
   0.804468750     0.2384498   -0.0710022    -0.0000139    0.0000595     0.0000296    0.0000600     0.8266489    0.5858545 
   0.806000000     0.2386492   -0.0718721     0.0000094    0.0000580     0.0000276    0.0000368     0.8261409    0.5872716 
