! 10/3/2022 2:33:48 PM
! D:\USERS\JULIAN\DESKTOP\MATRIZ DE DISPERSION\ON\S12.S2P
! CHANNEL.1
! TR.MEASUREMENT
! CORRECTED.DATA
# GHZ S RI R 50.0
! FREQ.GHZ         S11RE         S11IM         S21RE         S21IM         S12RE         S12IM         S22RE         S22IM         
!; PortSelection: Port_12
   0.512000000     0.7174295   -0.6642672     0.0006390    0.0247762    -0.0001533    0.0247425     0.2112705    0.0632593 
   0.513531250     0.7162663   -0.6658514     0.0005092    0.0248284    -0.0002564    0.0248643     0.2117527    0.0628458 
   0.515062500     0.7149469   -0.6675866     0.0005053    0.0249289    -0.0003012    0.0250301     0.2121608    0.0620437 
   0.516593750     0.7135735   -0.6690642     0.0005413    0.0249726    -0.0002425    0.0251885     0.2126465    0.0615771 
   0.518125000     0.7122040   -0.6708608     0.0004569    0.0250762    -0.0002083    0.0252965     0.2134641    0.0609206 
   0.519656250     0.7103300   -0.6723672     0.0005008    0.0251778    -0.0002294    0.0254175     0.2139842    0.0604980 
   0.521187500     0.7089868   -0.6736211     0.0004695    0.0253030    -0.0002244    0.0255879     0.2146450    0.0598803 
   0.522718750     0.7073601   -0.6752157     0.0004688    0.0254065    -0.0001873    0.0257734     0.2151460    0.0593140 
   0.524250000     0.7056110   -0.6765843     0.0004725    0.0254941    -0.0001410    0.0258770     0.2156835    0.0584878 
   0.525781250     0.7040841   -0.6783660     0.0004350    0.0255910    -0.0000596    0.0260162     0.2162676    0.0579616 
   0.527312500     0.7022324   -0.6800696     0.0004876    0.0256943     0.0000441    0.0261377     0.2172038    0.0573640 
   0.528843750     0.7004474   -0.6819275     0.0004757    0.0258135     0.0001011    0.0262547     0.2178103    0.0569402 
   0.530375000     0.6985336   -0.6833307     0.0004772    0.0258839     0.0001658    0.0263570     0.2184389    0.0565539 
   0.531906250     0.6970408   -0.6849959     0.0005005    0.0260200     0.0001883    0.0264772     0.2190449    0.0561913 
   0.533437500     0.6951265   -0.6869029     0.0005196    0.0261551     0.0002677    0.0265584     0.2198652    0.0555983 
   0.534968750     0.6933758   -0.6881719     0.0005213    0.0262499     0.0003159    0.0266875     0.2203927    0.0551724 
   0.536500000     0.6918696   -0.6902384     0.0005422    0.0263628     0.0004294    0.0267735     0.2211387    0.0542747 
   0.538031250     0.6903395   -0.6920879     0.0006050    0.0264970     0.0005214    0.0268251     0.2218084    0.0539469 
   0.539562500     0.6882394   -0.6938696     0.0006183    0.0266005     0.0005897    0.0269108     0.2224942    0.0534997 
   0.541093750     0.6863311   -0.6954640     0.0006417    0.0266681     0.0006475    0.0269592     0.2229705    0.0532462 
   0.542625000     0.6848257   -0.6972824     0.0006722    0.0268092     0.0007047    0.0270186     0.2236839    0.0528561 
   0.544156250     0.6826589   -0.6990411     0.0007075    0.0269116     0.0007685    0.0270486     0.2242473    0.0526166 
   0.545687500     0.6804097   -0.7006584     0.0007153    0.0270155     0.0008282    0.0271298     0.2248071    0.0523781 
   0.547218750     0.6781220   -0.7024124     0.0008181    0.0271065     0.0008904    0.0271954     0.2255504    0.0519790 
   0.548750000     0.6763119   -0.7044389     0.0008776    0.0271907     0.0009571    0.0271829     0.2260023    0.0514724 
   0.550281250     0.6744921   -0.7062576     0.0008687    0.0273161     0.0009956    0.0272694     0.2265753    0.0509903 
   0.551812500     0.6718336   -0.7082871     0.0009368    0.0273730     0.0010180    0.0272349     0.2272412    0.0506829 
   0.553343750     0.6695114   -0.7097128     0.0009914    0.0274234     0.0010603    0.0272466     0.2279055    0.0504428 
   0.554875000     0.6675940   -0.7113963     0.0010228    0.0275682     0.0010466    0.0272761     0.2284635    0.0501789 
   0.556406250     0.6655220   -0.7133093     0.0010290    0.0276353     0.0010492    0.0273167     0.2287971    0.0500143 
   0.557937500     0.6635186   -0.7145075     0.0010819    0.0277255     0.0010406    0.0273744     0.2291285    0.0499116 
   0.559468750     0.6612489   -0.7167285     0.0011701    0.0278162     0.0010868    0.0274030     0.2292916    0.0495420 
   0.561000000     0.6590607   -0.7181998     0.0011702    0.0278583     0.0010946    0.0274102     0.2296927    0.0490080 
   0.562531250     0.6569083   -0.7205513     0.0012232    0.0279663     0.0010784    0.0274384     0.2301950    0.0484670 
   0.564062500     0.6547631   -0.7219425     0.0012746    0.0280146     0.0010633    0.0274378     0.2306867    0.0481608 
   0.565593750     0.6527072   -0.7238433     0.0013030    0.0281007     0.0010380    0.0274838     0.2309742    0.0477318 
   0.567125000     0.6504810   -0.7254463     0.0013228    0.0281684     0.0010109    0.0275244     0.2312728    0.0475964 
   0.568656250     0.6481578   -0.7269850     0.0013090    0.0282086     0.0009364    0.0275931     0.2314120    0.0472881 
   0.570187500     0.6460939   -0.7288473     0.0013959    0.0282444     0.0009182    0.0276563     0.2315577    0.0470018 
   0.571718750     0.6439831   -0.7307819     0.0013860    0.0283219     0.0009066    0.0277205     0.2313938    0.0465699 
   0.573250000     0.6416699   -0.7323048     0.0014288    0.0283869     0.0008741    0.0278040     0.2315288    0.0462907 
   0.574781250     0.6395732   -0.7340028     0.0014385    0.0284576     0.0008109    0.0278720     0.2318331    0.0456722 
   0.576312500     0.6374614   -0.7358050     0.0013925    0.0285194     0.0007713    0.0279607     0.2319801    0.0448637 
   0.577843750     0.6354048   -0.7372368     0.0014024    0.0285734     0.0006876    0.0280361     0.2320902    0.0444562 
   0.579375000     0.6333508   -0.7386853     0.0014385    0.0286298     0.0006340    0.0281745     0.2322384    0.0439034 
   0.580906250     0.6316133   -0.7403609     0.0014158    0.0286974     0.0005783    0.0283152     0.2322498    0.0433827 
   0.582437500     0.6295281   -0.7420907     0.0014561    0.0287689     0.0005584    0.0284457     0.2324425    0.0429393 
   0.583968750     0.6278080   -0.7437399     0.0014238    0.0288256     0.0005363    0.0285738     0.2324768    0.0425421 
   0.585500000     0.6258398   -0.7452819     0.0014534    0.0288860     0.0005208    0.0287209     0.2324769    0.0420823 
   0.587031250     0.6239928   -0.7468364     0.0014058    0.0289783     0.0005031    0.0288713     0.2327209    0.0411108 
   0.588562500     0.6223192   -0.7478483     0.0013892    0.0290515     0.0004588    0.0290028     0.2329883    0.0404139 
   0.590093750     0.6202895   -0.7493523     0.0013816    0.0291088     0.0004439    0.0292220     0.2330081    0.0396603 
   0.591625000     0.6185558   -0.7509805     0.0013691    0.0291576     0.0004185    0.0293881     0.2331190    0.0389414 
   0.593156250     0.6168424   -0.7526737     0.0013818    0.0292213     0.0004677    0.0295666     0.2331986    0.0381816 
   0.594687500     0.6152343   -0.7540877     0.0013837    0.0292935     0.0004949    0.0297165     0.2332320    0.0374912 
   0.596218750     0.6134209   -0.7557498     0.0013376    0.0293910     0.0005222    0.0299201     0.2333211    0.0366251 
   0.597750000     0.6118139   -0.7572057     0.0013176    0.0294980     0.0005619    0.0300905     0.2333363    0.0357017 
   0.599281250     0.6102360   -0.7581510     0.0012616    0.0295841     0.0005852    0.0302373     0.2338208    0.0347120 
   0.600812500     0.6083842   -0.7593517     0.0012805    0.0296612     0.0006404    0.0304568     0.2340220    0.0339196 
   0.602343750     0.6070498   -0.7613076     0.0012344    0.0297698     0.0006794    0.0306369     0.2341160    0.0329162 
   0.603875000     0.6050569   -0.7625729     0.0012515    0.0298242     0.0008012    0.0308154     0.2342033    0.0316671 
   0.605406250     0.6035840   -0.7640671     0.0012619    0.0299347     0.0008531    0.0309762     0.2343543    0.0305498 
   0.606937500     0.6018861   -0.7653406     0.0012223    0.0300128     0.0009608    0.0311330     0.2344944    0.0295413 
   0.608468750     0.6003202   -0.7666553     0.0012054    0.0301478     0.0010872    0.0312944     0.2349347    0.0284111 
   0.610000000     0.5987452   -0.7676139     0.0011978    0.0302549     0.0011293    0.0314200     0.2351021    0.0274358 
   0.611531250     0.5976568   -0.7686604     0.0011696    0.0303705     0.0012102    0.0315776     0.2353455    0.0266246 
   0.613062500     0.5962214   -0.7695894     0.0011902    0.0304711     0.0013079    0.0317043     0.2355065    0.0253251 
   0.614593750     0.5946726   -0.7710583     0.0012187    0.0305744     0.0014423    0.0318446     0.2357327    0.0242426 
   0.616125000     0.5934076   -0.7723724     0.0012327    0.0307026     0.0015696    0.0319435     0.2362697    0.0230577 
   0.617656250     0.5915825   -0.7735874     0.0012684    0.0308119     0.0017046    0.0320467     0.2365068    0.0219475 
   0.619187500     0.5901389   -0.7746741     0.0013283    0.0309433     0.0018517    0.0321349     0.2367964    0.0207207 
   0.620718750     0.5887408   -0.7761920     0.0013200    0.0310551     0.0019716    0.0321524     0.2370644    0.0196296 
   0.622250000     0.5879540   -0.7772536     0.0013139    0.0311706     0.0020367    0.0321445     0.2374105    0.0186576 
   0.623781250     0.5864873   -0.7783793     0.0013504    0.0312764     0.0021520    0.0321691     0.2374539    0.0171915 
   0.625312500     0.5844844   -0.7799144     0.0013682    0.0313396     0.0022099    0.0321795     0.2376372    0.0162174 
   0.626843750     0.5832561   -0.7812440     0.0014560    0.0314438     0.0023140    0.0322058     0.2377082    0.0153113 
   0.628375000     0.5808908   -0.7823860     0.0014358    0.0315228     0.0023580    0.0322370     0.2377121    0.0145148 
   0.629906250     0.5793500   -0.7835048     0.0014483    0.0316291     0.0024449    0.0321852     0.2378154    0.0136281 
   0.631437500     0.5772430   -0.7844214     0.0014713    0.0317673     0.0024746    0.0322050     0.2379288    0.0128069 
   0.632968750     0.5752591   -0.7861078     0.0014687    0.0318883     0.0024749    0.0321218     0.2382859    0.0119639 
   0.634500000     0.5739097   -0.7869343     0.0014842    0.0319669     0.0024632    0.0321685     0.2386086    0.0111448 
   0.636031250     0.5719233   -0.7883536     0.0015280    0.0321018     0.0025033    0.0321409     0.2389303    0.0105745 
   0.637562500     0.5697016   -0.7894162     0.0015768    0.0321680     0.0024614    0.0321841     0.2395222    0.0096813 
   0.639093750     0.5676968   -0.7909415     0.0016399    0.0323086     0.0024994    0.0321439     0.2397825    0.0092906 
   0.640625000     0.5657748   -0.7923496     0.0016807    0.0324008     0.0024860    0.0321150     0.2401448    0.0087010 
   0.642156250     0.5634262   -0.7930834     0.0016797    0.0325158     0.0024851    0.0321649     0.2404486    0.0081363 
   0.643687500     0.5614008   -0.7945068     0.0017003    0.0325713     0.0023570    0.0320867     0.2408047    0.0076622 
   0.645218750     0.5592132   -0.7958761     0.0017249    0.0326516     0.0023271    0.0320872     0.2412305    0.0070796 
   0.646750000     0.5571040   -0.7968399     0.0017763    0.0327616     0.0022559    0.0320902     0.2414128    0.0064912 
   0.648281250     0.5546819   -0.7982368     0.0018158    0.0328680     0.0021021    0.0321723     0.2422292    0.0056399 
   0.649812500     0.5520909   -0.7995645     0.0018357    0.0329357     0.0020455    0.0321825     0.2425468    0.0054202 
   0.651343750     0.5501171   -0.8009564     0.0018831    0.0330437     0.0019488    0.0322162     0.2425205    0.0045357 
   0.652875000     0.5473361   -0.8024654     0.0018840    0.0331115     0.0018858    0.0322656     0.2429326    0.0042039 
   0.654406250     0.5449345   -0.8038647     0.0019300    0.0332042     0.0018032    0.0322992     0.2432595    0.0036754 
   0.655937500     0.5425534   -0.8052745     0.0019421    0.0332532     0.0016187    0.0323531     0.2435237    0.0032530 
   0.657468750     0.5395738   -0.8061826     0.0019791    0.0332761     0.0014799    0.0324303     0.2438397    0.0028752 
   0.659000000     0.5368264   -0.8075822     0.0019764    0.0333569     0.0013253    0.0325242     0.2439448    0.0021681 
   0.660531250     0.5340798   -0.8092910     0.0020164    0.0334301     0.0012001    0.0326698     0.2441797    0.0016133 
   0.662062500     0.5315313   -0.8115352     0.0020301    0.0335069     0.0011426    0.0327722     0.2443004    0.0011979 
   0.663593750     0.5289193   -0.8125570     0.0020454    0.0336198     0.0010033    0.0329167     0.2446238    0.0004471 
   0.665125000     0.5262378   -0.8139808     0.0020081    0.0337177     0.0009259    0.0330787     0.2447886   -0.0001273 
   0.666656250     0.5235543   -0.8153999     0.0019994    0.0338052     0.0008236    0.0332820     0.2451583   -0.0007937 
   0.668187500     0.5208481   -0.8168024     0.0019804    0.0338394     0.0006742    0.0334449     0.2453072   -0.0012303 
   0.669718750     0.5181766   -0.8180354     0.0019832    0.0338485     0.0005300    0.0336566     0.2453111   -0.0018569 
   0.671250000     0.5154791   -0.8198520     0.0020235    0.0339277     0.0004110    0.0339549     0.2454240   -0.0024001 
   0.672781250     0.5129620   -0.8212136     0.0020291    0.0340269     0.0003805    0.0341671     0.2454582   -0.0030442 
   0.674312500     0.5103545   -0.8225309     0.0020182    0.0341088     0.0003048    0.0344464     0.2455713   -0.0036304 
   0.675843750     0.5075496   -0.8240568     0.0019983    0.0341814     0.0002825    0.0346974     0.2457050   -0.0041289 
   0.677375000     0.5053248   -0.8254957     0.0019547    0.0342991     0.0002667    0.0349493     0.2457640   -0.0050520 
   0.678906250     0.5024810   -0.8270119     0.0019190    0.0344372     0.0002160    0.0352655     0.2460046   -0.0057463 
   0.680437500     0.5000382   -0.8281059     0.0018782    0.0345575     0.0002083    0.0355480     0.2460890   -0.0063147 
   0.681968750     0.4974379   -0.8293992     0.0018926    0.0346931     0.0002486    0.0358418     0.2460878   -0.0067537 
   0.683500000     0.4949962   -0.8311371     0.0019147    0.0347961     0.0003632    0.0360654     0.2460919   -0.0073599 
   0.685031250     0.4925785   -0.8323651     0.0019320    0.0348940     0.0004586    0.0363392     0.2461221   -0.0081500 
   0.686562500     0.4904889   -0.8341588     0.0019049    0.0350491     0.0005701    0.0366626     0.2459591   -0.0090551 
   0.688093750     0.4880585   -0.8350310     0.0018708    0.0351786     0.0007064    0.0369290     0.2460008   -0.0099032 
   0.689625000     0.4856973   -0.8365847     0.0017992    0.0353170     0.0008622    0.0372114     0.2459927   -0.0105802 
   0.691156250     0.4830423   -0.8380857     0.0018338    0.0355193     0.0010370    0.0373686     0.2461922   -0.0114235 
   0.692687500     0.4812397   -0.8393949     0.0019026    0.0356704     0.0012203    0.0376233     0.2462075   -0.0119321 
   0.694218750     0.4785556   -0.8407372     0.0019248    0.0357972     0.0014021    0.0377983     0.2462334   -0.0126005 
   0.695750000     0.4764614   -0.8421498     0.0019368    0.0360227     0.0016989    0.0379815     0.2462554   -0.0135211 
   0.697281250     0.4743614   -0.8433350     0.0019210    0.0361848     0.0019274    0.0381460     0.2462552   -0.0140997 
   0.698812500     0.4719068   -0.8446222     0.0019304    0.0363301     0.0022236    0.0383418     0.2462551   -0.0148432 
   0.700343750     0.4698407   -0.8456764     0.0019589    0.0364666     0.0024613    0.0384722     0.2465800   -0.0158887 
   0.701875000     0.4678844   -0.8471476     0.0020436    0.0366266     0.0027268    0.0386111     0.2465010   -0.0169196 
   0.703406250     0.4657512   -0.8481550     0.0021048    0.0367674     0.0029582    0.0387483     0.2466213   -0.0175379 
   0.704937500     0.4636441   -0.8494999     0.0021324    0.0368961     0.0032054    0.0386899     0.2466350   -0.0180295 
   0.706468750     0.4617690   -0.8506647     0.0022080    0.0370718     0.0034870    0.0387056     0.2468953   -0.0187004 
   0.708000000     0.4600468   -0.8516406     0.0022785    0.0372045     0.0037698    0.0387143     0.2470780   -0.0194757 
   0.709531250     0.4581012   -0.8526245     0.0023519    0.0373906     0.0039764    0.0386797     0.2472464   -0.0202721 
   0.711062500     0.4566827   -0.8535786     0.0023775    0.0374760     0.0042244    0.0385770     0.2471228   -0.0210393 
   0.712593750     0.4550003   -0.8546798     0.0024813    0.0376123     0.0043667    0.0385933     0.2472279   -0.0218441 
   0.714125000     0.4531806   -0.8558779     0.0025951    0.0377148     0.0045032    0.0384805     0.2474575   -0.0228348 
   0.715656250     0.4515832   -0.8564797     0.0026510    0.0378636     0.0046883    0.0383729     0.2476834   -0.0236487 
   0.717187500     0.4499876   -0.8575657     0.0027507    0.0379749     0.0048311    0.0382306     0.2479034   -0.0240678 
   0.718718750     0.4481255   -0.8586944     0.0028211    0.0380909     0.0049744    0.0380787     0.2480876   -0.0246396 
   0.720250000     0.4465748   -0.8594485     0.0029587    0.0381991     0.0050595    0.0379472     0.2482285   -0.0251331 
   0.721781250     0.4445559   -0.8602768     0.0030242    0.0382773     0.0051359    0.0378421     0.2484630   -0.0258735 
   0.723312500     0.4431713   -0.8607945     0.0031051    0.0383451     0.0051731    0.0377984     0.2483175   -0.0266435 
   0.724843750     0.4414029   -0.8620415     0.0032412    0.0384080     0.0051386    0.0376150     0.2485986   -0.0276853 
   0.726375000     0.4394026   -0.8625342     0.0033237    0.0384719     0.0051163    0.0374643     0.2486446   -0.0281564 
   0.727906250     0.4377402   -0.8633963     0.0034451    0.0385488     0.0050924    0.0373381     0.2488064   -0.0288068 
   0.729437500     0.4358599   -0.8644710     0.0034816    0.0385998     0.0050889    0.0371494     0.2488299   -0.0293802 
   0.730968750     0.4344456   -0.8652646     0.0035490    0.0386627     0.0050408    0.0369942     0.2488039   -0.0300047 
   0.732500000     0.4321962   -0.8659563     0.0036294    0.0387427     0.0049475    0.0368906     0.2489879   -0.0304448 
   0.734031250     0.4304832   -0.8665360     0.0036641    0.0387435     0.0048297    0.0368189     0.2490118   -0.0309493 
   0.735562500     0.4284267   -0.8671054     0.0037469    0.0387370     0.0046727    0.0367500     0.2490027   -0.0316345 
   0.737093750     0.4268071   -0.8680415     0.0038671    0.0387667     0.0044811    0.0366649     0.2491081   -0.0322448 
   0.738625000     0.4246014   -0.8685527     0.0038878    0.0388592     0.0043009    0.0365946     0.2492217   -0.0331449 
   0.740156250     0.4228855   -0.8695871     0.0038804    0.0388552     0.0040992    0.0365876     0.2490200   -0.0338157 
   0.741687500     0.4207130   -0.8701133     0.0039278    0.0388620     0.0039338    0.0365901     0.2490035   -0.0345089 
   0.743218750     0.4185714   -0.8707162     0.0039349    0.0389299     0.0037495    0.0366221     0.2489831   -0.0349282 
   0.744750000     0.4165018   -0.8713338     0.0039459    0.0389505     0.0035064    0.0366428     0.2488469   -0.0353686 
   0.746281250     0.4142447   -0.8721571     0.0039957    0.0389634     0.0032470    0.0366674     0.2487878   -0.0357932 
   0.747812500     0.4121986   -0.8725901     0.0040033    0.0389889     0.0029975    0.0367447     0.2486622   -0.0363348 
   0.749343750     0.4099545   -0.8735242     0.0039926    0.0390278     0.0027826    0.0368679     0.2487980   -0.0372129 
   0.750875000     0.4076845   -0.8739193     0.0039617    0.0390853     0.0025413    0.0370224     0.2487247   -0.0376641 
   0.752406250     0.4053989   -0.8749166     0.0039425    0.0391133     0.0023308    0.0372370     0.2485667   -0.0381443 
   0.753937500     0.4029056   -0.8758996     0.0039129    0.0391400     0.0020876    0.0374184     0.2481837   -0.0389750 
   0.755468750     0.4006556   -0.8766820     0.0038588    0.0391787     0.0019010    0.0376223     0.2477470   -0.0397800 
   0.757000000     0.3983242   -0.8775337     0.0038083    0.0392667     0.0016593    0.0378467     0.2475588   -0.0403453 
   0.758531250     0.3960486   -0.8778288     0.0037998    0.0393310     0.0014568    0.0380752     0.2473717   -0.0408487 
   0.760062500     0.3935013   -0.8788465     0.0037445    0.0394013     0.0013154    0.0383497     0.2471919   -0.0412562 
   0.761593750     0.3911901   -0.8795423     0.0036593    0.0394659     0.0011238    0.0386869     0.2468735   -0.0418185 
   0.763125000     0.3882799   -0.8804844     0.0035908    0.0395674     0.0009586    0.0391018     0.2465639   -0.0423200 
   0.764656250     0.3860504   -0.8813608     0.0035380    0.0396587     0.0008362    0.0394488     0.2465928   -0.0431062 
   0.766187500     0.3833560   -0.8819758     0.0034361    0.0397403     0.0007835    0.0398048     0.2460475   -0.0440219 
   0.767718750     0.3807715   -0.8829235     0.0033575    0.0398752     0.0007044    0.0402139     0.2457842   -0.0450237 
   0.769250000     0.3778301   -0.8833401     0.0032956    0.0399833     0.0006462    0.0404852     0.2453874   -0.0456146 
   0.770781250     0.3754611   -0.8846661     0.0032058    0.0401715     0.0006767    0.0409361     0.2448915   -0.0463607 
   0.772312500     0.3727501   -0.8860865     0.0032328    0.0403639     0.0006878    0.0413942     0.2447629   -0.0471160 
   0.773843750     0.3700278   -0.8867706     0.0031439    0.0405489     0.0007684    0.0418469     0.2443978   -0.0477803 
   0.775375000     0.3669704   -0.8878766     0.0030841    0.0406750     0.0008787    0.0422969     0.2441117   -0.0484517 
   0.776906250     0.3638878   -0.8889895     0.0030159    0.0408965     0.0010857    0.0427175     0.2437944   -0.0492580 
   0.778437500     0.3612716   -0.8899006     0.0029771    0.0410958     0.0012829    0.0430950     0.2436875   -0.0505612 
   0.779968750     0.3586427   -0.8908936     0.0030247    0.0412584     0.0015087    0.0434262     0.2433108   -0.0514827 
   0.781500000     0.3556490   -0.8917990     0.0030117    0.0414973     0.0018029    0.0437370     0.2430112   -0.0523730 
   0.783031250     0.3529635   -0.8927733     0.0030447    0.0416832     0.0020946    0.0440440     0.2427649   -0.0532882 
   0.784562500     0.3501790   -0.8941923     0.0030257    0.0418778     0.0024056    0.0443803     0.2425178   -0.0539634 
   0.786093750     0.3472965   -0.8952010     0.0030382    0.0421775     0.0027358    0.0447074     0.2419838   -0.0551023 
   0.787625000     0.3446480   -0.8962368     0.0030688    0.0423752     0.0031303    0.0449478     0.2418341   -0.0560060 
   0.789156250     0.3420076   -0.8973079     0.0030909    0.0426000     0.0035133    0.0451724     0.2417589   -0.0571125 
   0.790687500     0.3394310   -0.8982657     0.0032020    0.0428794     0.0039225    0.0453354     0.2414643   -0.0580594 
   0.792218750     0.3366175   -0.8994116     0.0032602    0.0430463     0.0042857    0.0453797     0.2412324   -0.0590519 
   0.793750000     0.3342368   -0.9003512     0.0034070    0.0432800     0.0047156    0.0454835     0.2407647   -0.0603682 
   0.795281250     0.3319767   -0.9016225     0.0034769    0.0435172     0.0051285    0.0455256     0.2404875   -0.0613854 
   0.796812500     0.3294072   -0.9027687     0.0035908    0.0437746     0.0055132    0.0455848     0.2403005   -0.0627025 
   0.798343750     0.3266821   -0.9037218     0.0037467    0.0439275     0.0059312    0.0455539     0.2399587   -0.0636172 
   0.799875000     0.3247091   -0.9047463     0.0038839    0.0441500     0.0062872    0.0455060     0.2396806   -0.0646654 
   0.801406250     0.3222491   -0.9058041     0.0041096    0.0442945     0.0066687    0.0453838     0.2390597   -0.0657394 
   0.802937500     0.3197542   -0.9065568     0.0043269    0.0444819     0.0069592    0.0452184     0.2387067   -0.0667331 
   0.804468750     0.3174139   -0.9073515     0.0044705    0.0446037     0.0072383    0.0449730     0.2384673   -0.0679628 
   0.806000000     0.3150876   -0.9082654     0.0046281    0.0447105     0.0075032    0.0448292     0.2380941   -0.0687789 
