! 10/3/2022 2:46:01 PM
! D:\USERS\JULIAN\DESKTOP\MATRIZ DE DISPERSION\ON\S15.S2P
! CHANNEL.1
! TR.MEASUREMENT
! CORRECTED.DATA
# GHZ S RI R 50.0
! FREQ.GHZ         S11RE         S11IM         S21RE         S21IM         S12RE         S12IM         S22RE         S22IM         
!; PortSelection: Port_12
   0.512000000     0.1802771    0.0630780    -0.0168873   -0.0177402    -0.0162031   -0.0176238     0.2225409    0.0690345 
   0.513531250     0.1807399    0.0629761    -0.0168333   -0.0178293    -0.0162674   -0.0176185     0.2231220    0.0685540 
   0.515062500     0.1811017    0.0627450    -0.0168578   -0.0178579    -0.0163353   -0.0176405     0.2236281    0.0677997 
   0.516593750     0.1815927    0.0623424    -0.0169561   -0.0178706    -0.0164379   -0.0176183     0.2241257    0.0669639 
   0.518125000     0.1823340    0.0621064    -0.0170171   -0.0178958    -0.0164968   -0.0176180     0.2251279    0.0660762 
   0.519656250     0.1827623    0.0618969    -0.0170817   -0.0179397    -0.0165592   -0.0176055     0.2257555    0.0655843 
   0.521187500     0.1831501    0.0617602    -0.0171885   -0.0179439    -0.0166402   -0.0176763     0.2265087    0.0648720 
   0.522718750     0.1834778    0.0617603    -0.0172497   -0.0179516    -0.0167446   -0.0177369     0.2270703    0.0645210 
   0.524250000     0.1837778    0.0616594    -0.0173043   -0.0179982    -0.0167887   -0.0177174     0.2277161    0.0640405 
   0.525781250     0.1842880    0.0611338    -0.0174024   -0.0180596    -0.0169156   -0.0177000     0.2283475    0.0633089 
   0.527312500     0.1846721    0.0610367    -0.0175149   -0.0180585    -0.0170132   -0.0177415     0.2292101    0.0626811 
   0.528843750     0.1850520    0.0607648    -0.0175815   -0.0180925    -0.0170942   -0.0177292     0.2298885    0.0621700 
   0.530375000     0.1854246    0.0604844    -0.0176372   -0.0180959    -0.0171719   -0.0177282     0.2305846    0.0616946 
   0.531906250     0.1858543    0.0602772    -0.0177225   -0.0181390    -0.0172106   -0.0177632     0.2313056    0.0610554 
   0.533437500     0.1863562    0.0599875    -0.0178278   -0.0181449    -0.0173148   -0.0177564     0.2321516    0.0603976 
   0.534968750     0.1867138    0.0598483    -0.0179345   -0.0181468    -0.0173639   -0.0178149     0.2327627    0.0600287 
   0.536500000     0.1870325    0.0596882    -0.0180296   -0.0181882    -0.0174758   -0.0177876     0.2335261    0.0592155 
   0.538031250     0.1872831    0.0594003    -0.0181537   -0.0181795    -0.0175601   -0.0178248     0.2342305    0.0590285 
   0.539562500     0.1876218    0.0591478    -0.0182178   -0.0182143    -0.0176817   -0.0178045     0.2349240    0.0586746 
   0.541093750     0.1879208    0.0589398    -0.0183148   -0.0182426    -0.0177250   -0.0178172     0.2355881    0.0584474 
   0.542625000     0.1882793    0.0587649    -0.0184507   -0.0182402    -0.0178183   -0.0177937     0.2362590    0.0578332 
   0.544156250     0.1888636    0.0581934    -0.0185260   -0.0182344    -0.0179012   -0.0178315     0.2368564    0.0575324 
   0.545687500     0.1892359    0.0579339    -0.0186364   -0.0182523    -0.0179948   -0.0178768     0.2375009    0.0571411 
   0.547218750     0.1895660    0.0576335    -0.0187215   -0.0182811    -0.0180947   -0.0178578     0.2382329    0.0566675 
   0.548750000     0.1898467    0.0574534    -0.0188766   -0.0182421    -0.0181902   -0.0178595     0.2388351    0.0561971 
   0.550281250     0.1900690    0.0571927    -0.0189499   -0.0182671    -0.0182713   -0.0178584     0.2396308    0.0560557 
   0.551812500     0.1903314    0.0570000    -0.0190289   -0.0182298    -0.0183535   -0.0178180     0.2401492    0.0558881 
   0.553343750     0.1906790    0.0566921    -0.0191839   -0.0182061    -0.0184297   -0.0177939     0.2407402    0.0556724 
   0.554875000     0.1909382    0.0561185    -0.0192612   -0.0182169    -0.0185090   -0.0177940     0.2412994    0.0554222 
   0.556406250     0.1914542    0.0556056    -0.0193636   -0.0181536    -0.0185891   -0.0178103     0.2416935    0.0552395 
   0.557937500     0.1916994    0.0551158    -0.0194213   -0.0181725    -0.0186601   -0.0178466     0.2420075    0.0550130 
   0.559468750     0.1920179    0.0546418    -0.0195335   -0.0180949    -0.0187339   -0.0177741     0.2424721    0.0545029 
   0.561000000     0.1922898    0.0543213    -0.0195910   -0.0180873    -0.0187976   -0.0177739     0.2431718    0.0541771 
   0.562531250     0.1925867    0.0539865    -0.0196938   -0.0180295    -0.0189112   -0.0177196     0.2433108    0.0536294 
   0.564062500     0.1927478    0.0537438    -0.0197831   -0.0180213    -0.0189129   -0.0176777     0.2436488    0.0533387 
   0.565593750     0.1930710    0.0532714    -0.0198588   -0.0180013    -0.0189950   -0.0177023     0.2440254    0.0531008 
   0.567125000     0.1933544    0.0528480    -0.0199131   -0.0179786    -0.0190508   -0.0177029     0.2442552    0.0529411 
   0.568656250     0.1937024    0.0522374    -0.0199702   -0.0179787    -0.0191119   -0.0177209     0.2444309    0.0525902 
   0.570187500     0.1941341    0.0516637    -0.0200314   -0.0179608    -0.0192186   -0.0176915     0.2446194    0.0522803 
   0.571718750     0.1946321    0.0509344    -0.0200664   -0.0179048    -0.0192862   -0.0176601     0.2447181    0.0519340 
   0.573250000     0.1949786    0.0503789    -0.0201613   -0.0178928    -0.0193317   -0.0176559     0.2447610    0.0514360 
   0.574781250     0.1953071    0.0500183    -0.0202269   -0.0178740    -0.0193793   -0.0176129     0.2448838    0.0506680 
   0.576312500     0.1956173    0.0495114    -0.0202608   -0.0178800    -0.0194305   -0.0175955     0.2451386    0.0499287 
   0.577843750     0.1960328    0.0491768    -0.0203087   -0.0178345    -0.0194758   -0.0176310     0.2453533    0.0497647 
   0.579375000     0.1963508    0.0486801    -0.0204112   -0.0178246    -0.0195557   -0.0176220     0.2453513    0.0492227 
   0.580906250     0.1966963    0.0480779    -0.0204788   -0.0178122    -0.0196446   -0.0176384     0.2454743    0.0487738 
   0.582437500     0.1971494    0.0474004    -0.0205072   -0.0177986    -0.0197551   -0.0176186     0.2455342    0.0480554 
   0.583968750     0.1976243    0.0469149    -0.0205379   -0.0178330    -0.0198147   -0.0176244     0.2455537    0.0475666 
   0.585500000     0.1982700    0.0462232    -0.0205793   -0.0177988    -0.0198813   -0.0176193     0.2455353    0.0469579 
   0.587031250     0.1988304    0.0456150    -0.0206301   -0.0178500    -0.0198884   -0.0176342     0.2458562    0.0458012 
   0.588562500     0.1992906    0.0452139    -0.0206599   -0.0178416    -0.0199374   -0.0176110     0.2459825    0.0449854 
   0.590093750     0.1997081    0.0447694    -0.0207383   -0.0178409    -0.0199784   -0.0176581     0.2459671    0.0444073 
   0.591625000     0.2002393    0.0440899    -0.0207760   -0.0178472    -0.0200893   -0.0177069     0.2459789    0.0436997 
   0.593156250     0.2006785    0.0435780    -0.0208576   -0.0178472    -0.0201934   -0.0177023     0.2459901    0.0430020 
   0.594687500     0.2011898    0.0431855    -0.0209289   -0.0178784    -0.0202693   -0.0177174     0.2459720    0.0422063 
   0.596218750     0.2016955    0.0426189    -0.0209974   -0.0178791    -0.0203873   -0.0177030     0.2461078    0.0413270 
   0.597750000     0.2021665    0.0421227    -0.0210597   -0.0179376    -0.0204332   -0.0177030     0.2461092    0.0402828 
   0.599281250     0.2029413    0.0411947    -0.0211297   -0.0179281    -0.0204762   -0.0177104     0.2463689    0.0390240 
   0.600812500     0.2035413    0.0407392    -0.0211926   -0.0179417    -0.0205462   -0.0177208     0.2465269    0.0381121 
   0.602343750     0.2039667    0.0403461    -0.0212826   -0.0179641    -0.0206409   -0.0177665     0.2466046    0.0370664 
   0.603875000     0.2044922    0.0400020    -0.0213734   -0.0179439    -0.0207795   -0.0177684     0.2466054    0.0362904 
   0.605406250     0.2048560    0.0395220    -0.0214360   -0.0179395    -0.0208446   -0.0177678     0.2466643    0.0349855 
   0.606937500     0.2053204    0.0390085    -0.0215420   -0.0179471    -0.0209753   -0.0177728     0.2467878    0.0341211 
   0.608468750     0.2060707    0.0386360    -0.0216537   -0.0180121    -0.0210626   -0.0177725     0.2472611    0.0329831 
   0.610000000     0.2065464    0.0383020    -0.0217166   -0.0180213    -0.0211560   -0.0177896     0.2474827    0.0319131 
   0.611531250     0.2070803    0.0380040    -0.0218245   -0.0179861    -0.0212286   -0.0177960     0.2477048    0.0309629 
   0.613062500     0.2074654    0.0375049    -0.0219725   -0.0179932    -0.0213076   -0.0177892     0.2479111    0.0297447 
   0.614593750     0.2081632    0.0369682    -0.0220516   -0.0179502    -0.0214236   -0.0177974     0.2480826    0.0282102 
   0.616125000     0.2086635    0.0367734    -0.0221523   -0.0179822    -0.0215443   -0.0177510     0.2484723    0.0270203 
   0.617656250     0.2090539    0.0366902    -0.0222495   -0.0179566    -0.0216717   -0.0177221     0.2487141    0.0259918 
   0.619187500     0.2095436    0.0365299    -0.0223936   -0.0179545    -0.0217991   -0.0177018     0.2490193    0.0249964 
   0.620718750     0.2100428    0.0363813    -0.0225015   -0.0179238    -0.0218564   -0.0176753     0.2494049    0.0239863 
   0.622250000     0.2106086    0.0360305    -0.0226117   -0.0178909    -0.0219282   -0.0176697     0.2497834    0.0229822 
   0.623781250     0.2110956    0.0358453    -0.0226937   -0.0178419    -0.0220022   -0.0176186     0.2500773    0.0216496 
   0.625312500     0.2115051    0.0356196    -0.0228144   -0.0177918    -0.0221373   -0.0176147     0.2504814    0.0203315 
   0.626843750     0.2117982    0.0352231    -0.0228982   -0.0177589    -0.0222376   -0.0175620     0.2506918    0.0191151 
   0.628375000     0.2122131    0.0350217    -0.0230163   -0.0176858    -0.0223494   -0.0174672     0.2509865    0.0181314 
   0.629906250     0.2125022    0.0349940    -0.0230787   -0.0176453    -0.0224275   -0.0174192     0.2512478    0.0169848 
   0.631437500     0.2129303    0.0346372    -0.0231810   -0.0175964    -0.0225025   -0.0173618     0.2514182    0.0161264 
   0.632968750     0.2133398    0.0345709    -0.0231995   -0.0175470    -0.0224784   -0.0173102     0.2522342    0.0152405 
   0.634500000     0.2136050    0.0345207    -0.0233020   -0.0174853    -0.0225431   -0.0172853     0.2525956    0.0142933 
   0.636031250     0.2138694    0.0343638    -0.0233959   -0.0174699    -0.0225787   -0.0172492     0.2531556    0.0134297 
   0.637562500     0.2140810    0.0341867    -0.0234303   -0.0174168    -0.0226830   -0.0172306     0.2534974    0.0123248 
   0.639093750     0.2143001    0.0338859    -0.0234924   -0.0173928    -0.0227603   -0.0171592     0.2539537    0.0115822 
   0.640625000     0.2145566    0.0336655    -0.0235620   -0.0173331    -0.0228039   -0.0171278     0.2543702    0.0105931 
   0.642156250     0.2145613    0.0331755    -0.0236412   -0.0173425    -0.0228718   -0.0170953     0.2547621    0.0097201 
   0.643687500     0.2147959    0.0328540    -0.0236619   -0.0173077    -0.0228489   -0.0170673     0.2552452    0.0089307 
   0.645218750     0.2149254    0.0326954    -0.0237307   -0.0172885    -0.0229006   -0.0170830     0.2557038    0.0082448 
   0.646750000     0.2149540    0.0325473    -0.0238101   -0.0172323    -0.0229419   -0.0170118     0.2562120    0.0074028 
   0.648281250     0.2148914    0.0322738    -0.0238695   -0.0171835    -0.0230610   -0.0170382     0.2567918    0.0064886 
   0.649812500     0.2148638    0.0318497    -0.0239399   -0.0171506    -0.0231217   -0.0169954     0.2571937    0.0058126 
   0.651343750     0.2149055    0.0315731    -0.0240003   -0.0171532    -0.0231368   -0.0169325     0.2574525    0.0049270 
   0.652875000     0.2149381    0.0309811    -0.0239927   -0.0170926    -0.0232264   -0.0169101     0.2576116    0.0038865 
   0.654406250     0.2148805    0.0304429    -0.0240140   -0.0170683    -0.0232330   -0.0168902     0.2578580    0.0030103 
   0.655937500     0.2148939    0.0299759    -0.0240821   -0.0170383    -0.0232488   -0.0168497     0.2581584    0.0022065 
   0.657468750     0.2149395    0.0292080    -0.0241287   -0.0169888    -0.0232766   -0.0168665     0.2584117    0.0016250 
   0.659000000     0.2148081    0.0286793    -0.0241549   -0.0169568    -0.0233194   -0.0168321     0.2585864    0.0009461 
   0.660531250     0.2146956    0.0282005    -0.0241967   -0.0169204    -0.0234158   -0.0167836     0.2588116    0.0001929 
   0.662062500     0.2147454    0.0275885    -0.0242267   -0.0168922    -0.0234716   -0.0167586     0.2594852   -0.0006771 
   0.663593750     0.2145405    0.0270241    -0.0242810   -0.0169020    -0.0235238   -0.0167732     0.2595755   -0.0012120 
   0.665125000     0.2145159    0.0262606    -0.0242981   -0.0169216    -0.0235475   -0.0167427     0.2596448   -0.0022131 
   0.666656250     0.2145973    0.0254023    -0.0243079   -0.0169199    -0.0235772   -0.0167736     0.2597214   -0.0032516 
   0.668187500     0.2144046    0.0247061    -0.0243123   -0.0168650    -0.0235177   -0.0167814     0.2599015   -0.0040580 
   0.669718750     0.2143552    0.0238916    -0.0242896   -0.0168228    -0.0235611   -0.0167905     0.2599972   -0.0048416 
   0.671250000     0.2144905    0.0229481    -0.0243621   -0.0168461    -0.0236747   -0.0168452     0.2598945   -0.0055878 
   0.672781250     0.2144550    0.0220435    -0.0244166   -0.0168752    -0.0237528   -0.0168577     0.2600322   -0.0062479 
   0.674312500     0.2144087    0.0213129    -0.0244908   -0.0168722    -0.0237887   -0.0168823     0.2600560   -0.0069097 
   0.675843750     0.2144216    0.0205114    -0.0245214   -0.0168909    -0.0238928   -0.0169127     0.2602248   -0.0075928 
   0.677375000     0.2143586    0.0196356    -0.0245439   -0.0169524    -0.0239267   -0.0169398     0.2605760   -0.0089560 
   0.678906250     0.2144358    0.0187263    -0.0245900   -0.0169724    -0.0239793   -0.0170042     0.2605959   -0.0096886 
   0.680437500     0.2144743    0.0177937    -0.0246847   -0.0169895    -0.0240638   -0.0170308     0.2606390   -0.0106664 
   0.681968750     0.2145450    0.0168834    -0.0247638   -0.0170038    -0.0241413   -0.0169979     0.2606014   -0.0114220 
   0.683500000     0.2145901    0.0157571    -0.0248366   -0.0170346    -0.0241991   -0.0169986     0.2605031   -0.0122927 
   0.685031250     0.2146764    0.0149493    -0.0249587   -0.0170646    -0.0243234   -0.0170411     0.2606500   -0.0130268 
   0.686562500     0.2149941    0.0139988    -0.0250385   -0.0171262    -0.0244373   -0.0170504     0.2605504   -0.0139853 
   0.688093750     0.2151875    0.0132246    -0.0251347   -0.0171843    -0.0245431   -0.0171139     0.2605625   -0.0149559 
   0.689625000     0.2153584    0.0123759    -0.0252256   -0.0171974    -0.0246244   -0.0171435     0.2607570   -0.0159846 
   0.691156250     0.2156001    0.0112799    -0.0254243   -0.0172534    -0.0247102   -0.0171254     0.2608142   -0.0169724 
   0.692687500     0.2158203    0.0104213    -0.0255709   -0.0172193    -0.0248461   -0.0171299     0.2607478   -0.0178193 
   0.694218750     0.2161039    0.0094407    -0.0256750   -0.0172718    -0.0249294   -0.0170920     0.2606950   -0.0187672 
   0.695750000     0.2162927    0.0084385    -0.0258313   -0.0172580    -0.0251079   -0.0170198     0.2605749   -0.0201093 
   0.697281250     0.2166272    0.0074108    -0.0259756   -0.0173437    -0.0251953   -0.0170230     0.2605353   -0.0210137 
   0.698812500     0.2171607    0.0065871    -0.0261125   -0.0173238    -0.0253631   -0.0170258     0.2608050   -0.0220921 
   0.700343750     0.2174675    0.0058908    -0.0262658   -0.0172959    -0.0255149   -0.0170272     0.2607529   -0.0230124 
   0.701875000     0.2176632    0.0051297    -0.0264462   -0.0172449    -0.0256980   -0.0170458     0.2606352   -0.0240813 
   0.703406250     0.2179917    0.0042427    -0.0265965   -0.0171953    -0.0258359   -0.0170164     0.2607086   -0.0249894 
   0.704937500     0.2186300    0.0033321    -0.0267579   -0.0172100    -0.0259432   -0.0169201     0.2606013   -0.0258042 
   0.706468750     0.2190678    0.0026037    -0.0269530   -0.0171316    -0.0261268   -0.0168239     0.2608387   -0.0269078 
   0.708000000     0.2194550    0.0018837    -0.0270904   -0.0170674    -0.0262821   -0.0167371     0.2608209   -0.0279460 
   0.709531250     0.2199129    0.0012668    -0.0272330   -0.0170046    -0.0264868   -0.0166573     0.2608207   -0.0290388 
   0.711062500     0.2205379    0.0005470    -0.0274267   -0.0168804    -0.0265771   -0.0165494     0.2605542   -0.0300278 
   0.712593750     0.2206442   -0.0000271    -0.0275614   -0.0167694    -0.0267014   -0.0164694     0.2605122   -0.0310231 
   0.714125000     0.2211086   -0.0004616    -0.0277371   -0.0165855    -0.0268023   -0.0163702     0.2605920   -0.0321441 
   0.715656250     0.2215462   -0.0009422    -0.0278575   -0.0165092    -0.0269531   -0.0161864     0.2605069   -0.0329094 
   0.717187500     0.2219384   -0.0012739    -0.0279535   -0.0163571    -0.0270160   -0.0160504     0.2604916   -0.0335508 
   0.718718750     0.2224483   -0.0019301    -0.0280159   -0.0162449    -0.0271237   -0.0158868     0.2604497   -0.0342825 
   0.720250000     0.2229551   -0.0023090    -0.0281229   -0.0160619    -0.0271784   -0.0157589     0.2604171   -0.0350254 
   0.721781250     0.2233378   -0.0028218    -0.0282229   -0.0159143    -0.0272494   -0.0156025     0.2603532   -0.0360087 
   0.723312500     0.2236468   -0.0031598    -0.0282868   -0.0157335    -0.0273421   -0.0154943     0.2600525   -0.0371510 
   0.724843750     0.2239700   -0.0033535    -0.0283497   -0.0155250    -0.0273831   -0.0153497     0.2599578   -0.0381544 
   0.726375000     0.2242118   -0.0034629    -0.0283871   -0.0153780    -0.0274225   -0.0151705     0.2598068   -0.0385518 
   0.727906250     0.2244594   -0.0036743    -0.0283959   -0.0152323    -0.0274269   -0.0150024     0.2596931   -0.0392365 
   0.729437500     0.2246297   -0.0042652    -0.0283579   -0.0150923    -0.0274482   -0.0147862     0.2595712   -0.0399558 
   0.730968750     0.2248743   -0.0044596    -0.0283403   -0.0149167    -0.0273962   -0.0146424     0.2595199   -0.0405691 
   0.732500000     0.2250109   -0.0046235    -0.0282960   -0.0147338    -0.0273346   -0.0145727     0.2593238   -0.0410701 
   0.734031250     0.2251515   -0.0048491    -0.0282564   -0.0145766    -0.0273088   -0.0144468     0.2589653   -0.0417378 
   0.735562500     0.2251475   -0.0050548    -0.0282403   -0.0143981    -0.0272280   -0.0143251     0.2588789   -0.0425941 
   0.737093750     0.2252380   -0.0052302    -0.0280795   -0.0142867    -0.0271490   -0.0141957     0.2586130   -0.0433027 
   0.738625000     0.2252428   -0.0052673    -0.0280375   -0.0141980    -0.0270471   -0.0140480     0.2582560   -0.0438802 
   0.740156250     0.2251455   -0.0052986    -0.0279743   -0.0141367    -0.0270202   -0.0139932     0.2578037   -0.0445059 
   0.741687500     0.2250910   -0.0052750    -0.0278750   -0.0140523    -0.0269393   -0.0139603     0.2574782   -0.0449429 
   0.743218750     0.2250543   -0.0055183    -0.0277799   -0.0139524    -0.0268381   -0.0139055     0.2572162   -0.0452892 
   0.744750000     0.2248943   -0.0058229    -0.0276855   -0.0139881    -0.0267403   -0.0139093     0.2568248   -0.0456004 
   0.746281250     0.2246975   -0.0059766    -0.0275995   -0.0138491    -0.0266189   -0.0138873     0.2566903   -0.0460487 
   0.747812500     0.2245516   -0.0061996    -0.0275132   -0.0138680    -0.0265498   -0.0138779     0.2564360   -0.0466743 
   0.749343750     0.2242969   -0.0063612    -0.0273933   -0.0139419    -0.0264477   -0.0138684     0.2560850   -0.0473927 
   0.750875000     0.2240144   -0.0065898    -0.0273156   -0.0139715    -0.0264062   -0.0138776     0.2558345   -0.0477824 
   0.752406250     0.2238034   -0.0067629    -0.0272418   -0.0140205    -0.0263453   -0.0139095     0.2555240   -0.0481047 
   0.753937500     0.2234708   -0.0068701    -0.0272058   -0.0139713    -0.0263020   -0.0139918     0.2550606   -0.0486614 
   0.755468750     0.2231196   -0.0070120    -0.0271810   -0.0140434    -0.0262560   -0.0140481     0.2545299   -0.0491754 
   0.757000000     0.2227466   -0.0073211    -0.0271359   -0.0140483    -0.0262182   -0.0141052     0.2541671   -0.0496205 
   0.758531250     0.2223468   -0.0076325    -0.0271221   -0.0141044    -0.0261420   -0.0141561     0.2538666   -0.0500912 
   0.760062500     0.2221156   -0.0083500    -0.0270214   -0.0142447    -0.0261297   -0.0141735     0.2535292   -0.0503909 
   0.761593750     0.2217311   -0.0087118    -0.0270155   -0.0142526    -0.0261048   -0.0142481     0.2530045   -0.0508966 
   0.763125000     0.2213010   -0.0092363    -0.0270067   -0.0143959    -0.0261516   -0.0143336     0.2529070   -0.0515721 
   0.764656250     0.2208517   -0.0096209    -0.0269602   -0.0144321    -0.0261367   -0.0144306     0.2527158   -0.0521138 
   0.766187500     0.2204025   -0.0100243    -0.0269743   -0.0145243    -0.0261435   -0.0145330     0.2520771   -0.0528695 
   0.767718750     0.2200483   -0.0104129    -0.0269877   -0.0145833    -0.0261603   -0.0146353     0.2517917   -0.0535202 
   0.769250000     0.2195521   -0.0108245    -0.0270311   -0.0146996    -0.0261364   -0.0147022     0.2514984   -0.0539410 
   0.770781250     0.2191240   -0.0113905    -0.0270939   -0.0147622    -0.0261641   -0.0147971     0.2510343   -0.0545366 
   0.772312500     0.2186726   -0.0122503    -0.0271369   -0.0148911    -0.0262388   -0.0148309     0.2506325   -0.0553062 
   0.773843750     0.2183529   -0.0129275    -0.0271725   -0.0149845    -0.0263422   -0.0149330     0.2502124   -0.0559389 
   0.775375000     0.2181681   -0.0138862    -0.0272243   -0.0150460    -0.0264006   -0.0150059     0.2498178   -0.0566424 
   0.776906250     0.2178607   -0.0146133    -0.0273554   -0.0151162    -0.0264882   -0.0150973     0.2494299   -0.0575189 
   0.778437500     0.2175619   -0.0152836    -0.0274530   -0.0152165    -0.0265296   -0.0151690     0.2492420   -0.0587283 
   0.779968750     0.2172845   -0.0159575    -0.0276359   -0.0152775    -0.0266001   -0.0152407     0.2488681   -0.0595296 
   0.781500000     0.2169394   -0.0168915    -0.0276712   -0.0153736    -0.0266971   -0.0152593     0.2486707   -0.0602305 
   0.783031250     0.2166914   -0.0175616    -0.0277760   -0.0153960    -0.0267976   -0.0153203     0.2483121   -0.0610402 
   0.784562500     0.2164715   -0.0183861    -0.0278473   -0.0155365    -0.0268938   -0.0153418     0.2480606   -0.0616769 
   0.786093750     0.2163063   -0.0189789    -0.0279791   -0.0154895    -0.0270191   -0.0153579     0.2474937   -0.0627977 
   0.787625000     0.2160422   -0.0201216    -0.0280623   -0.0155526    -0.0271716   -0.0154200     0.2471924   -0.0636907 
   0.789156250     0.2160764   -0.0212096    -0.0282238   -0.0156198    -0.0273027   -0.0154814     0.2470582   -0.0648169 
   0.790687500     0.2160868   -0.0219956    -0.0284172   -0.0156451    -0.0273665   -0.0155254     0.2467591   -0.0657727 
   0.792218750     0.2160334   -0.0226954    -0.0285442   -0.0156740    -0.0275004   -0.0155150     0.2465381   -0.0667154 
   0.793750000     0.2157935   -0.0236069    -0.0286432   -0.0156968    -0.0276252   -0.0155278     0.2461771   -0.0677804 
   0.795281250     0.2158120   -0.0243506    -0.0288291   -0.0157098    -0.0278274   -0.0155024     0.2460427   -0.0685999 
   0.796812500     0.2160619   -0.0252290    -0.0289675   -0.0157683    -0.0279591   -0.0155044     0.2460470   -0.0698180 
   0.798343750     0.2161991   -0.0260433    -0.0291725   -0.0156495    -0.0281326   -0.0154740     0.2458383   -0.0707156 
   0.799875000     0.2163425   -0.0267143    -0.0293263   -0.0156338    -0.0282795   -0.0154534     0.2457026   -0.0717358 
   0.801406250     0.2162591   -0.0275896    -0.0294808   -0.0155370    -0.0283811   -0.0154316     0.2452147   -0.0728876 
   0.802937500     0.2165682   -0.0287203    -0.0296259   -0.0155557    -0.0284881   -0.0154102     0.2451128   -0.0743522 
   0.804468750     0.2167245   -0.0293687    -0.0297206   -0.0154839    -0.0286029   -0.0153404     0.2449251   -0.0754531 
   0.806000000     0.2170186   -0.0299399    -0.0298668   -0.0154463    -0.0287311   -0.0152362     0.2447503   -0.0765224 
