! 10/3/2022 2:49:34 PM
! D:\USERS\JULIAN\DESKTOP\MATRIZ DE DISPERSION\ON\S16.S2P
! CHANNEL.1
! TR.MEASUREMENT
! CORRECTED.DATA
# GHZ S RI R 50.0
! FREQ.GHZ         S11RE         S11IM         S21RE         S21IM         S12RE         S12IM         S22RE         S22IM         
!; PortSelection: Port_12
   0.512000000     0.1675471    0.0669320     0.0216250    0.0353369     0.0205967    0.0349399     0.2222977    0.0734356 
   0.513531250     0.1680993    0.0668275     0.0214674    0.0354709     0.0206347    0.0349524     0.2228854    0.0727163 
   0.515062500     0.1685221    0.0664105     0.0214863    0.0355408     0.0206328    0.0350431     0.2233348    0.0718917 
   0.516593750     0.1691230    0.0662315     0.0215224    0.0356371     0.0207306    0.0351123     0.2238078    0.0708268 
   0.518125000     0.1696719    0.0659830     0.0215159    0.0357166     0.0208214    0.0351120     0.2247128    0.0701128 
   0.519656250     0.1703503    0.0658984     0.0216135    0.0358345     0.0209248    0.0351527     0.2253831    0.0695890 
   0.521187500     0.1708631    0.0659005     0.0217314    0.0358758     0.0210093    0.0352417     0.2261074    0.0689441 
   0.522718750     0.1713473    0.0659743     0.0218402    0.0359763     0.0211087    0.0353893     0.2266427    0.0684366 
   0.524250000     0.1716893    0.0657880     0.0219651    0.0360634     0.0212064    0.0354406     0.2273211    0.0678605 
   0.525781250     0.1721381    0.0654989     0.0220227    0.0361547     0.0213058    0.0355236     0.2279665    0.0669539 
   0.527312500     0.1728146    0.0654107     0.0221149    0.0362722     0.0214094    0.0355976     0.2288100    0.0660015 
   0.528843750     0.1732711    0.0651424     0.0221924    0.0363491     0.0215362    0.0356308     0.2295774    0.0653153 
   0.530375000     0.1736803    0.0650326     0.0222574    0.0364299     0.0216324    0.0356598     0.2302590    0.0647806 
   0.531906250     0.1741523    0.0649264     0.0223915    0.0364920     0.0217412    0.0357130     0.2309383    0.0642357 
   0.533437500     0.1745019    0.0649600     0.0225666    0.0365594     0.0218608    0.0357429     0.2318190    0.0636821 
   0.534968750     0.1750725    0.0649114     0.0227069    0.0366667     0.0219639    0.0358722     0.2324479    0.0633180 
   0.536500000     0.1753994    0.0648563     0.0227822    0.0367434     0.0220717    0.0359317     0.2332327    0.0623429 
   0.538031250     0.1756853    0.0647299     0.0229324    0.0368091     0.0221582    0.0360044     0.2339636    0.0620027 
   0.539562500     0.1760189    0.0646247     0.0230313    0.0369014     0.0222746    0.0360532     0.2346928    0.0614666 
   0.541093750     0.1763131    0.0645802     0.0231389    0.0369449     0.0223548    0.0360404     0.2353635    0.0610354 
   0.542625000     0.1766492    0.0644072     0.0233316    0.0370182     0.0225036    0.0360528     0.2360528    0.0603086 
   0.544156250     0.1769746    0.0642456     0.0234884    0.0369984     0.0226090    0.0361005     0.2367037    0.0599518 
   0.545687500     0.1773819    0.0640978     0.0236158    0.0370676     0.0227159    0.0361790     0.2373414    0.0596537 
   0.547218750     0.1776749    0.0640194     0.0237669    0.0371079     0.0228361    0.0362442     0.2381068    0.0592507 
   0.548750000     0.1779501    0.0640934     0.0238532    0.0371613     0.0228972    0.0363258     0.2387226    0.0587501 
   0.550281250     0.1781566    0.0640259     0.0239593    0.0371945     0.0230317    0.0363479     0.2395259    0.0584580 
   0.551812500     0.1783639    0.0639905     0.0240941    0.0372521     0.0231062    0.0363127     0.2400941    0.0581865 
   0.553343750     0.1784860    0.0639030     0.0242148    0.0372638     0.0231892    0.0363079     0.2406610    0.0578080 
   0.554875000     0.1787363    0.0634715     0.0243591    0.0372512     0.0232773    0.0363188     0.2412997    0.0573151 
   0.556406250     0.1790517    0.0631645     0.0244844    0.0372974     0.0233316    0.0363865     0.2417399    0.0569754 
   0.557937500     0.1792584    0.0627926     0.0246004    0.0372881     0.0234433    0.0364828     0.2420496    0.0567627 
   0.559468750     0.1794244    0.0625963     0.0246611    0.0373529     0.0235480    0.0365075     0.2424942    0.0564592 
   0.561000000     0.1795695    0.0624762     0.0247636    0.0373458     0.0236057    0.0365727     0.2432514    0.0561114 
   0.562531250     0.1797395    0.0624406     0.0248426    0.0373757     0.0236763    0.0365720     0.2434018    0.0555536 
   0.564062500     0.1798325    0.0622341     0.0249834    0.0373920     0.0237501    0.0365393     0.2437877    0.0552054 
   0.565593750     0.1799852    0.0619787     0.0251418    0.0374131     0.0238757    0.0365477     0.2441676    0.0547653 
   0.567125000     0.1801955    0.0616782     0.0252292    0.0374235     0.0239531    0.0366093     0.2444566    0.0545484 
   0.568656250     0.1803359    0.0613002     0.0253001    0.0374285     0.0240213    0.0366746     0.2446549    0.0540004 
   0.570187500     0.1805782    0.0605779     0.0253576    0.0374306     0.0241171    0.0367337     0.2448400    0.0535810 
   0.571718750     0.1809913    0.0599508     0.0254067    0.0374774     0.0241801    0.0368058     0.2450259    0.0532230 
   0.573250000     0.1811801    0.0595336     0.0254747    0.0375250     0.0242671    0.0368479     0.2450938    0.0529211 
   0.574781250     0.1813646    0.0592388     0.0255779    0.0375314     0.0243591    0.0368407     0.2452923    0.0521064 
   0.576312500     0.1815483    0.0588431     0.0256598    0.0375161     0.0244546    0.0368228     0.2455496    0.0513621 
   0.577843750     0.1818415    0.0584732     0.0257645    0.0375821     0.0245422    0.0368547     0.2458247    0.0510872 
   0.579375000     0.1820160    0.0579883     0.0258410    0.0375653     0.0246102    0.0369055     0.2459543    0.0504826 
   0.580906250     0.1820519    0.0575235     0.0258842    0.0376106     0.0246853    0.0370101     0.2460200    0.0497874 
   0.582437500     0.1824404    0.0566782     0.0259128    0.0376663     0.0247594    0.0370448     0.2461337    0.0488866 
   0.583968750     0.1827140    0.0560351     0.0258948    0.0376969     0.0248061    0.0371175     0.2462014    0.0482369 
   0.585500000     0.1829447    0.0554964     0.0259924    0.0377395     0.0249068    0.0371399     0.2462224    0.0476713 
   0.587031250     0.1832401    0.0548813     0.0260711    0.0377521     0.0249875    0.0371371     0.2466496    0.0466100 
   0.588562500     0.1837464    0.0544670     0.0261615    0.0378015     0.0250557    0.0371787     0.2468484    0.0458607 
   0.590093750     0.1841039    0.0539823     0.0262097    0.0378890     0.0251426    0.0372864     0.2469036    0.0452091 
   0.591625000     0.1844769    0.0533585     0.0262628    0.0379417     0.0252289    0.0373886     0.2469838    0.0442840 
   0.593156250     0.1847787    0.0526925     0.0263149    0.0379963     0.0253320    0.0374495     0.2470792    0.0434364 
   0.594687500     0.1851575    0.0522037     0.0263370    0.0380809     0.0253979    0.0375250     0.2470848    0.0425377 
   0.596218750     0.1855686    0.0514674     0.0264507    0.0381076     0.0254764    0.0375713     0.2473047    0.0415092 
   0.597750000     0.1859289    0.0508630     0.0265148    0.0382073     0.0255395    0.0376152     0.2474218    0.0402821 
   0.599281250     0.1862999    0.0499806     0.0266297    0.0382971     0.0256717    0.0376420     0.2477719    0.0390864 
   0.600812500     0.1867980    0.0493693     0.0267301    0.0383448     0.0257680    0.0377256     0.2480280    0.0382397 
   0.602343750     0.1873363    0.0489616     0.0267940    0.0384516     0.0258984    0.0378683     0.2482517    0.0371581 
   0.603875000     0.1878935    0.0484249     0.0268862    0.0385153     0.0260297    0.0379242     0.2483434    0.0363078 
   0.605406250     0.1882442    0.0478601     0.0269690    0.0385790     0.0261511    0.0379701     0.2484774    0.0348291 
   0.606937500     0.1887501    0.0473716     0.0270684    0.0386405     0.0262237    0.0380546     0.2488142    0.0336606 
   0.608468750     0.1891975    0.0468122     0.0271767    0.0387081     0.0263492    0.0380919     0.2492867    0.0324099 
   0.610000000     0.1897270    0.0462486     0.0272895    0.0387308     0.0264575    0.0380747     0.2495022    0.0311538 
   0.611531250     0.1902621    0.0456973     0.0274084    0.0388005     0.0264896    0.0381483     0.2498127    0.0300929 
   0.613062500     0.1907091    0.0452181     0.0274523    0.0388816     0.0265604    0.0382025     0.2500840    0.0289910 
   0.614593750     0.1912513    0.0448942     0.0275394    0.0389993     0.0266776    0.0383745     0.2503593    0.0276541 
   0.616125000     0.1919752    0.0445821     0.0276307    0.0390843     0.0267679    0.0384558     0.2508791    0.0264929 
   0.617656250     0.1925119    0.0443735     0.0277650    0.0391425     0.0268551    0.0385816     0.2512061    0.0254302 
   0.619187500     0.1930602    0.0441080     0.0279083    0.0392763     0.0270251    0.0386399     0.2516799    0.0243663 
   0.620718750     0.1936236    0.0438817     0.0280668    0.0393337     0.0271425    0.0386671     0.2521459    0.0232861 
   0.622250000     0.1941572    0.0436574     0.0282071    0.0394458     0.0272248    0.0387139     0.2526840    0.0222198 
   0.623781250     0.1949339    0.0431602     0.0283821    0.0395400     0.0273662    0.0388090     0.2531523    0.0208523 
   0.625312500     0.1953374    0.0426762     0.0285129    0.0396148     0.0275364    0.0389507     0.2537389    0.0195663 
   0.626843750     0.1958174    0.0425370     0.0286904    0.0396698     0.0276785    0.0390314     0.2542168    0.0185926 
   0.628375000     0.1964106    0.0423462     0.0288383    0.0397686     0.0278186    0.0390889     0.2547508    0.0177108 
   0.629906250     0.1968720    0.0423101     0.0290181    0.0398060     0.0279686    0.0391615     0.2553099    0.0166343 
   0.631437500     0.1973435    0.0421329     0.0292616    0.0398407     0.0281998    0.0391698     0.2557255    0.0157133 
   0.632968750     0.1979941    0.0418746     0.0294477    0.0398655     0.0282990    0.0391198     0.2567333    0.0147515 
   0.634500000     0.1984571    0.0418356     0.0296123    0.0399423     0.0284980    0.0392089     0.2573532    0.0136254 
   0.636031250     0.1988405    0.0416758     0.0297998    0.0399500     0.0286296    0.0391937     0.2582199    0.0125386 
   0.637562500     0.1992009    0.0414988     0.0299876    0.0399258     0.0288189    0.0392583     0.2584595    0.0112887 
   0.639093750     0.1995347    0.0413005     0.0301308    0.0399464     0.0289462    0.0392697     0.2589954    0.0104930 
   0.640625000     0.1998807    0.0411144     0.0302736    0.0398892     0.0291132    0.0392470     0.2595722    0.0097514 
   0.642156250     0.2001251    0.0408106     0.0304747    0.0398679     0.0293037    0.0392001     0.2601216    0.0090766 
   0.643687500     0.2005711    0.0405419     0.0306710    0.0398557     0.0293897    0.0391142     0.2607483    0.0083698 
   0.645218750     0.2008399    0.0404707     0.0307865    0.0398254     0.0295266    0.0390769     0.2613102    0.0077130 
   0.646750000     0.2009157    0.0403303     0.0309278    0.0397934     0.0296543    0.0390450     0.2619942    0.0067948 
   0.648281250     0.2010360    0.0402060     0.0310490    0.0397743     0.0297663    0.0391195     0.2625924    0.0059518 
   0.649812500     0.2011530    0.0399489     0.0311372    0.0397318     0.0299075    0.0390817     0.2630638    0.0052344 
   0.651343750     0.2012628    0.0396425     0.0312618    0.0396231     0.0299805    0.0390644     0.2634404    0.0043674 
   0.652875000     0.2013039    0.0392765     0.0314017    0.0395805     0.0300764    0.0389731     0.2636906    0.0035170 
   0.654406250     0.2014042    0.0388970     0.0314889    0.0395325     0.0302431    0.0389625     0.2641330    0.0028123 
   0.655937500     0.2014805    0.0386245     0.0315546    0.0394926     0.0302954    0.0388537     0.2645002    0.0022870 
   0.657468750     0.2016044    0.0380473     0.0316226    0.0394093     0.0303730    0.0388315     0.2648919    0.0018050 
   0.659000000     0.2015308    0.0377133     0.0316677    0.0393659     0.0304237    0.0388246     0.2651439    0.0012635 
   0.660531250     0.2014791    0.0373701     0.0317357    0.0393424     0.0305255    0.0388310     0.2654340    0.0004827 
   0.662062500     0.2015782    0.0369521     0.0317963    0.0392815     0.0306063    0.0387855     0.2661535   -0.0003453 
   0.663593750     0.2013813    0.0365267     0.0319110    0.0392666     0.0306691    0.0387594     0.2662662   -0.0009552 
   0.665125000     0.2013151    0.0358705     0.0319612    0.0392746     0.0307521    0.0387374     0.2664626   -0.0018402 
   0.666656250     0.2012552    0.0352723     0.0320164    0.0392437     0.0308566    0.0386452     0.2664517   -0.0028885 
   0.668187500     0.2010560    0.0347316     0.0319646    0.0392288     0.0308587    0.0387010     0.2667428   -0.0034560 
   0.669718750     0.2010158    0.0341552     0.0319862    0.0390675     0.0309031    0.0386779     0.2668303   -0.0040827 
   0.671250000     0.2008649    0.0335452     0.0320350    0.0390991     0.0310468    0.0388020     0.2667918   -0.0047212 
   0.672781250     0.2009857    0.0326989     0.0321217    0.0390370     0.0310868    0.0387938     0.2668429   -0.0053487 
   0.674312500     0.2008659    0.0320997     0.0322058    0.0390427     0.0311293    0.0387907     0.2667635   -0.0060789 
   0.675843750     0.2007866    0.0315224     0.0322362    0.0390222     0.0312006    0.0387784     0.2668074   -0.0067212 
   0.677375000     0.2006154    0.0307725     0.0322206    0.0390196     0.0312497    0.0387697     0.2670862   -0.0081765 
   0.678906250     0.2005131    0.0299736     0.0322417    0.0391039     0.0313286    0.0387368     0.2669537   -0.0088375 
   0.680437500     0.2004233    0.0292443     0.0323273    0.0390714     0.0313540    0.0387230     0.2668569   -0.0096538 
   0.681968750     0.2003508    0.0285286     0.0323707    0.0390408     0.0314064    0.0387293     0.2667193   -0.0102280 
   0.683500000     0.2002632    0.0275917     0.0323976    0.0390189     0.0314241    0.0386744     0.2664941   -0.0110117 
   0.685031250     0.2002108    0.0269342     0.0324979    0.0390099     0.0314479    0.0386801     0.2664389   -0.0117255 
   0.686562500     0.2002101    0.0262105     0.0325252    0.0390505     0.0314910    0.0386637     0.2661051   -0.0126101 
   0.688093750     0.2002078    0.0255083     0.0324828    0.0390825     0.0315590    0.0386643     0.2657638   -0.0135897 
   0.689625000     0.2003393    0.0247472     0.0324303    0.0390940     0.0315895    0.0386532     0.2656336   -0.0145542 
   0.691156250     0.2003946    0.0237046     0.0324992    0.0392225     0.0315216    0.0386114     0.2653863   -0.0155431 
   0.692687500     0.2004129    0.0228853     0.0325189    0.0392660     0.0315181    0.0386596     0.2650238   -0.0162083 
   0.694218750     0.2004613    0.0220915     0.0324620    0.0392935     0.0314513    0.0386412     0.2646765   -0.0168037 
   0.695750000     0.2004446    0.0212548     0.0325511    0.0394280     0.0315029    0.0386875     0.2644425   -0.0177047 
   0.697281250     0.2005448    0.0204952     0.0326088    0.0395488     0.0314929    0.0387586     0.2642220   -0.0182581 
   0.698812500     0.2007310    0.0197666     0.0326282    0.0396495     0.0315165    0.0388183     0.2642730   -0.0190955 
   0.700343750     0.2010484    0.0191159     0.0326147    0.0397950     0.0316230    0.0389031     0.2640985   -0.0197989 
   0.701875000     0.2011489    0.0182722     0.0326309    0.0399075     0.0316631    0.0390996     0.2639280   -0.0206225 
   0.703406250     0.2014513    0.0175878     0.0327079    0.0400280     0.0316875    0.0391876     0.2637578   -0.0215075 
   0.704937500     0.2017549    0.0168534     0.0327615    0.0401312     0.0316639    0.0392250     0.2635427   -0.0221810 
   0.706468750     0.2022394    0.0160435     0.0328248    0.0402712     0.0317245    0.0393483     0.2636542   -0.0230479 
   0.708000000     0.2025685    0.0154045     0.0329432    0.0403808     0.0317864    0.0394673     0.2635552   -0.0237196 
   0.709531250     0.2029848    0.0148966     0.0330250    0.0405508     0.0318743    0.0395844     0.2635807   -0.0244112 
   0.711062500     0.2033667    0.0144902     0.0331235    0.0406670     0.0319719    0.0396357     0.2635328   -0.0249272 
   0.712593750     0.2037470    0.0136229     0.0332804    0.0408665     0.0321236    0.0398511     0.2634387   -0.0258150 
   0.714125000     0.2042703    0.0131309     0.0334268    0.0409989     0.0322003    0.0399609     0.2635875   -0.0268328 
   0.715656250     0.2047774    0.0126613     0.0335752    0.0411242     0.0323575    0.0400931     0.2636506   -0.0275255 
   0.717187500     0.2051520    0.0122485     0.0337824    0.0412241     0.0324650    0.0401707     0.2636819   -0.0282062 
   0.718718750     0.2056688    0.0116153     0.0339934    0.0412635     0.0326434    0.0402752     0.2637255   -0.0289631 
   0.720250000     0.2062423    0.0109418     0.0341903    0.0413375     0.0327913    0.0402637     0.2637636   -0.0296937 
   0.721781250     0.2066282    0.0104477     0.0343731    0.0413965     0.0329853    0.0403860     0.2638923   -0.0304166 
   0.723312500     0.2070100    0.0100647     0.0345507    0.0414380     0.0332735    0.0404754     0.2639368   -0.0310774 
   0.724843750     0.2075788    0.0097826     0.0347164    0.0414804     0.0334147    0.0405124     0.2639806   -0.0323009 
   0.726375000     0.2079165    0.0095854     0.0349342    0.0414027     0.0335666    0.0405304     0.2639397   -0.0327295 
   0.727906250     0.2084233    0.0091938     0.0351621    0.0414046     0.0337627    0.0405380     0.2640706   -0.0334836 
   0.729437500     0.2087598    0.0085861     0.0353882    0.0413631     0.0338799    0.0404920     0.2641290   -0.0341645 
   0.730968750     0.2091841    0.0080800     0.0355488    0.0412710     0.0339683    0.0404286     0.2641938   -0.0350319 
   0.732500000     0.2094517    0.0076123     0.0356567    0.0412384     0.0341351    0.0403595     0.2641590   -0.0357110 
   0.734031250     0.2097500    0.0072242     0.0357825    0.0411584     0.0343127    0.0403227     0.2640095   -0.0364498 
   0.735562500     0.2098890    0.0068596     0.0358541    0.0410704     0.0344347    0.0402754     0.2640734   -0.0372090 
   0.737093750     0.2101091    0.0066275     0.0359386    0.0409994     0.0345156    0.0402718     0.2643023   -0.0379332 
   0.738625000     0.2103828    0.0064036     0.0360744    0.0409457     0.0345482    0.0401829     0.2639557   -0.0385838 
   0.740156250     0.2105208    0.0061694     0.0362134    0.0408652     0.0346483    0.0401677     0.2638871   -0.0391866 
   0.741687500     0.2106064    0.0060127     0.0362083    0.0407984     0.0347050    0.0401832     0.2634709   -0.0399276 
   0.743218750     0.2106122    0.0058312     0.0362793    0.0407214     0.0347657    0.0400988     0.2633310   -0.0404096 
   0.744750000     0.2107414    0.0051013     0.0362773    0.0406843     0.0348162    0.0400479     0.2630498   -0.0410440 
   0.746281250     0.2106097    0.0045766     0.0363084    0.0406581     0.0348160    0.0400278     0.2630419   -0.0417596 
   0.747812500     0.2106839    0.0044479     0.0363103    0.0406222     0.0347808    0.0399830     0.2629448   -0.0424611 
   0.749343750     0.2106015    0.0042890     0.0362964    0.0406051     0.0348048    0.0400072     0.2627350   -0.0431717 
   0.750875000     0.2104594    0.0040539     0.0363680    0.0405964     0.0348674    0.0400428     0.2626901   -0.0435464 
   0.752406250     0.2102920    0.0037869     0.0363244    0.0405811     0.0348826    0.0401201     0.2624503   -0.0439508 
   0.753937500     0.2101395    0.0035232     0.0363245    0.0406153     0.0348753    0.0401764     0.2620983   -0.0446824 
   0.755468750     0.2100030    0.0031485     0.0363321    0.0406572     0.0348839    0.0401931     0.2617365   -0.0451602 
   0.757000000     0.2097276    0.0027612     0.0363052    0.0407011     0.0349166    0.0401966     0.2613108   -0.0458881 
   0.758531250     0.2094162    0.0023758     0.0363026    0.0407715     0.0348678    0.0402626     0.2609541   -0.0465362 
   0.760062500     0.2092874    0.0016143     0.0363212    0.0408940     0.0348859    0.0403213     0.2607040   -0.0469489 
   0.761593750     0.2090764    0.0013648     0.0363430    0.0409290     0.0349325    0.0404493     0.2603982   -0.0474628 
   0.763125000     0.2087767    0.0009559     0.0363490    0.0410373     0.0349770    0.0406408     0.2603586   -0.0481387 
   0.764656250     0.2084620    0.0005803     0.0363719    0.0411257     0.0349827    0.0407362     0.2601468   -0.0485790 
   0.766187500     0.2080998    0.0002932     0.0364008    0.0412546     0.0350320    0.0408450     0.2597053   -0.0490434 
   0.767718750     0.2077894   -0.0002409     0.0364738    0.0414012     0.0351679    0.0409295     0.2592629   -0.0499551 
   0.769250000     0.2073746   -0.0007118     0.0364906    0.0415591     0.0351144    0.0410015     0.2589666   -0.0504517 
   0.770781250     0.2070038   -0.0013968     0.0365692    0.0417463     0.0351847    0.0411219     0.2586119   -0.0510984 
   0.772312500     0.2065596   -0.0023214     0.0366560    0.0418081     0.0352628    0.0412687     0.2581448   -0.0519039 
   0.773843750     0.2062775   -0.0028681     0.0367880    0.0419742     0.0353620    0.0414474     0.2575368   -0.0526569 
   0.775375000     0.2058828   -0.0034201     0.0368622    0.0421599     0.0354598    0.0416224     0.2571206   -0.0532747 
   0.776906250     0.2057139   -0.0040453     0.0369317    0.0422792     0.0355706    0.0417482     0.2568753   -0.0539660 
   0.778437500     0.2055406   -0.0046551     0.0371089    0.0424977     0.0357167    0.0418520     0.2566418   -0.0550446 
   0.779968750     0.2052693   -0.0053343     0.0372418    0.0426450     0.0358644    0.0419328     0.2563036   -0.0556645 
   0.781500000     0.2049202   -0.0062574     0.0373809    0.0427741     0.0359788    0.0420266     0.2559469   -0.0564370 
   0.783031250     0.2046614   -0.0069639     0.0375697    0.0429501     0.0361621    0.0421352     0.2555951   -0.0572178 
   0.784562500     0.2043467   -0.0077755     0.0377437    0.0431118     0.0363218    0.0422899     0.2552077   -0.0578467 
   0.786093750     0.2041653   -0.0084374     0.0380064    0.0432707     0.0365441    0.0424688     0.2546452   -0.0590320 
   0.787625000     0.2037808   -0.0093989     0.0381815    0.0434189     0.0367061    0.0425890     0.2542138   -0.0598797 
   0.789156250     0.2036067   -0.0101895     0.0384189    0.0435355     0.0369232    0.0426746     0.2541246   -0.0609003 
   0.790687500     0.2034515   -0.0107984     0.0386756    0.0436142     0.0371941    0.0427141     0.2537913   -0.0616577 
   0.792218750     0.2032968   -0.0115909     0.0389191    0.0437751     0.0373886    0.0427708     0.2534795   -0.0624701 
   0.793750000     0.2032092   -0.0123999     0.0391881    0.0438076     0.0375857    0.0428237     0.2530055   -0.0634322 
   0.795281250     0.2031575   -0.0130665     0.0394872    0.0438939     0.0378300    0.0428697     0.2527627   -0.0642150 
   0.796812500     0.2030272   -0.0139825     0.0397034    0.0439424     0.0380883    0.0429662     0.2526419   -0.0653850 
   0.798343750     0.2029046   -0.0149316     0.0399621    0.0439515     0.0383174    0.0430508     0.2522683   -0.0662639 
   0.799875000     0.2029287   -0.0157845     0.0402838    0.0439595     0.0385331    0.0430633     0.2520202   -0.0673476 
   0.801406250     0.2029530   -0.0164018     0.0405265    0.0439856     0.0388495    0.0430267     0.2514569   -0.0683743 
   0.802937500     0.2029782   -0.0171310     0.0407721    0.0439659     0.0390445    0.0429383     0.2512164   -0.0694990 
   0.804468750     0.2032488   -0.0178819     0.0410573    0.0439096     0.0392215    0.0428862     0.2509890   -0.0705974 
   0.806000000     0.2033447   -0.0184603     0.0413564    0.0438334     0.0394918    0.0428421     0.2507947   -0.0714787 
