! 10/3/2022 2:30:43 PM
! D:\USERS\JULIAN\DESKTOP\MATRIZ DE DISPERSION\ON\S31.S2P
! CHANNEL.1
! TR.MEASUREMENT
! CORRECTED.DATA
# GHZ S RI R 50.0
! FREQ.GHZ         S11RE         S11IM         S21RE         S21IM         S12RE         S12IM         S22RE         S22IM         
!; PortSelection: Port_12
   0.512000000     0.2180155    0.0633979     0.0060204    0.0131667     0.0060505    0.0126332     0.6701249   -0.7133754 
   0.513531250     0.2185077    0.0631772     0.0059649    0.0132536     0.0060623    0.0126785     0.6686831   -0.7148208 
   0.515062500     0.2192591    0.0627445     0.0060249    0.0133251     0.0060742    0.0127422     0.6672384   -0.7163355 
   0.516593750     0.2197712    0.0623716     0.0060874    0.0134149     0.0061232    0.0127463     0.6651232   -0.7176064 
   0.518125000     0.2201538    0.0618600     0.0061158    0.0135015     0.0061388    0.0127868     0.6634067   -0.7193559 
   0.519656250     0.2206167    0.0615992     0.0062087    0.0135773     0.0061499    0.0128024     0.6619128   -0.7212288 
   0.521187500     0.2210216    0.0613897     0.0062740    0.0136617     0.0061811    0.0128639     0.6603726   -0.7231072 
   0.522718750     0.2216364    0.0611099     0.0063223    0.0137455     0.0062367    0.0129375     0.6587055   -0.7244276 
   0.524250000     0.2220201    0.0608548     0.0063997    0.0138002     0.0062772    0.0129862     0.6569467   -0.7261479 
   0.525781250     0.2224518    0.0605605     0.0065047    0.0138811     0.0062990    0.0130108     0.6550373   -0.7273408 
   0.527312500     0.2228080    0.0600242     0.0066072    0.0139653     0.0063619    0.0130627     0.6534043   -0.7293948 
   0.528843750     0.2231866    0.0594715     0.0066655    0.0140217     0.0064120    0.0131026     0.6517640   -0.7307853 
   0.530375000     0.2235527    0.0591173     0.0067989    0.0140501     0.0064557    0.0131278     0.6495563   -0.7325734 
   0.531906250     0.2241483    0.0585827     0.0068638    0.0140859     0.0064474    0.0131646     0.6482418   -0.7347280 
   0.533437500     0.2245514    0.0583529     0.0069436    0.0141605     0.0065168    0.0131881     0.6461342   -0.7365330 
   0.534968750     0.2249301    0.0581429     0.0070257    0.0141691     0.0065686    0.0132672     0.6444268   -0.7379497 
   0.536500000     0.2252064    0.0578819     0.0071567    0.0141800     0.0065922    0.0133179     0.6426291   -0.7397358 
   0.538031250     0.2255490    0.0576112     0.0072529    0.0142240     0.0066516    0.0133468     0.6410765   -0.7413840 
   0.539562500     0.2258624    0.0572282     0.0073760    0.0142525     0.0067091    0.0133811     0.6386604   -0.7434027 
   0.541093750     0.2261799    0.0565837     0.0074700    0.0142427     0.0067601    0.0133950     0.6368224   -0.7449935 
   0.542625000     0.2266962    0.0558095     0.0075222    0.0142269     0.0067721    0.0134263     0.6347499   -0.7467592 
   0.544156250     0.2268844    0.0553333     0.0075861    0.0142428     0.0068448    0.0134537     0.6327965   -0.7486582 
   0.545687500     0.2271716    0.0549322     0.0076804    0.0142342     0.0068960    0.0135151     0.6307647   -0.7502627 
   0.547218750     0.2274974    0.0545451     0.0077657    0.0142301     0.0069566    0.0135614     0.6292794   -0.7523764 
   0.548750000     0.2277577    0.0542200     0.0078488    0.0142337     0.0069752    0.0135887     0.6270482   -0.7530662 
   0.550281250     0.2280232    0.0537276     0.0079425    0.0142032     0.0070238    0.0136387     0.6253729   -0.7553718 
   0.551812500     0.2283154    0.0532461     0.0079588    0.0142087     0.0071014    0.0136471     0.6224884   -0.7565971 
   0.553343750     0.2285376    0.0527710     0.0080212    0.0141650     0.0071236    0.0136705     0.6202983   -0.7581266 
   0.554875000     0.2289540    0.0517684     0.0080526    0.0141710     0.0071816    0.0136954     0.6184584   -0.7605591 
   0.556406250     0.2292451    0.0511119     0.0080926    0.0141369     0.0071980    0.0137039     0.6164072   -0.7620863 
   0.557937500     0.2294581    0.0504762     0.0081310    0.0141226     0.0072568    0.0137778     0.6146151   -0.7637264 
   0.559468750     0.2297146    0.0499800     0.0081581    0.0141132     0.0073091    0.0137974     0.6121306   -0.7648759 
   0.561000000     0.2298982    0.0493679     0.0081636    0.0140831     0.0073667    0.0138297     0.6097862   -0.7664129 
   0.562531250     0.2302521    0.0487885     0.0082115    0.0140847     0.0074150    0.0138253     0.6075786   -0.7678660 
   0.564062500     0.2304273    0.0482659     0.0082175    0.0141002     0.0074487    0.0138451     0.6053972   -0.7695244 
   0.565593750     0.2306264    0.0475438     0.0082185    0.0140751     0.0074617    0.0138457     0.6030233   -0.7716708 
   0.567125000     0.2309095    0.0468622     0.0081898    0.0140551     0.0075212    0.0138915     0.6009256   -0.7726949 
   0.568656250     0.2313904    0.0457074     0.0082739    0.0140952     0.0075973    0.0139229     0.5984481   -0.7745410 
   0.570187500     0.2316452    0.0449706     0.0082594    0.0141115     0.0076229    0.0139469     0.5964407   -0.7757887 
   0.571718750     0.2318860    0.0441602     0.0082287    0.0141143     0.0076540    0.0139760     0.5940272   -0.7775763 
   0.573250000     0.2321523    0.0434282     0.0082438    0.0141487     0.0077021    0.0139876     0.5920587   -0.7787719 
   0.574781250     0.2324413    0.0427488     0.0082297    0.0141761     0.0077260    0.0139743     0.5890064   -0.7801862 
   0.576312500     0.2326914    0.0420117     0.0082253    0.0142490     0.0077528    0.0140090     0.5862894   -0.7816559 
   0.577843750     0.2331981    0.0413422     0.0082143    0.0142318     0.0078135    0.0140267     0.5842807   -0.7835716 
   0.579375000     0.2334447    0.0406302     0.0081848    0.0142602     0.0078692    0.0140340     0.5819224   -0.7849413 
   0.580906250     0.2338933    0.0396361     0.0082236    0.0143571     0.0078890    0.0141102     0.5795466   -0.7864281 
   0.582437500     0.2344732    0.0386285     0.0082092    0.0144373     0.0079360    0.0141363     0.5772643   -0.7879593 
   0.583968750     0.2347683    0.0377211     0.0081914    0.0144547     0.0079170    0.0141508     0.5744019   -0.7891691 
   0.585500000     0.2351119    0.0369878     0.0082273    0.0145132     0.0079461    0.0141584     0.5722939   -0.7903348 
   0.587031250     0.2355473    0.0362367     0.0081941    0.0146062     0.0079763    0.0141711     0.5698655   -0.7922337 
   0.588562500     0.2359302    0.0356127     0.0082112    0.0146386     0.0080012    0.0142008     0.5671225   -0.7939021 
   0.590093750     0.2363141    0.0348641     0.0082393    0.0147361     0.0080736    0.0142484     0.5647703   -0.7954002 
   0.591625000     0.2367875    0.0338961     0.0082959    0.0148231     0.0081055    0.0143091     0.5623516   -0.7971324 
   0.593156250     0.2371710    0.0331286     0.0083058    0.0149117     0.0081158    0.0143294     0.5600781   -0.7984180 
   0.594687500     0.2378117    0.0323755     0.0083513    0.0150265     0.0081476    0.0144143     0.5572179   -0.7997918 
   0.596218750     0.2383474    0.0314786     0.0083941    0.0150988     0.0081868    0.0144317     0.5549517   -0.8016062 
   0.597750000     0.2388081    0.0306385     0.0084654    0.0151968     0.0082278    0.0144591     0.5522004   -0.8028641 
   0.599281250     0.2392176    0.0296310     0.0084638    0.0152647     0.0082345    0.0144628     0.5495901   -0.8044806 
   0.600812500     0.2397269    0.0289723     0.0086165    0.0153199     0.0083035    0.0145103     0.5472398   -0.8061752 
   0.602343750     0.2401740    0.0283548     0.0086988    0.0154301     0.0083485    0.0145694     0.5443357   -0.8078505 
   0.603875000     0.2408362    0.0276135     0.0087525    0.0155235     0.0083981    0.0146064     0.5422270   -0.8091097 
   0.605406250     0.2413936    0.0270109     0.0088494    0.0156085     0.0084322    0.0146607     0.5393549   -0.8111325 
   0.606937500     0.2417835    0.0261037     0.0089255    0.0156414     0.0084842    0.0147061     0.5366879   -0.8126509 
   0.608468750     0.2422237    0.0253976     0.0090508    0.0157162     0.0085499    0.0147342     0.5339811   -0.8143044 
   0.610000000     0.2426067    0.0246920     0.0091390    0.0157672     0.0085822    0.0147838     0.5312881   -0.8160551 
   0.611531250     0.2431339    0.0240738     0.0092735    0.0158327     0.0086201    0.0148162     0.5288806   -0.8175581 
   0.613062500     0.2436550    0.0233988     0.0094052    0.0158301     0.0086747    0.0148314     0.5261123   -0.8194864 
   0.614593750     0.2440107    0.0229070     0.0095086    0.0159048     0.0087303    0.0149246     0.5235940   -0.8204513 
   0.616125000     0.2444565    0.0224033     0.0096270    0.0159090     0.0087997    0.0149774     0.5209614   -0.8223016 
   0.617656250     0.2448210    0.0220113     0.0097638    0.0159103     0.0088695    0.0149754     0.5182906   -0.8239048 
   0.619187500     0.2452722    0.0215586     0.0098728    0.0159328     0.0089282    0.0150302     0.5153755   -0.8254642 
   0.620718750     0.2459155    0.0209561     0.0099503    0.0159347     0.0089923    0.0150600     0.5132139   -0.8272811 
   0.622250000     0.2463373    0.0205398     0.0100811    0.0159279     0.0090482    0.0150733     0.5106701   -0.8289539 
   0.623781250     0.2467756    0.0200210     0.0102097    0.0158842     0.0091301    0.0151199     0.5081112   -0.8307531 
   0.625312500     0.2471707    0.0195343     0.0102984    0.0158911     0.0092437    0.0151093     0.5055919   -0.8325775 
   0.626843750     0.2474340    0.0190415     0.0104015    0.0158421     0.0092750    0.0152007     0.5027887   -0.8337308 
   0.628375000     0.2477583    0.0184022     0.0105003    0.0157939     0.0093162    0.0152239     0.5001862   -0.8353235 
   0.629906250     0.2481749    0.0178937     0.0105437    0.0157608     0.0094110    0.0152102     0.4972719   -0.8367333 
   0.631437500     0.2483357    0.0174666     0.0106243    0.0157134     0.0094928    0.0152357     0.4945959   -0.8376207 
   0.632968750     0.2486494    0.0170471     0.0106928    0.0156842     0.0094891    0.0152390     0.4918967   -0.8395889 
   0.634500000     0.2488304    0.0166572     0.0107381    0.0156259     0.0096320    0.0152487     0.4894719   -0.8407483 
   0.636031250     0.2490384    0.0161564     0.0107874    0.0155924     0.0096883    0.0152675     0.4869398   -0.8425548 
   0.637562500     0.2490989    0.0155731     0.0108420    0.0155801     0.0097380    0.0153132     0.4846884   -0.8438995 
   0.639093750     0.2490923    0.0151136     0.0108868    0.0155025     0.0098007    0.0153263     0.4820199   -0.8449776 
   0.640625000     0.2491761    0.0145916     0.0108802    0.0154861     0.0098945    0.0153380     0.4796377   -0.8463064 
   0.642156250     0.2491531    0.0137276     0.0108780    0.0154723     0.0099388    0.0152883     0.4764493   -0.8475558 
   0.643687500     0.2490690    0.0133183     0.0109349    0.0154006     0.0099872    0.0153023     0.4742577   -0.8495649 
   0.645218750     0.2490710    0.0128932     0.0109392    0.0153913     0.0100969    0.0152946     0.4720330   -0.8508229 
   0.646750000     0.2489121    0.0125691     0.0109698    0.0153599     0.0101387    0.0152950     0.4696518   -0.8516423 
   0.648281250     0.2486542    0.0118552     0.0109328    0.0153313     0.0102052    0.0153552     0.4671007   -0.8530906 
   0.649812500     0.2484298    0.0112764     0.0109247    0.0153597     0.0102249    0.0153695     0.4649519   -0.8539331 
   0.651343750     0.2482350    0.0107059     0.0109367    0.0153082     0.0102517    0.0153540     0.4625706   -0.8554845 
   0.652875000     0.2479151    0.0101211     0.0108628    0.0153441     0.0103541    0.0153227     0.4597533   -0.8566067 
   0.654406250     0.2477268    0.0094631     0.0108573    0.0153689     0.0103645    0.0153497     0.4575094   -0.8578380 
   0.655937500     0.2477021    0.0087646     0.0108587    0.0153692     0.0104089    0.0153266     0.4549937   -0.8589460 
   0.657468750     0.2474751    0.0079884     0.0108269    0.0153769     0.0104753    0.0153268     0.4528686   -0.8600180 
   0.659000000     0.2472152    0.0073354     0.0107861    0.0154136     0.0105037    0.0153550     0.4501905   -0.8611825 
   0.660531250     0.2469745    0.0066152     0.0107476    0.0154621     0.0105150    0.0153652     0.4480754   -0.8623126 
   0.662062500     0.2471509    0.0059400     0.0107337    0.0155043     0.0105344    0.0153912     0.4453717   -0.8632047 
   0.663593750     0.2467496    0.0049972     0.0107304    0.0155815     0.0105625    0.0153749     0.4435593   -0.8643371 
   0.665125000     0.2464647    0.0039765     0.0107030    0.0156946     0.0105945    0.0153901     0.4404842   -0.8653259 
   0.666656250     0.2461836    0.0030624     0.0107186    0.0157457     0.0106518    0.0153949     0.4380309   -0.8662807 
   0.668187500     0.2459963    0.0021876     0.0107099    0.0158644     0.0106704    0.0154038     0.4354722   -0.8680049 
   0.669718750     0.2459050    0.0012261     0.0106840    0.0158977     0.0106488    0.0154480     0.4330518   -0.8687094 
   0.671250000     0.2458415    0.0000547     0.0107233    0.0160244     0.0107045    0.0155630     0.4308880   -0.8698359 
   0.672781250     0.2456430   -0.0008351     0.0107562    0.0161042     0.0107098    0.0155761     0.4281420   -0.8709466 
   0.674312500     0.2454942   -0.0017553     0.0107905    0.0162442     0.0107333    0.0156287     0.4257667   -0.8717473 
   0.675843750     0.2453568   -0.0027375     0.0108365    0.0163627     0.0107637    0.0156496     0.4235615   -0.8728452 
   0.677375000     0.2452970   -0.0038806     0.0109171    0.0164663     0.0107728    0.0156762     0.4207560   -0.8737665 
   0.678906250     0.2451556   -0.0049866     0.0109753    0.0166016     0.0108019    0.0157455     0.4183913   -0.8748346 
   0.680437500     0.2450852   -0.0059976     0.0110793    0.0167311     0.0108509    0.0157779     0.4155283   -0.8758948 
   0.681968750     0.2451855   -0.0073282     0.0111710    0.0168497     0.0109125    0.0158167     0.4139301   -0.8765945 
   0.683500000     0.2452381   -0.0084536     0.0112735    0.0169648     0.0109105    0.0158634     0.4111192   -0.8779774 
   0.685031250     0.2452227   -0.0094550     0.0114160    0.0170290     0.0109347    0.0158945     0.4089350   -0.8790405 
   0.686562500     0.2452794   -0.0105399     0.0115428    0.0171537     0.0109620    0.0159468     0.4059081   -0.8799354 
   0.688093750     0.2452838   -0.0115891     0.0116960    0.0172431     0.0110155    0.0160020     0.4036170   -0.8807509 
   0.689625000     0.2452713   -0.0129058     0.0118505    0.0173488     0.0110718    0.0160669     0.4011430   -0.8819959 
   0.691156250     0.2453137   -0.0140776     0.0120526    0.0174542     0.0111230    0.0160919     0.3983046   -0.8832389 
   0.692687500     0.2453997   -0.0151169     0.0122135    0.0175245     0.0111914    0.0161552     0.3958535   -0.8840979 
   0.694218750     0.2457328   -0.0163515     0.0123975    0.0175647     0.0112451    0.0162201     0.3935967   -0.8850564 
   0.695750000     0.2457901   -0.0175867     0.0125823    0.0176065     0.0113030    0.0162464     0.3912967   -0.8864475 
   0.697281250     0.2459531   -0.0186011     0.0127588    0.0176281     0.0113776    0.0162715     0.3886499   -0.8876664 
   0.698812500     0.2461309   -0.0195423     0.0129993    0.0176366     0.0114608    0.0163176     0.3861077   -0.8883449 
   0.700343750     0.2463525   -0.0205252     0.0131715    0.0176177     0.0115337    0.0163784     0.3833255   -0.8894866 
   0.701875000     0.2466958   -0.0215963     0.0133445    0.0175883     0.0116798    0.0164430     0.3808159   -0.8904090 
   0.703406250     0.2469216   -0.0226028     0.0135073    0.0175195     0.0117634    0.0164857     0.3782196   -0.8913864 
   0.704937500     0.2469950   -0.0237520     0.0136758    0.0175111     0.0118550    0.0165052     0.3755345   -0.8916644 
   0.706468750     0.2472826   -0.0245978     0.0138373    0.0173946     0.0119099    0.0165157     0.3731585   -0.8927299 
   0.708000000     0.2475544   -0.0255372     0.0140094    0.0172944     0.0120292    0.0165163     0.3699762   -0.8940073 
   0.709531250     0.2479183   -0.0262871     0.0141686    0.0171968     0.0120675    0.0165247     0.3675101   -0.8951231 
   0.711062500     0.2482620   -0.0268756     0.0142712    0.0171212     0.0121798    0.0164927     0.3649433   -0.8956493 
   0.712593750     0.2485939   -0.0274315     0.0143523    0.0169978     0.0122874    0.0165180     0.3623616   -0.8966796 
   0.714125000     0.2488007   -0.0282195     0.0144545    0.0168400     0.0123688    0.0165478     0.3602423   -0.8977620 
   0.715656250     0.2491098   -0.0287813     0.0145236    0.0167401     0.0124310    0.0165511     0.3572485   -0.8985590 
   0.717187500     0.2495090   -0.0295955     0.0145680    0.0166480     0.0125150    0.0165486     0.3546385   -0.8993524 
   0.718718750     0.2498952   -0.0302907     0.0145985    0.0164806     0.0126163    0.0165163     0.3517125   -0.9005741 
   0.720250000     0.2501940   -0.0306503     0.0146465    0.0163463     0.0126857    0.0164825     0.3491137   -0.9010832 
   0.721781250     0.2503792   -0.0312067     0.0146742    0.0162320     0.0127616    0.0164797     0.3462120   -0.9018916 
   0.723312500     0.2506442   -0.0314972     0.0146583    0.0161530     0.0128509    0.0164564     0.3435931   -0.9028625 
   0.724843750     0.2509861   -0.0318914     0.0146592    0.0160606     0.0129772    0.0164685     0.3408371   -0.9042522 
   0.726375000     0.2511435   -0.0321308     0.0146219    0.0159356     0.0130134    0.0164379     0.3383709   -0.9046748 
   0.727906250     0.2513985   -0.0325161     0.0145837    0.0158250     0.0130653    0.0164308     0.3355803   -0.9053363 
   0.729437500     0.2515674   -0.0332557     0.0145478    0.0157526     0.0131437    0.0163798     0.3328176   -0.9062248 
   0.730968750     0.2517140   -0.0335205     0.0144892    0.0156839     0.0131345    0.0163556     0.3301719   -0.9062364 
   0.732500000     0.2518171   -0.0339130     0.0143855    0.0156365     0.0132050    0.0163329     0.3270742   -0.9077042 
   0.734031250     0.2520309   -0.0343675     0.0143207    0.0155804     0.0132634    0.0162783     0.3241340   -0.9083678 
   0.735562500     0.2522627   -0.0346689     0.0142316    0.0155386     0.0133556    0.0162805     0.3216211   -0.9090691 
   0.737093750     0.2522613   -0.0347816     0.0141466    0.0154828     0.0133709    0.0162624     0.3184974   -0.9101235 
   0.738625000     0.2521534   -0.0350460     0.0140820    0.0155109     0.0133802    0.0162495     0.3160483   -0.9109151 
   0.740156250     0.2521136   -0.0353280     0.0140041    0.0155169     0.0134128    0.0162538     0.3130883   -0.9110830 
   0.741687500     0.2520440   -0.0357496     0.0139167    0.0155400     0.0134621    0.0162491     0.3104698   -0.9117298 
   0.743218750     0.2519370   -0.0360538     0.0138792    0.0155819     0.0134766    0.0162090     0.3073230   -0.9128301 
   0.744750000     0.2518701   -0.0366064     0.0137780    0.0156361     0.0135327    0.0162041     0.3045681   -0.9134929 
   0.746281250     0.2516491   -0.0370437     0.0136804    0.0156996     0.0135568    0.0161815     0.3016297   -0.9141998 
   0.747812500     0.2514401   -0.0374498     0.0136175    0.0157615     0.0135631    0.0161506     0.2985461   -0.9151843 
   0.749343750     0.2511894   -0.0378549     0.0135435    0.0158329     0.0135740    0.0162060     0.2963615   -0.9158550 
   0.750875000     0.2505654   -0.0382096     0.0134780    0.0159740     0.0135957    0.0162171     0.2936912   -0.9162973 
   0.752406250     0.2502478   -0.0385787     0.0134374    0.0160709     0.0136085    0.0162610     0.2907831   -0.9171889 
   0.753937500     0.2499146   -0.0389030     0.0134480    0.0161984     0.0136229    0.0162306     0.2879352   -0.9176075 
   0.755468750     0.2495300   -0.0394144     0.0134275    0.0163376     0.0136103    0.0162709     0.2851218   -0.9181300 
   0.757000000     0.2492873   -0.0401436     0.0133568    0.0165356     0.0136483    0.0162717     0.2822420   -0.9189960 
   0.758531250     0.2487503   -0.0408997     0.0134033    0.0166661     0.0136369    0.0162987     0.2795950   -0.9196301 
   0.760062500     0.2482736   -0.0415346     0.0134254    0.0168451     0.0136644    0.0163289     0.2769588   -0.9205696 
   0.761593750     0.2477630   -0.0420830     0.0134290    0.0169844     0.0136744    0.0164020     0.2745734   -0.9209895 
   0.763125000     0.2472499   -0.0427706     0.0135297    0.0171436     0.0136668    0.0164681     0.2715763   -0.9216145 
   0.764656250     0.2468095   -0.0434163     0.0135807    0.0172792     0.0136939    0.0165366     0.2692538   -0.9223065 
   0.766187500     0.2464405   -0.0440713     0.0137119    0.0174963     0.0137267    0.0165650     0.2660327   -0.9228473 
   0.767718750     0.2459373   -0.0447851     0.0138157    0.0176557     0.0137229    0.0166111     0.2634543   -0.9235835 
   0.769250000     0.2453400   -0.0457556     0.0139876    0.0178221     0.0137633    0.0166053     0.2608694   -0.9242159 
   0.770781250     0.2448890   -0.0466436     0.0140846    0.0179873     0.0137874    0.0166851     0.2579578   -0.9248567 
   0.772312500     0.2444894   -0.0478249     0.0142685    0.0181102     0.0138177    0.0167643     0.2553327   -0.9257135 
   0.773843750     0.2440298   -0.0487787     0.0144124    0.0182516     0.0138792    0.0168848     0.2526737   -0.9264425 
   0.775375000     0.2434693   -0.0497322     0.0146505    0.0183582     0.0138907    0.0169653     0.2500436   -0.9269849 
   0.776906250     0.2429910   -0.0507808     0.0148865    0.0185067     0.0139586    0.0169880     0.2472120   -0.9276549 
   0.778437500     0.2424978   -0.0517172     0.0150969    0.0185866     0.0140236    0.0170568     0.2444029   -0.9288110 
   0.779968750     0.2420873   -0.0530140     0.0153432    0.0186250     0.0140885    0.0170819     0.2416553   -0.9295210 
   0.781500000     0.2416817   -0.0539831     0.0155922    0.0186887     0.0141823    0.0171075     0.2387024   -0.9303694 
   0.783031250     0.2412735   -0.0550735     0.0158490    0.0186972     0.0142420    0.0171985     0.2361180   -0.9310743 
   0.784562500     0.2411074   -0.0563297     0.0160889    0.0186878     0.0143602    0.0172684     0.2333189   -0.9318025 
   0.786093750     0.2407267   -0.0576569     0.0163597    0.0186733     0.0143939    0.0173336     0.2305815   -0.9323819 
   0.787625000     0.2402792   -0.0589780     0.0166293    0.0185921     0.0144925    0.0173481     0.2278086   -0.9329315 
   0.789156250     0.2400105   -0.0601024     0.0168231    0.0185678     0.0146206    0.0173700     0.2247421   -0.9335602 
   0.790687500     0.2397272   -0.0611511     0.0170172    0.0184762     0.0146961    0.0173903     0.2219062   -0.9344614 
   0.792218750     0.2396394   -0.0622648     0.0172377    0.0183391     0.0148118    0.0174027     0.2189490   -0.9352118 
   0.793750000     0.2393538   -0.0637079     0.0173978    0.0182380     0.0148778    0.0174378     0.2165786   -0.9357854 
   0.795281250     0.2392370   -0.0647525     0.0176224    0.0180946     0.0149552    0.0174600     0.2138437   -0.9365833 
   0.796812500     0.2391268   -0.0659393     0.0177743    0.0179230     0.0150630    0.0175098     0.2106899   -0.9372938 
   0.798343750     0.2389900   -0.0670815     0.0179442    0.0178177     0.0151591    0.0175139     0.2079441   -0.9374683 
   0.799875000     0.2389755   -0.0684964     0.0180359    0.0176506     0.0152797    0.0175003     0.2050042   -0.9386420 
   0.801406250     0.2387301   -0.0696747     0.0181373    0.0175002     0.0154131    0.0175188     0.2020582   -0.9390826 
   0.802937500     0.2385704   -0.0708184     0.0182135    0.0173124     0.0155332    0.0174978     0.1993123   -0.9400244 
   0.804468750     0.2385099   -0.0717861     0.0182735    0.0171176     0.0156339    0.0174827     0.1963402   -0.9402803 
   0.806000000     0.2386013   -0.0726967     0.0183370    0.0169190     0.0157445    0.0174724     0.1938869   -0.9412103 
