! 10/3/2022 2:34:30 PM
! D:\USERS\JULIAN\DESKTOP\MATRIZ DE DISPERSION\ON\S32.S2P
! CHANNEL.1
! TR.MEASUREMENT
! CORRECTED.DATA
# GHZ S RI R 50.0
! FREQ.GHZ         S11RE         S11IM         S21RE         S21IM         S12RE         S12IM         S22RE         S22IM         
!; PortSelection: Port_12
   0.512000000     0.7178930   -0.6634005     0.0000885    0.0066949     0.0001090    0.0066229     0.6702372   -0.7122654 
   0.513531250     0.7167583   -0.6650773     0.0000696    0.0067295     0.0000907    0.0066588     0.6687446   -0.7137718 
   0.515062500     0.7154641   -0.6665120     0.0000739    0.0067547     0.0000272    0.0066823     0.6671733   -0.7152423 
   0.516593750     0.7141039   -0.6682374     0.0000506    0.0068312     0.0000193    0.0067301     0.6652456   -0.7165649 
   0.518125000     0.7127472   -0.6699579     0.0000502    0.0068824     0.0000281    0.0067431     0.6634384   -0.7183607 
   0.519656250     0.7108690   -0.6715208     0.0000136    0.0068740     0.0000427    0.0067674     0.6620249   -0.7202393 
   0.521187500     0.7095923   -0.6726959     0.0000214    0.0069469     0.0000838    0.0067920     0.6603099   -0.7221574 
   0.522718750     0.7080124   -0.6742606     0.0000563    0.0069579     0.0000833    0.0068563     0.6587546   -0.7233402 
   0.524250000     0.7063054   -0.6755956     0.0000890    0.0070128     0.0000769    0.0068942     0.6569680   -0.7251341 
   0.525781250     0.7048270   -0.6774152     0.0000830    0.0070478     0.0000672    0.0069307     0.6550578   -0.7263144 
   0.527312500     0.7030293   -0.6790972     0.0001072    0.0071092     0.0000955    0.0069571     0.6534066   -0.7284070 
   0.528843750     0.7011484   -0.6809493     0.0001022    0.0071345     0.0000946    0.0069823     0.6517339   -0.7298670 
   0.530375000     0.6993928   -0.6822336     0.0001292    0.0071756     0.0001125    0.0069807     0.6495624   -0.7317084 
   0.531906250     0.6978936   -0.6840206     0.0001810    0.0072426     0.0001548    0.0070184     0.6481740   -0.7338312 
   0.533437500     0.6959319   -0.6859126     0.0001765    0.0072480     0.0001851    0.0070397     0.6460796   -0.7356445 
   0.534968750     0.6943525   -0.6869025     0.0002285    0.0072704     0.0001869    0.0070785     0.6443979   -0.7370817 
   0.536500000     0.6927280   -0.6891716     0.0002387    0.0073118     0.0002144    0.0071120     0.6426208   -0.7387948 
   0.538031250     0.6913685   -0.6909326     0.0002190    0.0073492     0.0002022    0.0071134     0.6410480   -0.7404902 
   0.539562500     0.6891115   -0.6926457     0.0002968    0.0073481     0.0002155    0.0071366     0.6386105   -0.7425154 
   0.541093750     0.6874664   -0.6942322     0.0002999    0.0073604     0.0002436    0.0071250     0.6367661   -0.7440758 
   0.542625000     0.6858633   -0.6961928     0.0003364    0.0074016     0.0002821    0.0071389     0.6346688   -0.7461730 
   0.544156250     0.6837316   -0.6977805     0.0004085    0.0073872     0.0002979    0.0071649     0.6327117   -0.7479482 
   0.545687500     0.6815071   -0.6993819     0.0003778    0.0074047     0.0003299    0.0071908     0.6306649   -0.7494956 
   0.547218750     0.6793103   -0.7010635     0.0004208    0.0074138     0.0003415    0.0071973     0.6291782   -0.7515100 
   0.548750000     0.6774987   -0.7031390     0.0004663    0.0074179     0.0003355    0.0072049     0.6270059   -0.7521529 
   0.550281250     0.6757593   -0.7048961     0.0004816    0.0074539     0.0003253    0.0072435     0.6253319   -0.7545403 
   0.551812500     0.6732314   -0.7067982     0.0005093    0.0074604     0.0003436    0.0071882     0.6224905   -0.7558658 
   0.553343750     0.6707925   -0.7084112     0.0005298    0.0074220     0.0003465    0.0071891     0.6204390   -0.7574396 
   0.554875000     0.6689088   -0.7100640     0.0004951    0.0074216     0.0003397    0.0071806     0.6183407   -0.7597606 
   0.556406250     0.6670194   -0.7117795     0.0005250    0.0074180     0.0003824    0.0072003     0.6163686   -0.7612258 
   0.557937500     0.6649609   -0.7131379     0.0005467    0.0074097     0.0003685    0.0072482     0.6146081   -0.7628701 
   0.559468750     0.6627781   -0.7150558     0.0005731    0.0074185     0.0003564    0.0072358     0.6121783   -0.7639903 
   0.561000000     0.6604085   -0.7168703     0.0005835    0.0074168     0.0003434    0.0072373     0.6098275   -0.7655620 
   0.562531250     0.6585202   -0.7189165     0.0005731    0.0074335     0.0003344    0.0072436     0.6075865   -0.7670097 
   0.564062500     0.6564427   -0.7201690     0.0005178    0.0074003     0.0003515    0.0072111     0.6054805   -0.7686321 
   0.565593750     0.6542831   -0.7221257     0.0005572    0.0073915     0.0003286    0.0072288     0.6030778   -0.7706948 
   0.567125000     0.6521962   -0.7237674     0.0005557    0.0073896     0.0003378    0.0072412     0.6010976   -0.7717604 
   0.568656250     0.6498678   -0.7252544     0.0005679    0.0073979     0.0003371    0.0072456     0.5986206   -0.7734774 
   0.570187500     0.6478270   -0.7271245     0.0005585    0.0074134     0.0003063    0.0072649     0.5966902   -0.7748426 
   0.571718750     0.6458007   -0.7289653     0.0005392    0.0074338     0.0002824    0.0072805     0.5943438   -0.7764850 
   0.573250000     0.6435481   -0.7305354     0.0004980    0.0074233     0.0002726    0.0072982     0.5923241   -0.7777342 
   0.574781250     0.6414194   -0.7323750     0.0004656    0.0074224     0.0002737    0.0073339     0.5892992   -0.7791106 
   0.576312500     0.6392950   -0.7339814     0.0004656    0.0074434     0.0002724    0.0073189     0.5866639   -0.7805162 
   0.577843750     0.6372639   -0.7354344     0.0004947    0.0074357     0.0002662    0.0073459     0.5847055   -0.7823699 
   0.579375000     0.6352069   -0.7368936     0.0004628    0.0074376     0.0002841    0.0073774     0.5822250   -0.7837880 
   0.580906250     0.6335406   -0.7386162     0.0004200    0.0074830     0.0002425    0.0074118     0.5801430   -0.7852783 
   0.582437500     0.6314320   -0.7402565     0.0003845    0.0074877     0.0002081    0.0074218     0.5777344   -0.7866859 
   0.583968750     0.6297584   -0.7419757     0.0003642    0.0075415     0.0001918    0.0074734     0.5749465   -0.7878783 
   0.585500000     0.6277788   -0.7434588     0.0003170    0.0075732     0.0001891    0.0075061     0.5728986   -0.7891457 
   0.587031250     0.6259418   -0.7449474     0.0003269    0.0075792     0.0001797    0.0075312     0.5705022   -0.7910162 
   0.588562500     0.6242445   -0.7459674     0.0003250    0.0075785     0.0001931    0.0075611     0.5678848   -0.7922981 
   0.590093750     0.6222794   -0.7473955     0.0003187    0.0076272     0.0001868    0.0076132     0.5655639   -0.7940365 
   0.591625000     0.6204625   -0.7490978     0.0003060    0.0076784     0.0001955    0.0076447     0.5632251   -0.7956739 
   0.593156250     0.6187966   -0.7507941     0.0002797    0.0076918     0.0002042    0.0076962     0.5610145   -0.7969452 
   0.594687500     0.6170990   -0.7522667     0.0002749    0.0077641     0.0001753    0.0077267     0.5582405   -0.7982931 
   0.596218750     0.6153602   -0.7539757     0.0002301    0.0078078     0.0001935    0.0077819     0.5560094   -0.8000274 
   0.597750000     0.6136768   -0.7553398     0.0002361    0.0078381     0.0001887    0.0078260     0.5532948   -0.8013158 
   0.599281250     0.6122016   -0.7562975     0.0002515    0.0078682     0.0002327    0.0078391     0.5507882   -0.8028953 
   0.600812500     0.6102817   -0.7574936     0.0002895    0.0078686     0.0002747    0.0078810     0.5485270   -0.8045436 
   0.602343750     0.6089211   -0.7594209     0.0002860    0.0079441     0.0002856    0.0079262     0.5456485   -0.8060904 
   0.603875000     0.6070454   -0.7607564     0.0002955    0.0080155     0.0002984    0.0080082     0.5436627   -0.8073118 
   0.605406250     0.6056536   -0.7620792     0.0002921    0.0080564     0.0003134    0.0080464     0.5408487   -0.8093743 
   0.606937500     0.6037577   -0.7635613     0.0003004    0.0080990     0.0003440    0.0080464     0.5382929   -0.8107639 
   0.608468750     0.6022226   -0.7645709     0.0003352    0.0080996     0.0003710    0.0080863     0.5356471   -0.8124322 
   0.610000000     0.6006419   -0.7656857     0.0003562    0.0081359     0.0004156    0.0080982     0.5327349   -0.8142763 
   0.611531250     0.5996360   -0.7667277     0.0003714    0.0081831     0.0004608    0.0081155     0.5305908   -0.8156577 
   0.613062500     0.5980991   -0.7679816     0.0004472    0.0081926     0.0004893    0.0081262     0.5277492   -0.8175653 
   0.614593750     0.5965808   -0.7692462     0.0004678    0.0082722     0.0005309    0.0081847     0.5254170   -0.8184577 
   0.616125000     0.5954545   -0.7704466     0.0004953    0.0082819     0.0005564    0.0081977     0.5229204   -0.8202838 
   0.617656250     0.5934848   -0.7717735     0.0004718    0.0082846     0.0005577    0.0082072     0.5202075   -0.8218706 
   0.619187500     0.5921111   -0.7728677     0.0005645    0.0083218     0.0005841    0.0082115     0.5173373   -0.8233833 
   0.620718750     0.5907746   -0.7743251     0.0005816    0.0083357     0.0006163    0.0082005     0.5152401   -0.8251635 
   0.622250000     0.5895898   -0.7755033     0.0006095    0.0083402     0.0006722    0.0082107     0.5127980   -0.8268255 
   0.623781250     0.5885221   -0.7765475     0.0006615    0.0083438     0.0007323    0.0082048     0.5103055   -0.8283828 
   0.625312500     0.5863553   -0.7779614     0.0007068    0.0083561     0.0007435    0.0082016     0.5076627   -0.8301697 
   0.626843750     0.5853124   -0.7793506     0.0007097    0.0083700     0.0007238    0.0081988     0.5048693   -0.8316567 
   0.628375000     0.5827426   -0.7807481     0.0007408    0.0083384     0.0007648    0.0082059     0.5023391   -0.8332705 
   0.629906250     0.5815573   -0.7817452     0.0007473    0.0083302     0.0007427    0.0081977     0.4994295   -0.8347117 
   0.631437500     0.5792774   -0.7828121     0.0007745    0.0083528     0.0007714    0.0081699     0.4968418   -0.8354713 
   0.632968750     0.5771822   -0.7843658     0.0008216    0.0083116     0.0007857    0.0081494     0.4941517   -0.8373331 
   0.634500000     0.5760356   -0.7851839     0.0008181    0.0083235     0.0008367    0.0081310     0.4917515   -0.8385888 
   0.636031250     0.5740409   -0.7865281     0.0008672    0.0082923     0.0008378    0.0081099     0.4892080   -0.8403740 
   0.637562500     0.5716945   -0.7877185     0.0008486    0.0083124     0.0008468    0.0081396     0.4869223   -0.8417287 
   0.639093750     0.5698952   -0.7891784     0.0008663    0.0082667     0.0008047    0.0081146     0.4843217   -0.8427868 
   0.640625000     0.5680124   -0.7905348     0.0008831    0.0082439     0.0007922    0.0081020     0.4818968   -0.8442501 
   0.642156250     0.5656715   -0.7913755     0.0009081    0.0082273     0.0008102    0.0080708     0.4786761   -0.8454471 
   0.643687500     0.5638357   -0.7926888     0.0008920    0.0082344     0.0008003    0.0080410     0.4765584   -0.8474247 
   0.645218750     0.5615200   -0.7940393     0.0008911    0.0081858     0.0007639    0.0080127     0.4741866   -0.8487322 
   0.646750000     0.5596032   -0.7948552     0.0008486    0.0082039     0.0007789    0.0080320     0.4718021   -0.8495476 
   0.648281250     0.5572757   -0.7963542     0.0008442    0.0081655     0.0007729    0.0080680     0.4693252   -0.8510444 
   0.649812500     0.5547261   -0.7976574     0.0008373    0.0081854     0.0007204    0.0080501     0.4669765   -0.8518459 
   0.651343750     0.5526118   -0.7991194     0.0007916    0.0081577     0.0006910    0.0080260     0.4645695   -0.8533767 
   0.652875000     0.5498965   -0.8006376     0.0007699    0.0081805     0.0006298    0.0080464     0.4617069   -0.8546202 
   0.654406250     0.5476805   -0.8018650     0.0007586    0.0081289     0.0006141    0.0080376     0.4594197   -0.8556338 
   0.655937500     0.5452809   -0.8033674     0.0007494    0.0081554     0.0005795    0.0080247     0.4570906   -0.8569703 
   0.657468750     0.5423374   -0.8041899     0.0006999    0.0081404     0.0006029    0.0080303     0.4547873   -0.8580497 
   0.659000000     0.5396224   -0.8054516     0.0006597    0.0081489     0.0005486    0.0080624     0.4521819   -0.8591774 
   0.660531250     0.5369990   -0.8073591     0.0006384    0.0081787     0.0005335    0.0080592     0.4499032   -0.8604221 
   0.662062500     0.5346879   -0.8092626     0.0005761    0.0081874     0.0004682    0.0080787     0.4471339   -0.8613572 
   0.663593750     0.5319124   -0.8105013     0.0005824    0.0082073     0.0004221    0.0081388     0.4452828   -0.8623851 
   0.665125000     0.5292386   -0.8119789     0.0005366    0.0082305     0.0003856    0.0081469     0.4420936   -0.8634202 
   0.666656250     0.5265850   -0.8132885     0.0005323    0.0082724     0.0003616    0.0082034     0.4395968   -0.8643791 
   0.668187500     0.5238147   -0.8148426     0.0005217    0.0082794     0.0003482    0.0082352     0.4371117   -0.8661838 
   0.669718750     0.5213364   -0.8159769     0.0004424    0.0083040     0.0003309    0.0082427     0.4345306   -0.8669450 
   0.671250000     0.5185717   -0.8177561     0.0004396    0.0083528     0.0002895    0.0083273     0.4322923   -0.8679571 
   0.672781250     0.5161528   -0.8191044     0.0004220    0.0083938     0.0002776    0.0083807     0.4294835   -0.8692235 
   0.674312500     0.5136056   -0.8203503     0.0003775    0.0084592     0.0002308    0.0084636     0.4271700   -0.8699589 
   0.675843750     0.5108677   -0.8219104     0.0003841    0.0084963     0.0001930    0.0084947     0.4248922   -0.8712069 
   0.677375000     0.5086302   -0.8232977     0.0003649    0.0085589     0.0001930    0.0085582     0.4220389   -0.8720918 
   0.678906250     0.5059476   -0.8246874     0.0003526    0.0086339     0.0002139    0.0086260     0.4195458   -0.8732373 
   0.680437500     0.5034918   -0.8260117     0.0003766    0.0086842     0.0001879    0.0086760     0.4167600   -0.8742956 
   0.681968750     0.5009329   -0.8272040     0.0003509    0.0087460     0.0002339    0.0087392     0.4151850   -0.8749233 
   0.683500000     0.4984946   -0.8289732     0.0003681    0.0088081     0.0002352    0.0087902     0.4120741   -0.8763664 
   0.685031250     0.4960017   -0.8302372     0.0003469    0.0088909     0.0002448    0.0088391     0.4098789   -0.8773085 
   0.686562500     0.4940201   -0.8318139     0.0003920    0.0089576     0.0002413    0.0089251     0.4069484   -0.8784422 
   0.688093750     0.4915349   -0.8328403     0.0004419    0.0090297     0.0002588    0.0089572     0.4046583   -0.8792619 
   0.689625000     0.4892595   -0.8343388     0.0004659    0.0090534     0.0002977    0.0090259     0.4022194   -0.8804205 
   0.691156250     0.4866557   -0.8358542     0.0005091    0.0091530     0.0003819    0.0090852     0.3991473   -0.8817837 
   0.692687500     0.4846916   -0.8370836     0.0004965    0.0092133     0.0004339    0.0091273     0.3968457   -0.8825458 
   0.694218750     0.4823142   -0.8383174     0.0005226    0.0092655     0.0004701    0.0091504     0.3945335   -0.8834265 
   0.695750000     0.4800640   -0.8397834     0.0006062    0.0093216     0.0005214    0.0091994     0.3923270   -0.8849553 
   0.697281250     0.4779693   -0.8410770     0.0006552    0.0093635     0.0005634    0.0092495     0.3895710   -0.8861682 
   0.698812500     0.4754070   -0.8423221     0.0007210    0.0093967     0.0006146    0.0092354     0.3870322   -0.8868290 
   0.700343750     0.4734197   -0.8434597     0.0007821    0.0094368     0.0006775    0.0092575     0.3842682   -0.8880014 
   0.701875000     0.4715466   -0.8448722     0.0008520    0.0094601     0.0007835    0.0092513     0.3817564   -0.8888898 
   0.703406250     0.4693256   -0.8458785     0.0008955    0.0094678     0.0008773    0.0092866     0.3791846   -0.8898847 
   0.704937500     0.4673310   -0.8470542     0.0009680    0.0094552     0.0009110    0.0092957     0.3765592   -0.8901706 
   0.706468750     0.4655821   -0.8483024     0.0010352    0.0095029     0.0009649    0.0092679     0.3741622   -0.8912930 
   0.708000000     0.4637567   -0.8491533     0.0011143    0.0094769     0.0009716    0.0092951     0.3709280   -0.8925020 
   0.709531250     0.4616895   -0.8503274     0.0012115    0.0094584     0.0010252    0.0092897     0.3684263   -0.8936989 
   0.711062500     0.4602646   -0.8513119     0.0012851    0.0094665     0.0010829    0.0092214     0.3660427   -0.8941231 
   0.712593750     0.4587561   -0.8526224     0.0012848    0.0094380     0.0011953    0.0092178     0.3633198   -0.8952300 
   0.714125000     0.4567063   -0.8536630     0.0013114    0.0094242     0.0012190    0.0091793     0.3612440   -0.8962876 
   0.715656250     0.4551962   -0.8543168     0.0013811    0.0094212     0.0012531    0.0091652     0.3582123   -0.8971363 
   0.717187500     0.4535655   -0.8552288     0.0014097    0.0093421     0.0012660    0.0091192     0.3556207   -0.8979297 
   0.718718750     0.4518835   -0.8563693     0.0014697    0.0092879     0.0013016    0.0090661     0.3526178   -0.8990353 
   0.720250000     0.4502607   -0.8572417     0.0014947    0.0092363     0.0012646    0.0090201     0.3501256   -0.8996562 
   0.721781250     0.4481806   -0.8581467     0.0015185    0.0092099     0.0012942    0.0089989     0.3472052   -0.9004592 
   0.723312500     0.4468567   -0.8585197     0.0015320    0.0091268     0.0013508    0.0089417     0.3446334   -0.9014239 
   0.724843750     0.4449782   -0.8598738     0.0014963    0.0091306     0.0013850    0.0088993     0.3419130   -0.9029417 
   0.726375000     0.4430481   -0.8604267     0.0015151    0.0090551     0.0013678    0.0088540     0.3394397   -0.9031852 
   0.727906250     0.4413553   -0.8611977     0.0014833    0.0090129     0.0013511    0.0088223     0.3366309   -0.9039130 
   0.729437500     0.4394447   -0.8623222     0.0014998    0.0089274     0.0013012    0.0087760     0.3339050   -0.9047755 
   0.730968750     0.4378777   -0.8631083     0.0015004    0.0089020     0.0012758    0.0087294     0.3312398   -0.9047693 
   0.732500000     0.4359713   -0.8637636     0.0015075    0.0088886     0.0012800    0.0086878     0.3281334   -0.9063275 
   0.734031250     0.4341314   -0.8643523     0.0014874    0.0088384     0.0012588    0.0086795     0.3250908   -0.9070289 
   0.735562500     0.4321313   -0.8649879     0.0014411    0.0088013     0.0012454    0.0086190     0.3226409   -0.9076211 
   0.737093750     0.4305155   -0.8658541     0.0013600    0.0087496     0.0012185    0.0086088     0.3194138   -0.9086605 
   0.738625000     0.4282656   -0.8666573     0.0013155    0.0087578     0.0011445    0.0085783     0.3171756   -0.9095052 
   0.740156250     0.4266249   -0.8675004     0.0012793    0.0087396     0.0011150    0.0085626     0.3140789   -0.9097368 
   0.741687500     0.4242718   -0.8680462     0.0012531    0.0086975     0.0010297    0.0085695     0.3114232   -0.9103800 
   0.743218750     0.4223945   -0.8685787     0.0012361    0.0087036     0.0009626    0.0085654     0.3082413   -0.9114924 
   0.744750000     0.4203877   -0.8692551     0.0011850    0.0087094     0.0009460    0.0085702     0.3054025   -0.9121421 
   0.746281250     0.4181514   -0.8700510     0.0011190    0.0087094     0.0009038    0.0085493     0.3024056   -0.9128003 
   0.747812500     0.4162083   -0.8704966     0.0010608    0.0087401     0.0008568    0.0085587     0.2990749   -0.9140477 
   0.749343750     0.4139527   -0.8714835     0.0009816    0.0087307     0.0007922    0.0085793     0.2970460   -0.9145733 
   0.750875000     0.4117744   -0.8717166     0.0009277    0.0087452     0.0007374    0.0086170     0.2942926   -0.9150680 
   0.752406250     0.4094358   -0.8727903     0.0009026    0.0087468     0.0006887    0.0086636     0.2913927   -0.9159451 
   0.753937500     0.4070467   -0.8737956     0.0008611    0.0087824     0.0006300    0.0086982     0.2884822   -0.9163248 
   0.755468750     0.4046755   -0.8745447     0.0008359    0.0088400     0.0005601    0.0087203     0.2855793   -0.9168999 
   0.757000000     0.4023025   -0.8753834     0.0007490    0.0088738     0.0005344    0.0087429     0.2826442   -0.9177476 
   0.758531250     0.4002200   -0.8757066     0.0006918    0.0089193     0.0004862    0.0088319     0.2799620   -0.9185576 
   0.760062500     0.3975589   -0.8766511     0.0006354    0.0090240     0.0004492    0.0088768     0.2771320   -0.9194008 
   0.761593750     0.3954412   -0.8775485     0.0005831    0.0090345     0.0004232    0.0089586     0.2747400   -0.9198030 
   0.763125000     0.3926828   -0.8783087     0.0006044    0.0091347     0.0003897    0.0090278     0.2717141   -0.9204378 
   0.764656250     0.3903880   -0.8791941     0.0005739    0.0091897     0.0003624    0.0091015     0.2693562   -0.9211166 
   0.766187500     0.3877714   -0.8798715     0.0005765    0.0092577     0.0003392    0.0091559     0.2660125   -0.9217392 
   0.767718750     0.3853636   -0.8807412     0.0005887    0.0093582     0.0003427    0.0092387     0.2633812   -0.9225454 
   0.769250000     0.3824340   -0.8812325     0.0005330    0.0094001     0.0003351    0.0093240     0.2608001   -0.9230725 
   0.770781250     0.3800306   -0.8824481     0.0005219    0.0095041     0.0002934    0.0094075     0.2577554   -0.9237931 
   0.772312500     0.3774241   -0.8839167     0.0005080    0.0095736     0.0003388    0.0094785     0.2550611   -0.9246722 
   0.773843750     0.3747270   -0.8846694     0.0005622    0.0096543     0.0003674    0.0095351     0.2523585   -0.9253796 
   0.775375000     0.3716244   -0.8857859     0.0005992    0.0097793     0.0003879    0.0096264     0.2497089   -0.9259399 
   0.776906250     0.3686434   -0.8867810     0.0006547    0.0098307     0.0004290    0.0097103     0.2467908   -0.9266472 
   0.778437500     0.3659880   -0.8877622     0.0007212    0.0099233     0.0004733    0.0097774     0.2439508   -0.9279726 
   0.779968750     0.3635639   -0.8886789     0.0007695    0.0099991     0.0004855    0.0098258     0.2410999   -0.9284477 
   0.781500000     0.3606692   -0.8895818     0.0007820    0.0100563     0.0005841    0.0099073     0.2382110   -0.9293916 
   0.783031250     0.3578903   -0.8906600     0.0008392    0.0100922     0.0006771    0.0099776     0.2355317   -0.9300871 
   0.784562500     0.3552594   -0.8919326     0.0009261    0.0101808     0.0007347    0.0099998     0.2328122   -0.9307426 
   0.786093750     0.3522286   -0.8930239     0.0010686    0.0101952     0.0008090    0.0100576     0.2299465   -0.9313389 
   0.787625000     0.3496905   -0.8940895     0.0011310    0.0102633     0.0008972    0.0101023     0.2272169   -0.9319836 
   0.789156250     0.3470690   -0.8952179     0.0012629    0.0103020     0.0009618    0.0101206     0.2239984   -0.9325434 
   0.790687500     0.3445793   -0.8960868     0.0012906    0.0103233     0.0010902    0.0101304     0.2212511   -0.9335762 
   0.792218750     0.3418603   -0.8972276     0.0013913    0.0103133     0.0012020    0.0100956     0.2183246   -0.9343207 
   0.793750000     0.3394831   -0.8981004     0.0014557    0.0103005     0.0012736    0.0100874     0.2158571   -0.9347246 
   0.795281250     0.3369812   -0.8994687     0.0015811    0.0102768     0.0013582    0.0101235     0.2131854   -0.9356320 
   0.796812500     0.3345593   -0.9005966     0.0016803    0.0102847     0.0014706    0.0100893     0.2100933   -0.9363455 
   0.798343750     0.3318596   -0.9014484     0.0018103    0.0102405     0.0015189    0.0100791     0.2076451   -0.9366978 
   0.799875000     0.3299567   -0.9026103     0.0018841    0.0101779     0.0015689    0.0100241     0.2046230   -0.9379612 
   0.801406250     0.3276011   -0.9035714     0.0019126    0.0101448     0.0016553    0.0099704     0.2016824   -0.9381843 
   0.802937500     0.3252411   -0.9044006     0.0019695    0.0100960     0.0017704    0.0099295     0.1989505   -0.9390649 
   0.804468750     0.3224683   -0.9051983     0.0020251    0.0100530     0.0018002    0.0098127     0.1959952   -0.9393315 
   0.806000000     0.3203533   -0.9061843     0.0020788    0.0099628     0.0018344    0.0097387     0.1936081   -0.9402686 
