! 10/3/2022 2:47:24 PM
! D:\USERS\JULIAN\DESKTOP\MATRIZ DE DISPERSION\ON\S35.S2P
! CHANNEL.1
! TR.MEASUREMENT
! CORRECTED.DATA
# GHZ S RI R 50.0
! FREQ.GHZ         S11RE         S11IM         S21RE         S21IM         S12RE         S12IM         S22RE         S22IM         
!; PortSelection: Port_12
   0.512000000     0.1812370    0.0625171     0.0002342    0.0206567     0.0005183    0.0199834     0.6703511   -0.7116520 
   0.513531250     0.1816391    0.0625194     0.0001068    0.0207704     0.0005093    0.0200558     0.6689323   -0.7131190 
   0.515062500     0.1818843    0.0623987     0.0001184    0.0208955     0.0005224    0.0201285     0.6672705   -0.7146156 
   0.516593750     0.1822884    0.0621782     0.0001116    0.0210526     0.0005440    0.0202127     0.6654007   -0.7159382 
   0.518125000     0.1829199    0.0620067     0.0000677    0.0211930     0.0005430    0.0202441     0.6637105   -0.7176710 
   0.519656250     0.1833227    0.0618035     0.0001269    0.0213460     0.0005286    0.0203324     0.6622124   -0.7195584 
   0.521187500     0.1837019    0.0616582     0.0001464    0.0215033     0.0005112    0.0204482     0.6606726   -0.7214140 
   0.522718750     0.1840604    0.0615520     0.0001407    0.0216465     0.0004900    0.0205287     0.6590169   -0.7226585 
   0.524250000     0.1843060    0.0614783     0.0001843    0.0217941     0.0005602    0.0206054     0.6572567   -0.7243747 
   0.525781250     0.1847497    0.0609942     0.0002463    0.0219292     0.0005377    0.0206939     0.6555055   -0.7255712 
   0.527312500     0.1850728    0.0609654     0.0003108    0.0220876     0.0005586    0.0208047     0.6538177   -0.7276465 
   0.528843750     0.1853421    0.0607724     0.0003381    0.0222201     0.0006005    0.0208594     0.6522346   -0.7290777 
   0.530375000     0.1856060    0.0606842     0.0004886    0.0223514     0.0005949    0.0209365     0.6499874   -0.7308594 
   0.531906250     0.1859283    0.0605027     0.0005131    0.0225091     0.0005962    0.0210390     0.6486890   -0.7330055 
   0.533437500     0.1864255    0.0601875     0.0005959    0.0225748     0.0006134    0.0211111     0.6466824   -0.7347416 
   0.534968750     0.1867777    0.0598342     0.0006809    0.0226988     0.0006006    0.0211828     0.6449660   -0.7361892 
   0.536500000     0.1870877    0.0595766     0.0008013    0.0228183     0.0006529    0.0213165     0.6432240   -0.7379496 
   0.538031250     0.1873217    0.0592805     0.0008750    0.0228738     0.0006577    0.0213790     0.6416730   -0.7396201 
   0.539562500     0.1875369    0.0590328     0.0009686    0.0229968     0.0006833    0.0214742     0.6394201   -0.7416435 
   0.541093750     0.1877719    0.0589178     0.0010587    0.0230979     0.0007011    0.0215481     0.6374050   -0.7432444 
   0.542625000     0.1880208    0.0587359     0.0011849    0.0231468     0.0007088    0.0216277     0.6353995   -0.7451762 
   0.544156250     0.1885321    0.0582345     0.0012455    0.0232357     0.0007249    0.0217145     0.6335185   -0.7470452 
   0.545687500     0.1888533    0.0579449     0.0013143    0.0232852     0.0007491    0.0218072     0.6314667   -0.7484387 
   0.547218750     0.1891645    0.0575434     0.0014486    0.0232988     0.0007677    0.0218846     0.6300281   -0.7506555 
   0.548750000     0.1894632    0.0571775     0.0015109    0.0233244     0.0007809    0.0219888     0.6278443   -0.7512311 
   0.550281250     0.1896862    0.0567906     0.0015784    0.0233755     0.0008351    0.0220726     0.6261681   -0.7536392 
   0.551812500     0.1899100    0.0565391     0.0016707    0.0233965     0.0008879    0.0221389     0.6233818   -0.7548804 
   0.553343750     0.1902183    0.0561276     0.0017478    0.0234299     0.0008802    0.0222236     0.6211181   -0.7564438 
   0.554875000     0.1904116    0.0556348     0.0017774    0.0234372     0.0009020    0.0222769     0.6192431   -0.7588307 
   0.556406250     0.1908917    0.0550990     0.0018397    0.0234702     0.0009389    0.0223744     0.6171854   -0.7603224 
   0.557937500     0.1910785    0.0547119     0.0018460    0.0234723     0.0009736    0.0224685     0.6155208   -0.7619542 
   0.559468750     0.1913851    0.0542030     0.0019155    0.0234528     0.0009540    0.0225246     0.6129516   -0.7631002 
   0.561000000     0.1917323    0.0537270     0.0019360    0.0234862     0.0009991    0.0225811     0.6106091   -0.7647543 
   0.562531250     0.1920463    0.0531781     0.0019552    0.0234556     0.0010424    0.0226667     0.6084546   -0.7661088 
   0.564062500     0.1922757    0.0527143     0.0019456    0.0234770     0.0010488    0.0226795     0.6062853   -0.7677310 
   0.565593750     0.1926172    0.0522569     0.0019332    0.0235052     0.0010534    0.0227627     0.6039202   -0.7698644 
   0.567125000     0.1929398    0.0518167     0.0019157    0.0235348     0.0010532    0.0228319     0.6018438   -0.7708338 
   0.568656250     0.1932495    0.0511906     0.0018837    0.0235527     0.0011045    0.0229492     0.5993669   -0.7727311 
   0.570187500     0.1936811    0.0505995     0.0019170    0.0235951     0.0011365    0.0230091     0.5974387   -0.7739270 
   0.571718750     0.1941608    0.0499387     0.0018360    0.0236076     0.0011610    0.0230668     0.5950093   -0.7756486 
   0.573250000     0.1945201    0.0493792     0.0017798    0.0236394     0.0011893    0.0231247     0.5929143   -0.7769856 
   0.574781250     0.1950081    0.0487516     0.0017647    0.0237066     0.0012005    0.0231688     0.5898891   -0.7783715 
   0.576312500     0.1953755    0.0480941     0.0016835    0.0237480     0.0011864    0.0232405     0.5871597   -0.7798290 
   0.577843750     0.1958684    0.0476019     0.0016284    0.0238029     0.0012049    0.0232997     0.5851367   -0.7817548 
   0.579375000     0.1962401    0.0471705     0.0015753    0.0238599     0.0012250    0.0233636     0.5828005   -0.7831285 
   0.580906250     0.1966092    0.0465660     0.0015381    0.0239828     0.0012535    0.0234827     0.5803039   -0.7845800 
   0.582437500     0.1970863    0.0459265     0.0014899    0.0240815     0.0012629    0.0235342     0.5779860   -0.7862300 
   0.583968750     0.1975702    0.0454498     0.0014374    0.0241446     0.0013014    0.0236156     0.5751743   -0.7873804 
   0.585500000     0.1981927    0.0449394     0.0013984    0.0242676     0.0012976    0.0236814     0.5729629   -0.7885877 
   0.587031250     0.1987805    0.0443282     0.0013177    0.0243777     0.0013098    0.0237393     0.5705088   -0.7905405 
   0.588562500     0.1993425    0.0437333     0.0012797    0.0245084     0.0012926    0.0237788     0.5677483   -0.7920632 
   0.590093750     0.1998314    0.0432842     0.0012445    0.0245973     0.0012988    0.0238536     0.5654140   -0.7936358 
   0.591625000     0.2003984    0.0425922     0.0011895    0.0247727     0.0013015    0.0239479     0.5629140   -0.7954091 
   0.593156250     0.2008643    0.0421743     0.0011988    0.0249110     0.0013442    0.0240448     0.5604949   -0.7966866 
   0.594687500     0.2014438    0.0417682     0.0011683    0.0250669     0.0013600    0.0241249     0.5578915   -0.7981373 
   0.596218750     0.2019888    0.0412793     0.0011640    0.0252075     0.0013817    0.0242040     0.5553960   -0.7999268 
   0.597750000     0.2025123    0.0408433     0.0011606    0.0253949     0.0013679    0.0242545     0.5525542   -0.8012129 
   0.599281250     0.2033907    0.0399521     0.0011563    0.0255290     0.0014025    0.0243085     0.5499000   -0.8028835 
   0.600812500     0.2040053    0.0395385     0.0012008    0.0256629     0.0013986    0.0244278     0.5474734   -0.8046005 
   0.602343750     0.2045097    0.0391907     0.0012415    0.0258805     0.0013577    0.0245185     0.5445846   -0.8062567 
   0.603875000     0.2050487    0.0388809     0.0013244    0.0260254     0.0014337    0.0246010     0.5424089   -0.8075823 
   0.605406250     0.2054497    0.0384868     0.0013640    0.0261727     0.0014597    0.0246683     0.5394952   -0.8096790 
   0.606937500     0.2060152    0.0380733     0.0014157    0.0263144     0.0014793    0.0247767     0.5367414   -0.8111485 
   0.608468750     0.2067981    0.0377507     0.0015029    0.0264921     0.0015231    0.0248626     0.5339408   -0.8129573 
   0.610000000     0.2072776    0.0375062     0.0015541    0.0266283     0.0015230    0.0249170     0.5311081   -0.8147602 
   0.611531250     0.2078335    0.0373427     0.0016759    0.0267530     0.0014719    0.0250090     0.5286857   -0.8162767 
   0.613062500     0.2082707    0.0368513     0.0017569    0.0268590     0.0015084    0.0251028     0.5259055   -0.8183097 
   0.614593750     0.2089969    0.0363555     0.0019207    0.0270013     0.0015136    0.0251980     0.5232080   -0.8192945 
   0.616125000     0.2095321    0.0361480     0.0020017    0.0271133     0.0015730    0.0253048     0.5205867   -0.8212092 
   0.617656250     0.2099593    0.0360880     0.0021475    0.0272109     0.0016170    0.0253950     0.5177881   -0.8229903 
   0.619187500     0.2104166    0.0359990     0.0022543    0.0273051     0.0016927    0.0255061     0.5147319   -0.8247085 
   0.620718750     0.2108451    0.0359305     0.0023564    0.0274294     0.0017030    0.0255583     0.5126377   -0.8263552 
   0.622250000     0.2114407    0.0356052     0.0024765    0.0274771     0.0017075    0.0256710     0.5099768   -0.8280492 
   0.623781250     0.2118183    0.0355050     0.0026114    0.0275052     0.0017301    0.0257364     0.5073287   -0.8299632 
   0.625312500     0.2121244    0.0352987     0.0027600    0.0275900     0.0017663    0.0258653     0.5046130   -0.8318323 
   0.626843750     0.2124345    0.0350118     0.0028743    0.0275950     0.0018510    0.0259676     0.5018195   -0.8331069 
   0.628375000     0.2128271    0.0348390     0.0030235    0.0276025     0.0018777    0.0260210     0.4990900   -0.8347738 
   0.629906250     0.2130915    0.0348747     0.0031539    0.0276075     0.0019776    0.0261198     0.4960874   -0.8363373 
   0.631437500     0.2134425    0.0344889     0.0031879    0.0276022     0.0020379    0.0262182     0.4933915   -0.8371772 
   0.632968750     0.2138415    0.0345247     0.0032578    0.0276433     0.0020630    0.0262191     0.4906088   -0.8392200 
   0.634500000     0.2140266    0.0344867     0.0033650    0.0276450     0.0020822    0.0263026     0.4880956   -0.8405292 
   0.636031250     0.2142090    0.0343795     0.0034748    0.0275956     0.0021147    0.0263749     0.4852814   -0.8423566 
   0.637562500     0.2143394    0.0343162     0.0035044    0.0276069     0.0022070    0.0265169     0.4830423   -0.8436947 
   0.639093750     0.2145406    0.0340793     0.0035623    0.0275466     0.0022539    0.0265736     0.4803837   -0.8448454 
   0.640625000     0.2146928    0.0338042     0.0035785    0.0275066     0.0023303    0.0266485     0.4778425   -0.8463314 
   0.642156250     0.2146388    0.0333690     0.0035526    0.0274894     0.0023893    0.0266932     0.4749023   -0.8475971 
   0.643687500     0.2148367    0.0329853     0.0035869    0.0274810     0.0024089    0.0266945     0.4724612   -0.8495777 
   0.645218750     0.2148360    0.0328214     0.0035610    0.0274885     0.0024383    0.0267856     0.4700423   -0.8509219 
   0.646750000     0.2146976    0.0327429     0.0036133    0.0274371     0.0024887    0.0268100     0.4675855   -0.8518498 
   0.648281250     0.2146160    0.0324702     0.0035569    0.0274065     0.0025467    0.0269389     0.4649207   -0.8532136 
   0.649812500     0.2145500    0.0320671     0.0035211    0.0274359     0.0025631    0.0270078     0.4627306   -0.8540565 
   0.651343750     0.2144915    0.0317840     0.0034709    0.0274369     0.0026121    0.0270379     0.4602529   -0.8556502 
   0.652875000     0.2144388    0.0312380     0.0033872    0.0274343     0.0026442    0.0270837     0.4574577   -0.8566179 
   0.654406250     0.2143507    0.0306448     0.0033533    0.0274421     0.0027093    0.0271413     0.4551503   -0.8578757 
   0.655937500     0.2142699    0.0301257     0.0032645    0.0274981     0.0026787    0.0271597     0.4527082   -0.8591379 
   0.657468750     0.2143305    0.0292358     0.0031970    0.0274766     0.0026932    0.0272036     0.4504685   -0.8602514 
   0.659000000     0.2141102    0.0287061     0.0031111    0.0275541     0.0027073    0.0272477     0.4477773   -0.8615171 
   0.660531250     0.2139148    0.0282100     0.0030034    0.0275925     0.0027108    0.0273308     0.4455835   -0.8626351 
   0.662062500     0.2139068    0.0275774     0.0029382    0.0276963     0.0027609    0.0273878     0.4429008   -0.8635297 
   0.663593750     0.2136737    0.0270275     0.0028134    0.0278267     0.0027829    0.0274751     0.4409494   -0.8646900 
   0.665125000     0.2136193    0.0261647     0.0027353    0.0279594     0.0028000    0.0275235     0.4378529   -0.8656546 
   0.666656250     0.2136304    0.0253674     0.0026114    0.0280835     0.0027677    0.0275985     0.4354470   -0.8665712 
   0.668187500     0.2134145    0.0245461     0.0025420    0.0281945     0.0027329    0.0276511     0.4329490   -0.8681568 
   0.669718750     0.2133006    0.0236317     0.0024768    0.0282623     0.0027287    0.0277074     0.4305373   -0.8690037 
   0.671250000     0.2134072    0.0226179     0.0023989    0.0284383     0.0027027    0.0278374     0.4282633   -0.8700516 
   0.672781250     0.2133828    0.0216818     0.0023711    0.0286279     0.0027250    0.0279084     0.4256471   -0.8711725 
   0.674312500     0.2133202    0.0209020     0.0022895    0.0288683     0.0027051    0.0279803     0.4231981   -0.8718632 
   0.675843750     0.2133223    0.0200231     0.0022700    0.0290896     0.0027132    0.0281062     0.4210288   -0.8730931 
   0.677375000     0.2132325    0.0191180     0.0022186    0.0292639     0.0026910    0.0281855     0.4183040   -0.8739370 
   0.678906250     0.2132895    0.0181995     0.0022103    0.0295147     0.0026513    0.0283099     0.4159149   -0.8750281 
   0.680437500     0.2133317    0.0171826     0.0022233    0.0297522     0.0026351    0.0283680     0.4130659   -0.8761011 
   0.681968750     0.2134191    0.0162048     0.0022291    0.0299739     0.0026180    0.0284509     0.4114663   -0.8769933 
   0.683500000     0.2134859    0.0149858     0.0023193    0.0302588     0.0026593    0.0285399     0.4088958   -0.8780602 
   0.685031250     0.2135894    0.0141495     0.0024037    0.0305293     0.0026410    0.0285935     0.4064552   -0.8789716 
   0.686562500     0.2139157    0.0131604     0.0025062    0.0308029     0.0026456    0.0287586     0.4036625   -0.8799124 
   0.688093750     0.2141150    0.0123507     0.0025572    0.0310395     0.0026602    0.0288732     0.4014855   -0.8807274 
   0.689625000     0.2143529    0.0114187     0.0026783    0.0312562     0.0026648    0.0290250     0.3990119   -0.8819418 
   0.691156250     0.2145733    0.0103461     0.0028584    0.0315793     0.0026971    0.0290922     0.3961867   -0.8831547 
   0.692687500     0.2148662    0.0095537     0.0030471    0.0317615     0.0026879    0.0292211     0.3939241   -0.8839160 
   0.694218750     0.2151383    0.0084789     0.0032382    0.0319777     0.0027270    0.0292945     0.3917066   -0.8848257 
   0.695750000     0.2153603    0.0074594     0.0034242    0.0321849     0.0028028    0.0294149     0.3895744   -0.8862610 
   0.697281250     0.2157023    0.0063593     0.0036131    0.0323426     0.0028338    0.0295037     0.3869089   -0.8873891 
   0.698812500     0.2162567    0.0055988     0.0038264    0.0325282     0.0028861    0.0296484     0.3845252   -0.8880677 
   0.700343750     0.2166462    0.0048776     0.0040779    0.0326559     0.0029458    0.0297827     0.3818886   -0.8891860 
   0.701875000     0.2169070    0.0041557     0.0043575    0.0327680     0.0029757    0.0299595     0.3793629   -0.8900203 
   0.703406250     0.2172548    0.0032932     0.0046116    0.0328281     0.0029732    0.0300586     0.3770330   -0.8908223 
   0.704937500     0.2178987    0.0023683     0.0048416    0.0328922     0.0030616    0.0301155     0.3743849   -0.8912223 
   0.706468750     0.2184029    0.0017487     0.0050777    0.0329231     0.0031674    0.0302162     0.3721203   -0.8922420 
   0.708000000     0.2188202    0.0010797     0.0052792    0.0329469     0.0033097    0.0303125     0.3689866   -0.8934627 
   0.709531250     0.2193097    0.0004728     0.0055012    0.0329026     0.0033462    0.0304411     0.3666287   -0.8945534 
   0.711062500     0.2199823   -0.0001588     0.0056976    0.0329010     0.0034406    0.0304425     0.3642549   -0.8949675 
   0.712593750     0.2201690   -0.0007161     0.0059607    0.0328134     0.0034842    0.0306132     0.3617174   -0.8959569 
   0.714125000     0.2206852   -0.0011224     0.0061501    0.0327275     0.0035311    0.0306832     0.3597404   -0.8970857 
   0.715656250     0.2212123   -0.0014558     0.0063017    0.0326681     0.0036332    0.0307743     0.3568582   -0.8978247 
   0.717187500     0.2216396   -0.0016849     0.0064429    0.0325861     0.0037454    0.0308144     0.3543093   -0.8985993 
   0.718718750     0.2222964   -0.0023047     0.0065280    0.0324412     0.0038831    0.0308798     0.3515871   -0.8996890 
   0.720250000     0.2227583   -0.0025083     0.0066451    0.0323285     0.0039944    0.0309291     0.3490128   -0.9003022 
   0.721781250     0.2232274   -0.0029264     0.0067256    0.0321900     0.0040689    0.0309787     0.3460828   -0.9011195 
   0.723312500     0.2236229   -0.0032371     0.0068311    0.0320228     0.0041230    0.0311087     0.3437358   -0.9018654 
   0.724843750     0.2239979   -0.0033202     0.0068608    0.0318533     0.0042373    0.0311424     0.3412097   -0.9034262 
   0.726375000     0.2242916   -0.0034108     0.0069176    0.0317297     0.0042958    0.0311566     0.3387426   -0.9036869 
   0.727906250     0.2246263   -0.0035735     0.0068795    0.0315979     0.0043628    0.0311935     0.3360483   -0.9043988 
   0.729437500     0.2248381   -0.0039870     0.0068827    0.0315127     0.0044746    0.0312149     0.3334242   -0.9052182 
   0.730968750     0.2251630   -0.0042247     0.0068274    0.0313299     0.0045847    0.0312257     0.3309454   -0.9051711 
   0.732500000     0.2253309   -0.0043319     0.0067475    0.0312550     0.0046223    0.0312554     0.3278518   -0.9066389 
   0.734031250     0.2255491   -0.0044805     0.0066800    0.0311197     0.0046984    0.0312789     0.3250549   -0.9071574 
   0.735562500     0.2255259   -0.0047136     0.0065715    0.0309582     0.0047154    0.0312780     0.3226570   -0.9078680 
   0.737093750     0.2256554   -0.0048711     0.0064586    0.0308656     0.0047817    0.0312963     0.3195700   -0.9088456 
   0.738625000     0.2256742   -0.0049190     0.0063119    0.0308616     0.0047835    0.0312769     0.3172958   -0.9096771 
   0.740156250     0.2256494   -0.0050224     0.0061658    0.0308335     0.0048208    0.0313431     0.3144777   -0.9099054 
   0.741687500     0.2255920   -0.0049968     0.0060194    0.0308033     0.0048600    0.0313642     0.3118896   -0.9105453 
   0.743218750     0.2255133   -0.0051955     0.0058419    0.0308000     0.0048765    0.0313880     0.3088829   -0.9115644 
   0.744750000     0.2253187   -0.0055126     0.0057044    0.0308111     0.0048836    0.0314548     0.3061499   -0.9121708 
   0.746281250     0.2250818   -0.0056708     0.0055394    0.0307974     0.0049067    0.0314639     0.3032903   -0.9128075 
   0.747812500     0.2248891   -0.0058200     0.0053353    0.0309058     0.0048890    0.0314558     0.3000873   -0.9139670 
   0.749343750     0.2245979   -0.0060425     0.0051643    0.0310119     0.0048529    0.0314956     0.2981941   -0.9145731 
   0.750875000     0.2242012   -0.0062843     0.0049422    0.0310976     0.0048648    0.0315585     0.2956199   -0.9149086 
   0.752406250     0.2239197   -0.0065377     0.0047692    0.0312168     0.0048445    0.0316318     0.2928913   -0.9157622 
   0.753937500     0.2235344   -0.0066191     0.0046080    0.0314176     0.0048714    0.0316832     0.2901250   -0.9161453 
   0.755468750     0.2230987   -0.0068763     0.0044468    0.0315667     0.0048356    0.0317366     0.2873721   -0.9166256 
   0.757000000     0.2226770   -0.0070673     0.0043229    0.0317664     0.0048054    0.0317718     0.2845899   -0.9174402 
   0.758531250     0.2222402   -0.0075604     0.0041688    0.0319858     0.0047667    0.0318070     0.2820121   -0.9182800 
   0.760062500     0.2218796   -0.0081087     0.0040482    0.0322611     0.0047139    0.0318584     0.2794669   -0.9189876 
   0.761593750     0.2214290   -0.0085215     0.0039172    0.0324906     0.0046770    0.0319858     0.2770694   -0.9194649 
   0.763125000     0.2209452   -0.0090204     0.0037931    0.0328070     0.0046339    0.0320673     0.2742096   -0.9200119 
   0.764656250     0.2204047   -0.0095844     0.0037186    0.0330585     0.0045965    0.0321542     0.2720143   -0.9206281 
   0.766187500     0.2199466   -0.0100034     0.0036974    0.0333812     0.0045598    0.0322292     0.2687626   -0.9211454 
   0.767718750     0.2194485   -0.0104910     0.0037317    0.0337005     0.0045155    0.0323429     0.2663575   -0.9218513 
   0.769250000     0.2188933   -0.0109137     0.0037020    0.0340536     0.0044285    0.0323591     0.2638995   -0.9224817 
   0.770781250     0.2184616   -0.0114797     0.0037719    0.0344047     0.0044216    0.0324805     0.2609290   -0.9231030 
   0.772312500     0.2179021   -0.0124027     0.0038400    0.0347554     0.0043672    0.0326312     0.2583537   -0.9239553 
   0.773843750     0.2175269   -0.0130826     0.0039033    0.0351005     0.0043206    0.0327467     0.2557947   -0.9246200 
   0.775375000     0.2171841   -0.0140228     0.0040287    0.0354110     0.0042963    0.0329236     0.2532301   -0.9251807 
   0.776906250     0.2168753   -0.0149054     0.0041725    0.0357398     0.0043402    0.0330470     0.2504188   -0.9258737 
   0.778437500     0.2165169   -0.0156853     0.0043760    0.0360481     0.0043220    0.0331874     0.2477072   -0.9269948 
   0.779968750     0.2161386   -0.0164368     0.0046355    0.0363712     0.0042808    0.0332937     0.2449302   -0.9276022 
   0.781500000     0.2157860   -0.0174007     0.0049139    0.0366438     0.0043318    0.0334115     0.2421035   -0.9285914 
   0.783031250     0.2154487   -0.0180650     0.0051016    0.0369599     0.0043194    0.0335936     0.2397022   -0.9292644 
   0.784562500     0.2152205   -0.0188848     0.0053980    0.0371863     0.0043118    0.0337687     0.2368954   -0.9298658 
   0.786093750     0.2150858   -0.0196123     0.0056878    0.0373756     0.0043665    0.0339066     0.2340697   -0.9305549 
   0.787625000     0.2147630   -0.0207253     0.0060192    0.0375124     0.0044479    0.0340324     0.2313516   -0.9311041 
   0.789156250     0.2147551   -0.0217639     0.0063769    0.0376435     0.0045209    0.0342067     0.2282587   -0.9317883 
   0.790687500     0.2148156   -0.0226365     0.0067375    0.0377453     0.0045814    0.0343521     0.2254603   -0.9327423 
   0.792218750     0.2146447   -0.0235119     0.0071077    0.0378148     0.0046405    0.0344517     0.2225734   -0.9334603 
   0.793750000     0.2145110   -0.0243496     0.0073798    0.0378696     0.0046730    0.0345446     0.2200442   -0.9339001 
   0.795281250     0.2145171   -0.0251867     0.0077128    0.0378596     0.0047500    0.0346874     0.2173561   -0.9348186 
   0.796812500     0.2147335   -0.0260683     0.0079955    0.0378088     0.0048706    0.0348495     0.2144167   -0.9356488 
   0.798343750     0.2150086   -0.0268447     0.0082650    0.0377421     0.0049973    0.0349967     0.2116853   -0.9358771 
   0.799875000     0.2151083   -0.0275805     0.0086105    0.0376282     0.0050969    0.0351421     0.2087447   -0.9370817 
   0.801406250     0.2151124   -0.0284236     0.0088264    0.0374766     0.0051897    0.0352367     0.2056352   -0.9374244 
   0.802937500     0.2154848   -0.0295523     0.0090835    0.0373575     0.0052542    0.0353111     0.2028958   -0.9383546 
   0.804468750     0.2157321   -0.0302914     0.0092733    0.0372153     0.0053743    0.0353531     0.1998900   -0.9386377 
   0.806000000     0.2160897   -0.0309039     0.0093821    0.0370156     0.0054641    0.0354576     0.1973705   -0.9395726 
