! 10/3/2022 2:44:39 PM
! D:\USERS\JULIAN\DESKTOP\MATRIZ DE DISPERSION\ON\S64.S2P
! CHANNEL.1
! TR.MEASUREMENT
! CORRECTED.DATA
# GHZ S RI R 50.0
! FREQ.GHZ         S11RE         S11IM         S21RE         S21IM         S12RE         S12IM         S22RE         S22IM         
!; PortSelection: Port_12
   0.512000000     0.2184409    0.0704584    -0.0165661   -0.0180242    -0.0158577   -0.0179480     0.1719951    0.0772359 
   0.513531250     0.2190702    0.0700364    -0.0165188   -0.0180867    -0.0158541   -0.0179367     0.1728082    0.0766911 
   0.515062500     0.2198646    0.0696704    -0.0165372   -0.0181153    -0.0159306   -0.0179336     0.1732706    0.0758981 
   0.516593750     0.2204377    0.0693698    -0.0166299   -0.0181532    -0.0159995   -0.0179328     0.1737327    0.0753604 
   0.518125000     0.2208742    0.0689153    -0.0166672   -0.0181656    -0.0160496   -0.0179365     0.1742633    0.0750091 
   0.519656250     0.2213569    0.0686510    -0.0167267   -0.0181952    -0.0161267   -0.0179424     0.1747130    0.0747695 
   0.521187500     0.2218705    0.0684261    -0.0168284   -0.0182138    -0.0161811   -0.0180050     0.1754533    0.0743645 
   0.522718750     0.2225120    0.0680211    -0.0168422   -0.0182536    -0.0162673   -0.0180809     0.1761024    0.0739172 
   0.524250000     0.2229928    0.0676554    -0.0168977   -0.0182652    -0.0163280   -0.0180924     0.1765853    0.0732980 
   0.525781250     0.2235554    0.0671961    -0.0169740   -0.0183303    -0.0164267   -0.0180653     0.1771498    0.0729408 
   0.527312500     0.2240528    0.0667554    -0.0170625   -0.0183064    -0.0164841   -0.0180671     0.1777603    0.0724737 
   0.528843750     0.2244468    0.0661043    -0.0171398   -0.0183328    -0.0165982   -0.0180658     0.1783715    0.0720956 
   0.530375000     0.2248570    0.0659362    -0.0171979   -0.0183726    -0.0166452   -0.0180766     0.1791998    0.0716612 
   0.531906250     0.2255448    0.0654618    -0.0172750   -0.0183678    -0.0167268   -0.0181299     0.1798008    0.0714291 
   0.533437500     0.2260353    0.0652122    -0.0173599   -0.0184133    -0.0168005   -0.0180979     0.1805381    0.0711850 
   0.534968750     0.2264423    0.0650037    -0.0174695   -0.0184569    -0.0168829   -0.0181867     0.1810416    0.0710811 
   0.536500000     0.2268449    0.0646070    -0.0175112   -0.0184641    -0.0169502   -0.0181860     0.1815673    0.0706420 
   0.538031250     0.2272945    0.0643497    -0.0176445   -0.0184652    -0.0170408   -0.0181916     0.1824638    0.0702665 
   0.539562500     0.2277087    0.0637884    -0.0176961   -0.0184916    -0.0171299   -0.0181967     0.1831213    0.0700218 
   0.541093750     0.2281196    0.0630280    -0.0177411   -0.0185023    -0.0171749   -0.0181468     0.1837093    0.0697561 
   0.542625000     0.2287474    0.0624782    -0.0178611   -0.0185289    -0.0172287   -0.0181653     0.1843351    0.0694680 
   0.544156250     0.2290777    0.0620969    -0.0179454   -0.0185292    -0.0172953   -0.0181899     0.1848976    0.0693661 
   0.545687500     0.2293995    0.0617655    -0.0180425   -0.0185794    -0.0174000   -0.0182432     0.1855427    0.0693391 
   0.547218750     0.2297267    0.0614030    -0.0181312   -0.0185812    -0.0174925   -0.0182522     0.1860126    0.0694795 
   0.548750000     0.2301327    0.0609670    -0.0182245   -0.0185584    -0.0175716   -0.0182538     0.1865785    0.0690658 
   0.550281250     0.2304636    0.0604588    -0.0182744   -0.0185662    -0.0176674   -0.0182555     0.1871738    0.0689544 
   0.551812500     0.2308953    0.0599156    -0.0183423   -0.0185936    -0.0177216   -0.0182232     0.1876816    0.0689514 
   0.553343750     0.2312497    0.0592450    -0.0184684   -0.0185752    -0.0177946   -0.0181880     0.1881283    0.0688213 
   0.554875000     0.2317328    0.0584045    -0.0185381   -0.0185729    -0.0178402   -0.0182273     0.1885882    0.0686452 
   0.556406250     0.2321175    0.0578459    -0.0186045   -0.0185614    -0.0179123   -0.0182477     0.1890447    0.0684699 
   0.557937500     0.2323618    0.0573826    -0.0187025   -0.0185615    -0.0179723   -0.0182670     0.1894269    0.0685183 
   0.559468750     0.2326966    0.0568874    -0.0187720   -0.0185575    -0.0180547   -0.0182562     0.1897227    0.0685934 
   0.561000000     0.2329649    0.0564120    -0.0188843   -0.0185341    -0.0181192   -0.0182487     0.1899670    0.0686968 
   0.562531250     0.2333714    0.0558456    -0.0188940   -0.0185445    -0.0181979   -0.0182276     0.1904350    0.0685668 
   0.564062500     0.2336133    0.0552569    -0.0190403   -0.0185465    -0.0182373   -0.0182182     0.1907545    0.0683238 
   0.565593750     0.2338898    0.0545368    -0.0190962   -0.0185470    -0.0182837   -0.0182209     0.1909695    0.0683156 
   0.567125000     0.2342877    0.0537540    -0.0191484   -0.0185548    -0.0183452   -0.0182275     0.1911879    0.0682268 
   0.568656250     0.2348598    0.0527473    -0.0192045   -0.0185267    -0.0184059   -0.0182564     0.1913216    0.0680209 
   0.570187500     0.2351817    0.0520859    -0.0192614   -0.0185242    -0.0184754   -0.0182618     0.1914949    0.0678036 
   0.571718750     0.2355478    0.0513911    -0.0193110   -0.0184934    -0.0185353   -0.0182380     0.1916786    0.0677751 
   0.573250000     0.2358607    0.0507879    -0.0193819   -0.0185260    -0.0186229   -0.0182425     0.1917714    0.0677921 
   0.574781250     0.2361975    0.0500877    -0.0194866   -0.0185068    -0.0186836   -0.0182544     0.1917545    0.0677066 
   0.576312500     0.2365558    0.0493190    -0.0195432   -0.0185588    -0.0187259   -0.0182539     0.1918119    0.0675728 
   0.577843750     0.2370499    0.0486092    -0.0196052   -0.0185621    -0.0188040   -0.0182807     0.1922317    0.0670627 
   0.579375000     0.2373903    0.0478397    -0.0196524   -0.0185457    -0.0188648   -0.0183356     0.1923786    0.0668250 
   0.580906250     0.2378277    0.0469294    -0.0197443   -0.0185706    -0.0189609   -0.0183324     0.1923351    0.0664705 
   0.582437500     0.2384813    0.0458970    -0.0198435   -0.0185029    -0.0190395   -0.0182950     0.1923349    0.0660124 
   0.583968750     0.2389080    0.0451444    -0.0199038   -0.0185518    -0.0190934   -0.0183169     0.1923723    0.0656652 
   0.585500000     0.2392564    0.0445422    -0.0199684   -0.0184957    -0.0192050   -0.0183168     0.1923596    0.0654332 
   0.587031250     0.2396240    0.0439038    -0.0200716   -0.0185270    -0.0192565   -0.0182971     0.1923429    0.0651259 
   0.588562500     0.2401117    0.0432557    -0.0201389   -0.0185261    -0.0192979   -0.0183083     0.1924495    0.0646588 
   0.590093750     0.2404775    0.0425223    -0.0201825   -0.0185056    -0.0193918   -0.0183481     0.1924360    0.0641044 
   0.591625000     0.2409479    0.0415656    -0.0202434   -0.0184595    -0.0194443   -0.0183849     0.1926310    0.0635274 
   0.593156250     0.2413625    0.0407326    -0.0203083   -0.0184482    -0.0195514   -0.0183354     0.1927494    0.0627986 
   0.594687500     0.2419882    0.0399154    -0.0203329   -0.0184234    -0.0196071   -0.0183191     0.1927023    0.0621891 
   0.596218750     0.2425495    0.0390702    -0.0204038   -0.0184225    -0.0197226   -0.0183023     0.1927815    0.0615655 
   0.597750000     0.2430310    0.0383644    -0.0204698   -0.0184220    -0.0197330   -0.0182876     0.1927867    0.0608569 
   0.599281250     0.2434316    0.0375331    -0.0204964   -0.0184489    -0.0198016   -0.0182932     0.1929230    0.0601636 
   0.600812500     0.2439292    0.0369479    -0.0205510   -0.0184472    -0.0198424   -0.0183316     0.1930262    0.0595471 
   0.602343750     0.2443384    0.0363849    -0.0205850   -0.0184694    -0.0199365   -0.0183707     0.1930726    0.0587723 
   0.603875000     0.2449924    0.0356868    -0.0206741   -0.0184448    -0.0200189   -0.0183706     0.1934383    0.0579923 
   0.605406250     0.2455491    0.0350477    -0.0207305   -0.0184486    -0.0200840   -0.0184037     0.1935894    0.0568837 
   0.606937500     0.2460106    0.0340971    -0.0207479   -0.0184438    -0.0201664   -0.0183735     0.1936411    0.0558694 
   0.608468750     0.2464566    0.0334520    -0.0208148   -0.0184650    -0.0202199   -0.0183809     0.1938330    0.0550395 
   0.610000000     0.2468685    0.0328557    -0.0208893   -0.0184472    -0.0202666   -0.0183763     0.1939707    0.0542343 
   0.611531250     0.2473675    0.0325326    -0.0209316   -0.0185069    -0.0203275   -0.0184227     0.1943741    0.0535018 
   0.613062500     0.2480422    0.0320319    -0.0210158   -0.0185309    -0.0204122   -0.0184558     0.1946108    0.0523957 
   0.614593750     0.2484935    0.0315824    -0.0211440   -0.0185004    -0.0204874   -0.0185086     0.1947684    0.0514692 
   0.616125000     0.2488727    0.0309328    -0.0211922   -0.0185539    -0.0206042   -0.0184844     0.1950708    0.0507708 
   0.617656250     0.2492517    0.0305770    -0.0213021   -0.0185151    -0.0206883   -0.0185103     0.1953856    0.0498703 
   0.619187500     0.2496789    0.0301254    -0.0213652   -0.0185759    -0.0207807   -0.0184993     0.1958531    0.0487715 
   0.620718750     0.2503281    0.0294353    -0.0214398   -0.0186110    -0.0208494   -0.0185155     0.1961914    0.0477794 
   0.622250000     0.2508058    0.0290036    -0.0214774   -0.0185948    -0.0208901   -0.0185096     0.1966074    0.0469490 
   0.623781250     0.2512175    0.0285622    -0.0216144   -0.0186142    -0.0209703   -0.0185073     0.1968214    0.0458694 
   0.625312500     0.2516202    0.0282891    -0.0216953   -0.0185976    -0.0210973   -0.0185552     0.1972996    0.0451854 
   0.626843750     0.2519427    0.0281127    -0.0217859   -0.0186169    -0.0212217   -0.0185137     0.1979714    0.0441451 
   0.628375000     0.2522593    0.0274515    -0.0218748   -0.0186006    -0.0213034   -0.0185047     0.1984398    0.0434108 
   0.629906250     0.2526751    0.0270170    -0.0220197   -0.0186072    -0.0214005   -0.0184858     0.1989079    0.0426856 
   0.631437500     0.2529200    0.0266056    -0.0220834   -0.0186272    -0.0215295   -0.0184719     0.1993753    0.0417857 
   0.632968750     0.2533056    0.0262680    -0.0221996   -0.0186233    -0.0215455   -0.0184236     0.2000341    0.0407671 
   0.634500000     0.2535354    0.0257785    -0.0222489   -0.0186062    -0.0216297   -0.0184229     0.2005360    0.0399422 
   0.636031250     0.2537903    0.0253663    -0.0223732   -0.0185552    -0.0216918   -0.0183929     0.2010809    0.0392285 
   0.637562500     0.2539724    0.0249763    -0.0224606   -0.0185305    -0.0218347   -0.0183809     0.2016973    0.0380386 
   0.639093750     0.2541356    0.0246892    -0.0225601   -0.0184696    -0.0219038   -0.0183243     0.2022076    0.0374418 
   0.640625000     0.2542969    0.0243172    -0.0226452   -0.0184559    -0.0219971   -0.0182555     0.2027403    0.0368837 
   0.642156250     0.2544230    0.0235974    -0.0227084   -0.0184416    -0.0220728   -0.0182312     0.2032444    0.0362226 
   0.643687500     0.2544297    0.0231675    -0.0227766   -0.0184432    -0.0220855   -0.0181634     0.2038786    0.0354073 
   0.645218750     0.2545451    0.0227200    -0.0228515   -0.0184185    -0.0221271   -0.0181460     0.2044376    0.0347989 
   0.646750000     0.2545614    0.0223419    -0.0229343   -0.0183318    -0.0221565   -0.0180870     0.2049312    0.0339830 
   0.648281250     0.2545247    0.0215414    -0.0229626   -0.0182849    -0.0222448   -0.0180865     0.2053758    0.0333617 
   0.649812500     0.2543862    0.0208129    -0.0230269   -0.0182718    -0.0222866   -0.0180886     0.2058925    0.0327643 
   0.651343750     0.2543581    0.0203867    -0.0230894   -0.0182115    -0.0223194   -0.0179726     0.2065694    0.0319903 
   0.652875000     0.2542609    0.0198178    -0.0231399   -0.0182181    -0.0223839   -0.0179546     0.2070816    0.0312916 
   0.654406250     0.2542567    0.0192062    -0.0231827   -0.0181907    -0.0224501   -0.0179300     0.2075654    0.0307809 
   0.655937500     0.2542457    0.0183874    -0.0232223   -0.0181341    -0.0224558   -0.0178801     0.2081977    0.0302820 
   0.657468750     0.2541199    0.0174433    -0.0232754   -0.0181001    -0.0224345   -0.0178730     0.2088351    0.0298364 
   0.659000000     0.2539456    0.0167192    -0.0232734   -0.0180401    -0.0224542   -0.0178871     0.2091755    0.0292514 
   0.660531250     0.2537622    0.0159213    -0.0233288   -0.0180438    -0.0224846   -0.0178363     0.2094960    0.0284125 
   0.662062500     0.2539013    0.0149280    -0.0233950   -0.0180058    -0.0225298   -0.0178130     0.2098038    0.0279083 
   0.663593750     0.2536652    0.0141658    -0.0233880   -0.0179820    -0.0225451   -0.0178159     0.2101381    0.0274907 
   0.665125000     0.2534663    0.0131340    -0.0234224   -0.0180054    -0.0225968   -0.0177803     0.2106472    0.0269018 
   0.666656250     0.2530903    0.0122630    -0.0234796   -0.0180079    -0.0226367   -0.0177877     0.2112845    0.0260324 
   0.668187500     0.2529057    0.0114411    -0.0234846   -0.0179240    -0.0226073   -0.0178263     0.2116670    0.0256437 
   0.669718750     0.2528131    0.0104429    -0.0234600   -0.0178319    -0.0226447   -0.0177993     0.2120528    0.0251700 
   0.671250000     0.2528911    0.0091682    -0.0235117   -0.0178221    -0.0227369   -0.0178479     0.2125355    0.0248152 
   0.672781250     0.2527440    0.0082930    -0.0235425   -0.0178110    -0.0227672   -0.0178502     0.2128723    0.0242482 
   0.674312500     0.2525004    0.0071767    -0.0235636   -0.0178335    -0.0227842   -0.0178335     0.2131653    0.0235190 
   0.675843750     0.2523381    0.0060648    -0.0235526   -0.0178196    -0.0228333   -0.0178715     0.2134496    0.0230110 
   0.677375000     0.2523056    0.0049197    -0.0235645   -0.0178273    -0.0228327   -0.0178891     0.2137266    0.0224773 
   0.678906250     0.2521668    0.0039086    -0.0235907   -0.0178604    -0.0228632   -0.0179406     0.2139252    0.0216133 
   0.680437500     0.2521399    0.0029366    -0.0236084   -0.0178801    -0.0228993   -0.0179721     0.2142770    0.0211533 
   0.681968750     0.2522128    0.0016499    -0.0236760   -0.0178357    -0.0229800   -0.0180131     0.2146622    0.0207133 
   0.683500000     0.2522779    0.0006361    -0.0237126   -0.0178831    -0.0229839   -0.0179862     0.2150890    0.0202103 
   0.685031250     0.2522576   -0.0004579    -0.0237802   -0.0179080    -0.0230411   -0.0180443     0.2153888    0.0196789 
   0.686562500     0.2523011   -0.0015659    -0.0238002   -0.0179596    -0.0231193   -0.0180419     0.2156244    0.0190612 
   0.688093750     0.2523949   -0.0026426    -0.0238282   -0.0180114    -0.0231464   -0.0180995     0.2158405    0.0180623 
   0.689625000     0.2523691   -0.0039225    -0.0238330   -0.0180521    -0.0231919   -0.0181351     0.2159053    0.0175029 
   0.691156250     0.2525031   -0.0051093    -0.0239613   -0.0180954    -0.0232321   -0.0181739     0.2162136    0.0168770 
   0.692687500     0.2526623   -0.0060503    -0.0239733   -0.0181127    -0.0232971   -0.0182207     0.2164193    0.0165501 
   0.694218750     0.2530094   -0.0071544    -0.0240980   -0.0181311    -0.0234083   -0.0181817     0.2168272    0.0160784 
   0.695750000     0.2532136   -0.0081572    -0.0241759   -0.0182094    -0.0234804   -0.0181768     0.2172268    0.0152008 
   0.697281250     0.2533238   -0.0093773    -0.0242531   -0.0182697    -0.0235573   -0.0182099     0.2174750    0.0147675 
   0.698812500     0.2535741   -0.0103612    -0.0243169   -0.0183024    -0.0236688   -0.0182321     0.2177324    0.0143156 
   0.700343750     0.2537742   -0.0113144    -0.0243716   -0.0183658    -0.0237727   -0.0182873     0.2179189    0.0137278 
   0.701875000     0.2541631   -0.0124635    -0.0244483   -0.0183614    -0.0238574   -0.0183355     0.2180336    0.0127769 
   0.703406250     0.2544560   -0.0136083    -0.0245065   -0.0183874    -0.0239436   -0.0183760     0.2185191    0.0120758 
   0.704937500     0.2545890   -0.0147446    -0.0246153   -0.0184245    -0.0239835   -0.0183859     0.2188423    0.0116166 
   0.706468750     0.2549581   -0.0155519    -0.0247106   -0.0184882    -0.0241015   -0.0183524     0.2191279    0.0113105 
   0.708000000     0.2552166   -0.0162800    -0.0248259   -0.0185037    -0.0242353   -0.0183280     0.2194520    0.0109563 
   0.709531250     0.2556586   -0.0171840    -0.0249282   -0.0185537    -0.0243546   -0.0183585     0.2197534    0.0104047 
   0.711062500     0.2560194   -0.0178644    -0.0250255   -0.0185855    -0.0244425   -0.0182910     0.2199738    0.0094936 
   0.712593750     0.2563327   -0.0184925    -0.0251424   -0.0185456    -0.0245502   -0.0183561     0.2202871    0.0091044 
   0.714125000     0.2567618   -0.0191730    -0.0252714   -0.0185652    -0.0246398   -0.0183443     0.2205154    0.0085427 
   0.715656250     0.2569030   -0.0200769    -0.0253835   -0.0185678    -0.0247189   -0.0183429     0.2207981    0.0080202 
   0.717187500     0.2572789   -0.0208510    -0.0254646   -0.0185532    -0.0247988   -0.0182528     0.2211692    0.0073757 
   0.718718750     0.2576643   -0.0216718    -0.0255423   -0.0185514    -0.0249164   -0.0181584     0.2215032    0.0070547 
   0.720250000     0.2580209   -0.0219957    -0.0256585   -0.0185261    -0.0250431   -0.0181667     0.2217371    0.0067932 
   0.721781250     0.2583137   -0.0224627    -0.0257552   -0.0185300    -0.0251124   -0.0180998     0.2221262    0.0064217 
   0.723312500     0.2585261   -0.0228730    -0.0258842   -0.0184581    -0.0252394   -0.0181514     0.2221384    0.0060818 
   0.724843750     0.2587966   -0.0233179    -0.0259964   -0.0184427    -0.0253042   -0.0181162     0.2224210    0.0055338 
   0.726375000     0.2588718   -0.0236443    -0.0261089   -0.0183833    -0.0253543   -0.0180472     0.2225869    0.0049591 
   0.727906250     0.2590951   -0.0240565    -0.0262022   -0.0183768    -0.0254438   -0.0180097     0.2229562    0.0045035 
   0.729437500     0.2591861   -0.0250654    -0.0262555   -0.0183317    -0.0254979   -0.0179036     0.2230390    0.0040910 
   0.730968750     0.2592752   -0.0255063    -0.0263082   -0.0182548    -0.0255548   -0.0177546     0.2229827    0.0038355 
   0.732500000     0.2594649   -0.0258662    -0.0264055   -0.0182287    -0.0255944   -0.0177718     0.2232836    0.0034669 
   0.734031250     0.2596425   -0.0261668    -0.0265055   -0.0181759    -0.0256882   -0.0177145     0.2233751    0.0031441 
   0.735562500     0.2596455   -0.0264523    -0.0265252   -0.0180893    -0.0257213   -0.0176913     0.2235162    0.0030430 
   0.737093750     0.2596057   -0.0265575    -0.0266402   -0.0179798    -0.0257138   -0.0176834     0.2235967    0.0027694 
   0.738625000     0.2595469   -0.0268393    -0.0266937   -0.0180143    -0.0258002   -0.0175877     0.2236353    0.0021906 
   0.740156250     0.2594309   -0.0271722    -0.0267383   -0.0179310    -0.0258155   -0.0175410     0.2237024    0.0015787 
   0.741687500     0.2593371   -0.0275842    -0.0267411   -0.0178722    -0.0258467   -0.0174577     0.2238292    0.0011258 
   0.743218750     0.2590463   -0.0281605    -0.0267609   -0.0177885    -0.0258765   -0.0174230     0.2238247    0.0008323 
   0.744750000     0.2588702   -0.0287104    -0.0268224   -0.0176858    -0.0258229   -0.0173898     0.2237248    0.0005607 
   0.746281250     0.2586212   -0.0290534    -0.0268164   -0.0176689    -0.0258466   -0.0173567     0.2237162    0.0002329 
   0.747812500     0.2583626   -0.0292778    -0.0268624   -0.0176119    -0.0257945   -0.0173316     0.2235843    0.0000687 
   0.749343750     0.2581001   -0.0295069    -0.0268661   -0.0175757    -0.0257820   -0.0173450     0.2234193   -0.0001263 
   0.750875000     0.2575456   -0.0298283    -0.0269020   -0.0175992    -0.0258445   -0.0173313     0.2232514   -0.0003407 
   0.752406250     0.2570204   -0.0301801    -0.0268403   -0.0175497    -0.0258208   -0.0173247     0.2235108   -0.0008800 
   0.753937500     0.2565914   -0.0306051    -0.0268468   -0.0175326    -0.0258309   -0.0173139     0.2232023   -0.0010868 
   0.755468750     0.2561554   -0.0310462    -0.0268681   -0.0175017    -0.0258091   -0.0173607     0.2226548   -0.0019106 
   0.757000000     0.2558737   -0.0318879    -0.0268278   -0.0175223    -0.0257569   -0.0173973     0.2224426   -0.0023546 
   0.758531250     0.2552988   -0.0326382    -0.0268535   -0.0175008    -0.0256927   -0.0174539     0.2221401   -0.0026742 
   0.760062500     0.2547759   -0.0330773    -0.0268221   -0.0175328    -0.0257380   -0.0174813     0.2219190   -0.0028818 
   0.761593750     0.2543072   -0.0334622    -0.0268469   -0.0176033    -0.0257641   -0.0175516     0.2216367   -0.0031349 
   0.763125000     0.2538524   -0.0340518    -0.0268257   -0.0176783    -0.0258075   -0.0176281     0.2212575   -0.0034102 
   0.764656250     0.2533057   -0.0346990    -0.0268731   -0.0176921    -0.0258736   -0.0176790     0.2207929   -0.0037724 
   0.766187500     0.2528939   -0.0352801    -0.0268906   -0.0177468    -0.0258869   -0.0177593     0.2202611   -0.0042192 
   0.767718750     0.2523207   -0.0359636    -0.0269452   -0.0177715    -0.0259472   -0.0178514     0.2201660   -0.0047721 
   0.769250000     0.2516577   -0.0367414    -0.0269552   -0.0177966    -0.0259039   -0.0179095     0.2197835   -0.0055218 
   0.770781250     0.2512331   -0.0377840    -0.0270860   -0.0179218    -0.0259223   -0.0179957     0.2194694   -0.0060276 
   0.772312500     0.2509215   -0.0387933    -0.0270582   -0.0179768    -0.0260259   -0.0180746     0.2192791   -0.0063166 
   0.773843750     0.2504433   -0.0395891    -0.0270834   -0.0180970    -0.0261295   -0.0181808     0.2188234   -0.0067042 
   0.775375000     0.2499730   -0.0403970    -0.0272177   -0.0182024    -0.0262334   -0.0182817     0.2185709   -0.0071547 
   0.776906250     0.2495341   -0.0412674    -0.0272874   -0.0182706    -0.0263226   -0.0183697     0.2182822   -0.0075664 
   0.778437500     0.2490622   -0.0421128    -0.0273894   -0.0183523    -0.0264416   -0.0184796     0.2180433   -0.0080445 
   0.779968750     0.2486632   -0.0432757    -0.0275078   -0.0184095    -0.0265426   -0.0185643     0.2177506   -0.0088186 
   0.781500000     0.2482662   -0.0442221    -0.0276099   -0.0185009    -0.0266763   -0.0186670     0.2174716   -0.0094408 
   0.783031250     0.2479076   -0.0453312    -0.0277796   -0.0185869    -0.0268109   -0.0186873     0.2174072   -0.0103306 
   0.784562500     0.2477480   -0.0466772    -0.0278562   -0.0186546    -0.0269369   -0.0187226     0.2171162   -0.0108214 
   0.786093750     0.2475842   -0.0476622    -0.0279817   -0.0187262    -0.0271445   -0.0188097     0.2168494   -0.0113635 
   0.787625000     0.2471943   -0.0490793    -0.0281451   -0.0188544    -0.0273579   -0.0188682     0.2167076   -0.0119486 
   0.789156250     0.2469267   -0.0500706    -0.0283544   -0.0188571    -0.0275262   -0.0188466     0.2164294   -0.0127642 
   0.790687500     0.2467000   -0.0510662    -0.0285601   -0.0188661    -0.0277727   -0.0188837     0.2162519   -0.0133054 
   0.792218750     0.2465174   -0.0520366    -0.0287616   -0.0189000    -0.0279062   -0.0188729     0.2160445   -0.0138952 
   0.793750000     0.2464088   -0.0535489    -0.0289419   -0.0189074    -0.0280869   -0.0188702     0.2160586   -0.0148533 
   0.795281250     0.2462177   -0.0546420    -0.0291183   -0.0189332    -0.0283215   -0.0188216     0.2158221   -0.0156109 
   0.796812500     0.2460749   -0.0559457    -0.0292765   -0.0189145    -0.0285459   -0.0187978     0.2157385   -0.0163574 
   0.798343750     0.2459690   -0.0571471    -0.0294815   -0.0188654    -0.0287808   -0.0187318     0.2154980   -0.0169138 
   0.799875000     0.2460012   -0.0584291    -0.0297012   -0.0187579    -0.0289753   -0.0186805     0.2155202   -0.0177327 
   0.801406250     0.2459192   -0.0596537    -0.0299137   -0.0187529    -0.0291386   -0.0185452     0.2153014   -0.0186229 
   0.802937500     0.2455979   -0.0609226    -0.0298966   -0.0184968    -0.0292797   -0.0184567     0.2152820   -0.0192151 
   0.804468750     0.2455207   -0.0617171    -0.0302812   -0.0185484    -0.0294198   -0.0183397     0.2152550   -0.0197639 
   0.806000000     0.2454717   -0.0626691    -0.0303904   -0.0184330    -0.0295548   -0.0182250     0.2151970   -0.0203602 
