! 10/3/2022 2:48:31 PM
! D:\USERS\JULIAN\DESKTOP\MATRIZ DE DISPERSION\ON\S65.S2P
! CHANNEL.1
! TR.MEASUREMENT
! CORRECTED.DATA
# GHZ S RI R 50.0
! FREQ.GHZ         S11RE         S11IM         S21RE         S21IM         S12RE         S12IM         S22RE         S22IM         
!; PortSelection: Port_12
   0.512000000     0.1898154    0.0779636     0.8697598   -0.3065649     0.8736435   -0.2935501     0.1780099    0.0765581 
   0.513531250     0.1920895    0.0730922     0.8698287   -0.3019910     0.8727562   -0.2928667     0.1785358    0.0760097 
   0.515062500     0.1928172    0.0721695     0.8696642   -0.3018662     0.8728465   -0.2931979     0.1790848    0.0754715 
   0.516593750     0.1934387    0.0713949     0.8696099   -0.3020159     0.8724250   -0.2945163     0.1796453    0.0750856 
   0.518125000     0.1939598    0.0708957     0.8698331   -0.3014726     0.8721756   -0.2948224     0.1801920    0.0745632 
   0.519656250     0.1943613    0.0703647     0.8698667   -0.3015719     0.8713966   -0.2948469     0.1808038    0.0740883 
   0.521187500     0.1948323    0.0700407     0.8698318   -0.3018821     0.8719622   -0.2957174     0.1816575    0.0734541 
   0.522718750     0.1953980    0.0697119     0.8702664   -0.3025711     0.8732472   -0.2958831     0.1820488    0.0728133 
   0.524250000     0.1957702    0.0693950     0.8703675   -0.3033777     0.8732808   -0.2969220     0.1825791    0.0723313 
   0.525781250     0.1961203    0.0689332     0.8708948   -0.3040578     0.8722728   -0.2982205     0.1831633    0.0719483 
   0.527312500     0.1965334    0.0687248     0.8713236   -0.3047465     0.8722695   -0.2998245     0.1838160    0.0716471 
   0.528843750     0.1969793    0.0684127     0.8717306   -0.3050415     0.8728088   -0.3012331     0.1845361    0.0712719 
   0.530375000     0.1973397    0.0680959     0.8719360   -0.3053411     0.8728302   -0.3018849     0.1850728    0.0709984 
   0.531906250     0.1980867    0.0675889     0.8722175   -0.3059746     0.8727563   -0.3021598     0.1855540    0.0704598 
   0.533437500     0.1986620    0.0671556     0.8725347   -0.3067726     0.8717850   -0.3039750     0.1861941    0.0700503 
   0.534968750     0.1991009    0.0669476     0.8725154   -0.3085554     0.8735244   -0.3038726     0.1868947    0.0696556 
   0.536500000     0.1995901    0.0666278     0.8728373   -0.3101605     0.8743190   -0.3054954     0.1875502    0.0693066 
   0.538031250     0.2001309    0.0663252     0.8730663   -0.3113469     0.8738730   -0.3066742     0.1884118    0.0688366 
   0.539562500     0.2006419    0.0661035     0.8739297   -0.3120229     0.8742571   -0.3081468     0.1890954    0.0686405 
   0.541093750     0.2010413    0.0657928     0.8739732   -0.3128423     0.8720371   -0.3085914     0.1896142    0.0684894 
   0.542625000     0.2016852    0.0653678     0.8740706   -0.3140179     0.8718134   -0.3095876     0.1901966    0.0682451 
   0.544156250     0.2023142    0.0649797     0.8740652   -0.3155625     0.8714588   -0.3116558     0.1907612    0.0680771 
   0.545687500     0.2029750    0.0646138     0.8738657   -0.3173804     0.8721638   -0.3124112     0.1913902    0.0678179 
   0.547218750     0.2035960    0.0641175     0.8736831   -0.3194034     0.8727084   -0.3130088     0.1920013    0.0675044 
   0.548750000     0.2041371    0.0638296     0.8734730   -0.3208721     0.8721682   -0.3145443     0.1926860    0.0668961 
   0.550281250     0.2047290    0.0634919     0.8733245   -0.3221461     0.8714765   -0.3156726     0.1932478    0.0665969 
   0.551812500     0.2051368    0.0631647     0.8732340   -0.3230556     0.8701921   -0.3170081     0.1936758    0.0663547 
   0.553343750     0.2056517    0.0627236     0.8726714   -0.3244651     0.8691363   -0.3173724     0.1940981    0.0661932 
   0.554875000     0.2061407    0.0622465     0.8724356   -0.3259590     0.8683690   -0.3188702     0.1945421    0.0660412 
   0.556406250     0.2068965    0.0617314     0.8719068   -0.3279796     0.8681504   -0.3201254     0.1949402    0.0658556 
   0.557937500     0.2073759    0.0613202     0.8710582   -0.3297350     0.8692107   -0.3204796     0.1953883    0.0657467 
   0.559468750     0.2078811    0.0607704     0.8700765   -0.3310784     0.8671777   -0.3215985     0.1956779    0.0654957 
   0.561000000     0.2083941    0.0602953     0.8691808   -0.3318812     0.8668626   -0.3227697     0.1959835    0.0652775 
   0.562531250     0.2088560    0.0597995     0.8682886   -0.3327134     0.8657188   -0.3238779     0.1963698    0.0648746 
   0.564062500     0.2092413    0.0593523     0.8678761   -0.3338563     0.8643576   -0.3238865     0.1968420    0.0642461 
   0.565593750     0.2097706    0.0589320     0.8671849   -0.3353219     0.8632835   -0.3250552     0.1971180    0.0639237 
   0.567125000     0.2102376    0.0585374     0.8663350   -0.3364614     0.8624510   -0.3259709     0.1973526    0.0638755 
   0.568656250     0.2107434    0.0580804     0.8653266   -0.3382810     0.8629391   -0.3265133     0.1975631    0.0637030 
   0.570187500     0.2112594    0.0572438     0.8640078   -0.3388517     0.8617676   -0.3270846     0.1977976    0.0634310 
   0.571718750     0.2120657    0.0566270     0.8631303   -0.3392111     0.8608858   -0.3279959     0.1980846    0.0631491 
   0.573250000     0.2126040    0.0558478     0.8622147   -0.3395166     0.8598819   -0.3287631     0.1982700    0.0629973 
   0.574781250     0.2131496    0.0552300     0.8612830   -0.3396581     0.8590511   -0.3293940     0.1983860    0.0626501 
   0.576312500     0.2136271    0.0546442     0.8604404   -0.3400581     0.8579249   -0.3292375     0.1986364    0.0621626 
   0.577843750     0.2141610    0.0541171     0.8592070   -0.3415537     0.8568819   -0.3305874     0.1991974    0.0614427 
   0.579375000     0.2145836    0.0535422     0.8583655   -0.3423229     0.8568602   -0.3307609     0.1994203    0.0611220 
   0.580906250     0.2150348    0.0530773     0.8574703   -0.3425905     0.8573099   -0.3303596     0.1995365    0.0608516 
   0.582437500     0.2156503    0.0521708     0.8567742   -0.3427854     0.8559909   -0.3311138     0.1997693    0.0604709 
   0.583968750     0.2163448    0.0515228     0.8564514   -0.3422625     0.8554657   -0.3319332     0.1999795    0.0601631 
   0.585500000     0.2169781    0.0508175     0.8553281   -0.3421421     0.8560107   -0.3326980     0.2001640    0.0598079 
   0.587031250     0.2174839    0.0499760     0.8544165   -0.3421701     0.8548834   -0.3325064     0.2004043    0.0593743 
   0.588562500     0.2179608    0.0492179     0.8534478   -0.3427162     0.8540649   -0.3325283     0.2007877    0.0584372 
   0.590093750     0.2184531    0.0485953     0.8530017   -0.3433438     0.8544585   -0.3328053     0.2013202    0.0576714 
   0.591625000     0.2189734    0.0478046     0.8526576   -0.3431792     0.8556384   -0.3325586     0.2015071    0.0571816 
   0.593156250     0.2194549    0.0471387     0.8523260   -0.3433899     0.8544833   -0.3332331     0.2017520    0.0566443 
   0.594687500     0.2199079    0.0465761     0.8523459   -0.3429000     0.8550298   -0.3340062     0.2019874    0.0561362 
   0.596218750     0.2207176    0.0458030     0.8518347   -0.3425861     0.8553283   -0.3350815     0.2023483    0.0553581 
   0.597750000     0.2211709    0.0450583     0.8518786   -0.3427941     0.8552628   -0.3350873     0.2025998    0.0548421 
   0.599281250     0.2216292    0.0441694     0.8519723   -0.3430900     0.8547593   -0.3352362     0.2029776    0.0542310 
   0.600812500     0.2221386    0.0434486     0.8513803   -0.3440762     0.8550715   -0.3361241     0.2034340    0.0537135 
   0.602343750     0.2225606    0.0428056     0.8516554   -0.3442254     0.8565344   -0.3365002     0.2041124    0.0528916 
   0.603875000     0.2229478    0.0420944     0.8515645   -0.3446577     0.8559783   -0.3370188     0.2044463    0.0518442 
   0.605406250     0.2234328    0.0413567     0.8519876   -0.3452666     0.8561788   -0.3381579     0.2049640    0.0512145 
   0.606937500     0.2239737    0.0408111     0.8523782   -0.3448279     0.8566512   -0.3392425     0.2053546    0.0506341 
   0.608468750     0.2243614    0.0402959     0.8526908   -0.3454556     0.8579577   -0.3409975     0.2059624    0.0501488 
   0.610000000     0.2247028    0.0398615     0.8527683   -0.3462317     0.8580950   -0.3410824     0.2062985    0.0492434 
   0.611531250     0.2250994    0.0393366     0.8528350   -0.3480975     0.8580110   -0.3418853     0.2072988    0.0485732 
   0.613062500     0.2256982    0.0384922     0.8530525   -0.3491213     0.8582422   -0.3430018     0.2079067    0.0479928 
   0.614593750     0.2261716    0.0380019     0.8534018   -0.3500585     0.8602619   -0.3435394     0.2086117    0.0473716 
   0.616125000     0.2266774    0.0375527     0.8536811   -0.3506547     0.8608470   -0.3453562     0.2093845    0.0467775 
   0.617656250     0.2271093    0.0370941     0.8539364   -0.3515177     0.8608929   -0.3466982     0.2101247    0.0458132 
   0.619187500     0.2275763    0.0367157     0.8541506   -0.3525766     0.8605307   -0.3484639     0.2108167    0.0450049 
   0.620718750     0.2282597    0.0361604     0.8545675   -0.3536506     0.8598608   -0.3493538     0.2112584    0.0442456 
   0.622250000     0.2285573    0.0356809     0.8543904   -0.3561299     0.8589590   -0.3503684     0.2119291    0.0436887 
   0.623781250     0.2288328    0.0350490     0.8546048   -0.3578701     0.8589537   -0.3523232     0.2125672    0.0431468 
   0.625312500     0.2291827    0.0346018     0.8548123   -0.3591641     0.8603315   -0.3534394     0.2132757    0.0426055 
   0.626843750     0.2296237    0.0340027     0.8544754   -0.3607777     0.8592621   -0.3549488     0.2139292    0.0414948 
   0.628375000     0.2298881    0.0333335     0.8547762   -0.3613392     0.8586332   -0.3568594     0.2146404    0.0409054 
   0.629906250     0.2302601    0.0328251     0.8546112   -0.3628527     0.8581032   -0.3588468     0.2153094    0.0401308 
   0.631437500     0.2306287    0.0320891     0.8543413   -0.3646218     0.8577595   -0.3608497     0.2159666    0.0394364 
   0.632968750     0.2308736    0.0316674     0.8536484   -0.3667246     0.8562698   -0.3611782     0.2166862    0.0386966 
   0.634500000     0.2311187    0.0312403     0.8531391   -0.3689367     0.8555765   -0.3635874     0.2173567    0.0381989 
   0.636031250     0.2312730    0.0308393     0.8528161   -0.3705874     0.8545809   -0.3648618     0.2179420    0.0376908 
   0.637562500     0.2314498    0.0304557     0.8522417   -0.3721422     0.8552368   -0.3658275     0.2185607    0.0366947 
   0.639093750     0.2315798    0.0299898     0.8514730   -0.3729971     0.8538000   -0.3676857     0.2191013    0.0362067 
   0.640625000     0.2316974    0.0293857     0.8507721   -0.3741369     0.8523273   -0.3690619     0.2196063    0.0357565 
   0.642156250     0.2316557    0.0285046     0.8498610   -0.3753209     0.8512810   -0.3709175     0.2200929    0.0352831 
   0.643687500     0.2318453    0.0278018     0.8485849   -0.3778155     0.8487181   -0.3708357     0.2204607    0.0346270 
   0.645218750     0.2318204    0.0274035     0.8474576   -0.3790682     0.8472406   -0.3716690     0.2209748    0.0340815 
   0.646750000     0.2317154    0.0270544     0.8461435   -0.3802418     0.8450646   -0.3728838     0.2213230    0.0335637 
   0.648281250     0.2316310    0.0266286     0.8452063   -0.3813023     0.8451395   -0.3731649     0.2216723    0.0333210 
   0.649812500     0.2315385    0.0261227     0.8441783   -0.3816904     0.8437774   -0.3737596     0.2219218    0.0330467 
   0.651343750     0.2315096    0.0257234     0.8429869   -0.3821776     0.8410504   -0.3744941     0.2222731    0.0325374 
   0.652875000     0.2315016    0.0250877     0.8416037   -0.3825260     0.8407641   -0.3755488     0.2225312    0.0320402 
   0.654406250     0.2314001    0.0242557     0.8400219   -0.3836875     0.8394341   -0.3761389     0.2227861    0.0316153 
   0.655937500     0.2313766    0.0235651     0.8385099   -0.3846299     0.8371104   -0.3757375     0.2233127    0.0314122 
   0.657468750     0.2314492    0.0227506     0.8365315   -0.3849411     0.8352941   -0.3758813     0.2234987    0.0310964 
   0.659000000     0.2313797    0.0219728     0.8351389   -0.3851128     0.8347498   -0.3756957     0.2237432    0.0306975 
   0.660531250     0.2313232    0.0213049     0.8340743   -0.3851184     0.8338171   -0.3755656     0.2239147    0.0304168 
   0.662062500     0.2314780    0.0206985     0.8326872   -0.3847108     0.8317205   -0.3761968     0.2237956    0.0301154 
   0.663593750     0.2313650    0.0200293     0.8319001   -0.3850954     0.8310840   -0.3757021     0.2236559    0.0297245 
   0.665125000     0.2313929    0.0190700     0.8320012   -0.3852771     0.8308048   -0.3761647     0.2239373    0.0293911 
   0.666656250     0.2313742    0.0182438     0.8308696   -0.3857603     0.8305131   -0.3760520     0.2241383    0.0287015 
   0.668187500     0.2312673    0.0173033     0.8286836   -0.3847680     0.8298032   -0.3755401     0.2241657    0.0284583 
   0.669718750     0.2312688    0.0162375     0.8259191   -0.3840234     0.8288984   -0.3749323     0.2241741    0.0280764 
   0.671250000     0.2313571    0.0150381     0.8252231   -0.3838065     0.8300368   -0.3749380     0.2243016    0.0277401 
   0.672781250     0.2313713    0.0140286     0.8257897   -0.3845649     0.8294173   -0.3747656     0.2242098    0.0273027 
   0.674312500     0.2313665    0.0131693     0.8256925   -0.3843631     0.8296261   -0.3737527     0.2241001    0.0269813 
   0.675843750     0.2313557    0.0122151     0.8248786   -0.3837584     0.8298275   -0.3733414     0.2241007    0.0266662 
   0.677375000     0.2313922    0.0111561     0.8245668   -0.3835395     0.8298771   -0.3733197     0.2239500    0.0258796 
   0.678906250     0.2313697    0.0101754     0.8248786   -0.3826428     0.8302338   -0.3737081     0.2237665    0.0255645 
   0.680437500     0.2314200    0.0091389     0.8241354   -0.3824883     0.8303736   -0.3736333     0.2237001    0.0251015 
   0.681968750     0.2314999    0.0078366     0.8234549   -0.3826066     0.8306733   -0.3737190     0.2239897    0.0246275 
   0.683500000     0.2316866    0.0066734     0.8246483   -0.3828945     0.8305024   -0.3737384     0.2238086    0.0242443 
   0.685031250     0.2317481    0.0056468     0.8254859   -0.3833596     0.8308515   -0.3737454     0.2237943    0.0236856 
   0.686562500     0.2317401    0.0047496     0.8259842   -0.3832314     0.8318633   -0.3739473     0.2235958    0.0229588 
   0.688093750     0.2318071    0.0039197     0.8266601   -0.3833801     0.8330322   -0.3744506     0.2235286    0.0226536 
   0.689625000     0.2318760    0.0027849     0.8264063   -0.3826036     0.8336343   -0.3752758     0.2232971    0.0223199 
   0.691156250     0.2320457    0.0019500     0.8278495   -0.3839708     0.8342410   -0.3763906     0.2232966    0.0218943 
   0.692687500     0.2322798    0.0012157     0.8282593   -0.3845580     0.8352857   -0.3771465     0.2231219    0.0215408 
   0.694218750     0.2323849   -0.0000615     0.8291599   -0.3842505     0.8339618   -0.3778778     0.2231822    0.0209740 
   0.695750000     0.2328474   -0.0011521     0.8307599   -0.3856205     0.8341271   -0.3794874     0.2235667    0.0206175 
   0.697281250     0.2330764   -0.0020800     0.8318239   -0.3860966     0.8346972   -0.3804262     0.2233476    0.0201094 
   0.698812500     0.2334522   -0.0029559     0.8325410   -0.3880281     0.8354705   -0.3820982     0.2234436    0.0194207 
   0.700343750     0.2337053   -0.0038639     0.8334463   -0.3893295     0.8365573   -0.3843217     0.2238998    0.0189565 
   0.701875000     0.2341952   -0.0047005     0.8338127   -0.3905511     0.8380443   -0.3866053     0.2242166    0.0183350 
   0.703406250     0.2347305   -0.0056353     0.8343878   -0.3920308     0.8383330   -0.3885729     0.2245894    0.0178056 
   0.704937500     0.2349975   -0.0064851     0.8351343   -0.3926588     0.8372016   -0.3896935     0.2246819    0.0174898 
   0.706468750     0.2355435   -0.0072694     0.8359791   -0.3941314     0.8373117   -0.3920793     0.2250369    0.0171205 
   0.708000000     0.2357031   -0.0083025     0.8361484   -0.3961728     0.8373073   -0.3940710     0.2253697    0.0165631 
   0.709531250     0.2361727   -0.0093863     0.8361717   -0.3980108     0.8370852   -0.3955522     0.2257825    0.0159091 
   0.711062500     0.2366763   -0.0103500     0.8360117   -0.4003690     0.8358855   -0.3985580     0.2261337    0.0151061 
   0.712593750     0.2370156   -0.0110072     0.8360997   -0.4022816     0.8368254   -0.4007818     0.2268515    0.0142228 
   0.714125000     0.2373354   -0.0116470     0.8361802   -0.4037693     0.8348805   -0.4022599     0.2269338    0.0134631 
   0.715656250     0.2375242   -0.0123287     0.8359919   -0.4057325     0.8343197   -0.4042561     0.2271781    0.0128475 
   0.717187500     0.2376945   -0.0129276     0.8354675   -0.4072075     0.8323457   -0.4059175     0.2272744    0.0124660 
   0.718718750     0.2380016   -0.0138126     0.8348662   -0.4090829     0.8311234   -0.4079910     0.2276724    0.0117058 
   0.720250000     0.2380279   -0.0146850     0.8337222   -0.4119267     0.8298861   -0.4095483     0.2276359    0.0109688 
   0.721781250     0.2380726   -0.0154190     0.8326460   -0.4138983     0.8286981   -0.4115209     0.2278574    0.0103755 
   0.723312500     0.2382661   -0.0161058     0.8316652   -0.4157836     0.8281966   -0.4137194     0.2279463    0.0098209 
   0.724843750     0.2382775   -0.0166406     0.8303622   -0.4172967     0.8264424   -0.4155954     0.2280546    0.0091651 
   0.726375000     0.2378891   -0.0171707     0.8292418   -0.4184231     0.8244659   -0.4163156     0.2278868    0.0085101 
   0.727906250     0.2376889   -0.0175978     0.8277057   -0.4199342     0.8228626   -0.4175957     0.2280412    0.0078475 
   0.729437500     0.2374785   -0.0181032     0.8263293   -0.4214173     0.8202994   -0.4188707     0.2281107    0.0069717 
   0.730968750     0.2373992   -0.0186291     0.8243406   -0.4233657     0.8174843   -0.4194340     0.2278371    0.0065512 
   0.732500000     0.2372016   -0.0188980     0.8225577   -0.4252321     0.8157412   -0.4201767     0.2278804    0.0061531 
   0.734031250     0.2369169   -0.0191542     0.8204964   -0.4262101     0.8135650   -0.4213589     0.2277213    0.0056991 
   0.735562500     0.2365651   -0.0194333     0.8179831   -0.4267273     0.8112242   -0.4219173     0.2277263    0.0053453 
   0.737093750     0.2363345   -0.0196795     0.8156278   -0.4268872     0.8098290   -0.4220432     0.2276438    0.0049836 
   0.738625000     0.2362262   -0.0199345     0.8146168   -0.4275638     0.8081111   -0.4212881     0.2274706    0.0043496 
   0.740156250     0.2359133   -0.0200096     0.8128275   -0.4281693     0.8064134   -0.4213234     0.2273846    0.0037531 
   0.741687500     0.2355062   -0.0200015     0.8106785   -0.4288361     0.8043016   -0.4209528     0.2272426    0.0033522 
   0.743218750     0.2350966   -0.0200609     0.8084841   -0.4294970     0.8036301   -0.4208837     0.2273837    0.0027645 
   0.744750000     0.2349560   -0.0204661     0.8068216   -0.4298540     0.8023784   -0.4203735     0.2272386    0.0025556 
   0.746281250     0.2346220   -0.0207605     0.8051981   -0.4295871     0.8003476   -0.4193865     0.2270496    0.0022072 
   0.747812500     0.2343222   -0.0208669     0.8034136   -0.4292656     0.7980874   -0.4186412     0.2268106    0.0016400 
   0.749343750     0.2342386   -0.0212142     0.8021486   -0.4278895     0.7982990   -0.4178049     0.2266289    0.0013376 
   0.750875000     0.2335469   -0.0214991     0.8008832   -0.4273536     0.7967905   -0.4168521     0.2264624    0.0009562 
   0.752406250     0.2331795   -0.0221045     0.7991026   -0.4273238     0.7965482   -0.4159202     0.2265278    0.0003182 
   0.753937500     0.2327341   -0.0223567     0.7975501   -0.4274943     0.7961450   -0.4153620     0.2260678    0.0001342 
   0.755468750     0.2322598   -0.0226763     0.7966630   -0.4265594     0.7963650   -0.4144301     0.2256386   -0.0002618 
   0.757000000     0.2318542   -0.0230331     0.7960218   -0.4255035     0.7959729   -0.4129013     0.2250820   -0.0012715 
   0.758531250     0.2315322   -0.0236620     0.7955399   -0.4247222     0.7948713   -0.4112518     0.2247667   -0.0017560 
   0.760062500     0.2310208   -0.0242963     0.7953566   -0.4229707     0.7947139   -0.4105348     0.2243348   -0.0024429 
   0.761593750     0.2304914   -0.0247890     0.7950206   -0.4220386     0.7953590   -0.4092559     0.2237023   -0.0028914 
   0.763125000     0.2298678   -0.0255082     0.7946163   -0.4213832     0.7963329   -0.4078300     0.2231335   -0.0035233 
   0.764656250     0.2292464   -0.0262210     0.7942959   -0.4210617     0.7972785   -0.4077481     0.2227544   -0.0038454 
   0.766187500     0.2287737   -0.0267265     0.7944457   -0.4204667     0.7983174   -0.4072253     0.2222845   -0.0047110 
   0.767718750     0.2281906   -0.0272969     0.7947610   -0.4198471     0.7992902   -0.4065965     0.2218861   -0.0054749 
   0.769250000     0.2275082   -0.0279542     0.7956181   -0.4185540     0.7987275   -0.4049309     0.2212858   -0.0059078 
   0.770781250     0.2269250   -0.0285999     0.7964320   -0.4181261     0.7996922   -0.4044116     0.2207818   -0.0065016 
   0.772312500     0.2265334   -0.0293864     0.7974873   -0.4171171     0.8010311   -0.4045857     0.2201745   -0.0069982 
   0.773843750     0.2259692   -0.0298739     0.7986045   -0.4169590     0.8029338   -0.4042293     0.2195092   -0.0076333 
   0.775375000     0.2253301   -0.0305139     0.7990829   -0.4175988     0.8048638   -0.4047766     0.2189501   -0.0081483 
   0.776906250     0.2248435   -0.0313537     0.8001687   -0.4175223     0.8060997   -0.4054357     0.2184172   -0.0087413 
   0.778437500     0.2243647   -0.0322485     0.8011567   -0.4176218     0.8074313   -0.4062612     0.2178511   -0.0094718 
   0.779968750     0.2239527   -0.0328830     0.8026974   -0.4177541     0.8083978   -0.4062217     0.2173291   -0.0098906 
   0.781500000     0.2235578   -0.0334295     0.8043481   -0.4180275     0.8087189   -0.4070982     0.2173054   -0.0105280 
   0.783031250     0.2232719   -0.0339244     0.8057547   -0.4182537     0.8100925   -0.4084869     0.2169745   -0.0109209 
   0.784562500     0.2228307   -0.0347431     0.8072560   -0.4190009     0.8119025   -0.4095528     0.2164977   -0.0116650 
   0.786093750     0.2229213   -0.0353481     0.8081640   -0.4210963     0.8139451   -0.4115952     0.2162205   -0.0122107 
   0.787625000     0.2227902   -0.0360483     0.8095285   -0.4219734     0.8147253   -0.4133010     0.2159316   -0.0128809 
   0.789156250     0.2224913   -0.0368413     0.8110659   -0.4233758     0.8159400   -0.4155804     0.2155972   -0.0135617 
   0.790687500     0.2225451   -0.0375785     0.8119878   -0.4245526     0.8167474   -0.4175358     0.2152942   -0.0142465 
   0.792218750     0.2224311   -0.0383599     0.8134993   -0.4256485     0.8169873   -0.4187687     0.2153278   -0.0150615 
   0.793750000     0.2224611   -0.0390932     0.8143587   -0.4270734     0.8167896   -0.4213154     0.2152498   -0.0157589 
   0.795281250     0.2226920   -0.0397031     0.8153535   -0.4291859     0.8174092   -0.4235718     0.2153019   -0.0163989 
   0.796812500     0.2231731   -0.0405579     0.8161494   -0.4315417     0.8183109   -0.4259398     0.2153690   -0.0170996 
   0.798343750     0.2235688   -0.0414189     0.8164331   -0.4345335     0.8192926   -0.4290184     0.2153570   -0.0179144 
   0.799875000     0.2238505   -0.0422167     0.8169568   -0.4366708     0.8189502   -0.4317026     0.2155374   -0.0190996 
   0.801406250     0.2240262   -0.0428957     0.8172596   -0.4386454     0.8191347   -0.4342425     0.2154525   -0.0201074 
   0.802937500     0.2242637   -0.0437973     0.8172733   -0.4409048     0.8179461   -0.4359084     0.2155338   -0.0212093 
   0.804468750     0.2244950   -0.0448133     0.8171086   -0.4426633     0.8162156   -0.4384553     0.2155428   -0.0222613 
   0.806000000     0.2246211   -0.0456640     0.8166421   -0.4447171     0.8156371   -0.4406742     0.2155754   -0.0230629 
